                        Mix 1DC_ydet_budget/imaginary
----------------------------------------------------------------------
                       0                      -3557.3706
             0.010239144                      -4815.6979
             0.020478289                      -7276.0785
             0.030717433                      -8367.8477
             0.040956577                      -6949.6056
             0.051195721                      -4501.8807
             0.061434866                       -3580.647
              0.07167401                      -5146.3105
             0.081913154                      -7558.8989
             0.092152298                      -8291.3152
              0.10239144                      -6572.4788
              0.11263059                      -4197.4324
              0.12286973                      -3653.6877
              0.13310888                       -5518.467
              0.14334802                      -7848.7887
              0.15358716                      -8208.3327
              0.16382631                      -6217.5288
              0.17406545                      -3958.8093
               0.1843046                      -3804.7304
              0.19454374                      -5933.1521
              0.20478289                      -8130.7231
              0.21502203                       -8101.034
              0.22526117                      -5871.4499
              0.23550032                      -3777.1692
              0.24573946                      -4025.9371
              0.25597861                      -6381.9332
              0.26621775                       -8397.508
               0.2764569                      -7966.0892
              0.28669604                      -5534.8466
              0.29693518                      -3654.1823
              0.30717433                      -4317.0554
              0.31741347                      -6862.4734
              0.32765262                       -8647.414
              0.33789176                      -7805.0996
              0.34813091                      -5212.6463
              0.35837005                      -3595.3907
              0.36860919                      -4681.4801
              0.37884834                      -7375.8062
              0.38908748                      -8881.5218
              0.39932663                      -7621.8535
              0.40956577                      -4911.8013
              0.41980492                      -3608.8653
              0.43004406                      -5125.8115
               0.4402832                      -7926.2398
              0.45052235                      -9103.4417
              0.46076149                      -7421.8539
              0.47100064                      -4641.1251
              0.48123978                      -3705.8235
              0.49147892                      -5661.1649
              0.50171807                      -8522.7175
              0.51195721                      -9320.1485
              0.52219636                       -7212.746
               0.5324355                      -4412.0896
              0.54267465                      -3902.4786
              0.55291379                      -6305.8819
              0.56315293                      -9181.3937
              0.57339208                      -9543.5988
              0.58363122                       -7005.315
              0.59387037                        -4240.61
              0.60410951                      -4223.7705
              0.61434866                       -7090.805
               0.6245878                      -9930.6243
              0.63482694                      -9793.9541
              0.64506609                      -6815.6034
              0.65530523                      -4150.6855
              0.66554438                      -4710.7153
              0.67578352                      -8069.5872
              0.68602267                      -10820.789
              0.69626181                      -10106.149
              0.70650095                      -6669.6659
               0.7167401                      -4182.6905
              0.72697924                      -5436.6454
              0.73721839                      -9341.2243
              0.74745753                      -11945.782
              0.75769668                      -10544.494
              0.76793582                      -6614.6997
              0.77817496                      -4413.2833
              0.78841411                      -6546.1668
              0.79865325                      -11104.296
               0.8088924                      -13495.227
              0.81913154                      -11239.084
              0.82937069                      -6749.0715
              0.83960983                      -5011.5793
              0.84984897                      -8365.4437
              0.86008812                      -13811.499
              0.87032726                       -15904.95
              0.88056641                      -12493.492
              0.89080555                      -7319.2403
               0.9010447                       -6433.337
              0.91128384                      -11791.988
              0.92152298                      -18726.409
              0.93176213                      -20409.767
              0.94200127                      -15192.856
              0.95224042                      -9135.4336
              0.96247956                      -10364.136
              0.97271871                      -20306.211
              0.98295785                      -30942.452
              0.99319699                      -32159.498
               1.0034361                      -23171.945
               1.0136753                      -16585.343
               1.0239144                      -29098.701
               1.0341536                      -65120.018
               1.0443927                      -107576.34
               1.0546319                      -125816.01
                1.064871                      -96543.519
               1.0751101                      -22045.892
               1.0853493                       68964.916
               1.0955884                       139164.76
               1.1058276                       165761.93
               1.1160667                       152009.16
               1.1263059                       120046.76
                1.136545                       92702.097
               1.1467842                       79079.907
               1.1570233                       73527.468
               1.1672624                       65621.634
               1.1775016                       50795.038
               1.1877407                       33007.919
               1.1979799                       19308.307
                1.208219                       12939.348
               1.2184582                       11370.163
               1.2286973                       9875.0245
               1.2389365                       6196.0336
               1.2491756                        1811.054
               1.2594147                      -593.72114
               1.2696539                      -226.24382
                1.279893                       1229.8742
               1.2901322                       1608.9039
               1.3003713                       377.69058
               1.3106105                      -1231.7676
               1.3208496                      -1826.1648
               1.3310888                      -1271.1934
               1.3413279                      -555.72653
                1.351567                      -556.19637
               1.3618062                      -1187.0201
               1.3720453                      -1733.4195
               1.3822845                      -1766.5152
               1.3925236                      -1533.0594
               1.4027628                      -1496.5182
               1.4130019                      -1722.3228
               1.4232411                      -1872.8546
               1.4334802                      -1739.3961
               1.4437193                      -1569.7715
               1.4539585                      -1746.6074
               1.4641976                      -2226.9909
               1.4744368                      -2495.3888
               1.4846759                      -2167.3684
               1.4949151                      -1540.7553
               1.5051542                      -1365.0112
               1.5153934                      -1991.6649
               1.5256325                      -2865.3544
               1.5358716                      -3032.3567
               1.5461108                      -2206.4208
               1.5563499                       -1205.889
               1.5665891                      -1164.6343
               1.5768282                      -2274.5611
               1.5870674                      -3447.6394
               1.5973065                      -3390.4603
               1.6075457                      -2032.9954
               1.6177848                      -741.75944
               1.6280239                      -952.40374
               1.6382631                      -2586.2747
               1.6485022                      -3986.4512
               1.6587414                      -3587.9918
               1.6689805                      -1643.3389
               1.6792197                      -113.80195
               1.6894588                      -683.52052
               1.6996979                       -2900.482
               1.7099371                      -4479.2646
               1.7201762                      -3618.7331
               1.7304154                      -991.09817
               1.7406545                        774.2451
               1.7508937                      -242.13427
               1.7611328                      -3129.1958
                1.771372                      -4889.3625
               1.7816111                      -3469.4586
               1.7918502                      -12.149608
               1.8020894                       2126.6252
               1.8123285                       767.03162
               1.8225677                      -2760.3777
               1.8328068                       -4917.497
                1.843046                       -3756.366
               1.8532851                      -1256.9456
               1.8635243                      -1437.3073
               1.8737634                      -5756.7903
               1.8840025                      -10472.335
               1.8942417                      -9185.3693
               1.9044808                       1138.2924
                 1.91472                       16145.414
               1.9249591                       26226.164
               1.9351983                       23524.824
               1.9454374                       8039.7266
               1.9556766                       -12287.76
               1.9659157                      -27343.411
               1.9761548                      -31457.353
                1.986394                      -25783.489
               1.9966331                      -15682.572
               2.0068723                      -6540.5503
               2.0171114                      -1593.7051
               2.0273506                      -2048.1251
               2.0375897                      -7242.9112
               2.0478289                      -13735.577
                2.058068                       -15290.73
               2.0683071                      -6392.0864
               2.0785463                       11818.247
               2.0887854                       28790.798
               2.0990246                       30152.724
               2.1092637                       9767.9227
               2.1195029                      -21392.512
                2.129742                      -39482.036
               2.1399812                      -25191.406
               2.1502203                       18151.394
               2.1604594                       61878.144
               2.1706986                       70146.166
               2.1809377                       27063.253
               2.1911769                      -48467.543
                2.201416                      -113430.83
               2.2116552                      -130205.94
               2.2218943                       -92638.11
               2.2321335                      -28695.781
               2.2423726                       21620.899
               2.2526117                       34967.348
               2.2628509                       17672.093
                 2.27309                      -5046.4392
               2.2833292                      -12107.342
               2.2935683                      -1832.8092
               2.3038075                        11581.53
               2.3140466                        14227.48
               2.3242857                       5251.3482
               2.3345249                      -4523.9291
                2.344764                      -4737.1858
               2.3550032                       4390.3095
               2.3652423                       13333.521
               2.3754815                       13531.394
               2.3857206                       5840.5478
               2.3959598                      -973.79627
               2.4061989                       462.59156
                2.416438                       8737.6621
               2.4266772                       15453.077
               2.4369163                       14044.658
               2.4471555                       6515.4552
               2.4573946                       1305.4144
               2.4676338                       4549.8895
               2.4778729                       13631.901
               2.4881121                       19654.594
               2.4983512                       16556.929
               2.5085903                       7850.2558
               2.5188295                       4012.4916
               2.5290686                       12527.771
               2.5393078                       29825.814
               2.5495469                       42966.742
               2.5597861                       40071.473
               2.5700252                       20446.139
               2.5802644                      -4474.2994
               2.5905035                      -20088.178
               2.6007426                      -19630.907
               2.6109818                      -8022.9571
               2.6212209                       3876.2736
               2.6314601                       8673.3191
               2.6416992                       7125.1399
               2.6519384                       4913.6507
               2.6621775                       5810.3043
               2.6724167                       8275.0841
               2.6826558                       8376.8628
               2.6928949                       5311.0979
               2.7031341                       3258.6214
               2.7133732                       7223.0719
               2.7236124                       16866.187
               2.7338515                       24894.685
               2.7440907                       22584.159
               2.7543298                       8123.7203
                2.764569                      -9873.6189
               2.7748081                      -17734.065
               2.7850472                      -7347.6856
               2.7952864                       16537.067
               2.8055255                       38708.739
               2.8157647                       44175.614
               2.8260038                       28932.533
                2.836243                       2486.6941
               2.8464821                      -19550.366
               2.8567213                      -26665.998
               2.8669604                      -19692.299
               2.8771995                      -7858.6903
               2.8874387                       -40.64444
               2.8976778                       2065.4023
                2.907917                       3424.2965
               2.9181561                        9040.362
               2.9283953                       17659.324
               2.9386344                       21643.228
               2.9488735                        13261.91
               2.9591127                      -8035.8741
               2.9693518                      -33725.312
                2.979591                      -51531.018
               2.9898301                        -53824.6
               3.0000693                      -42502.928
               3.0103084                      -26773.082
               3.0205476                      -16027.703
               3.0307867                      -13632.882
               3.0410258                      -16137.081
                3.051265                      -17604.001
               3.0615041                       -14746.58
               3.0717433                      -8581.6216
               3.0819824                      -1992.0798
               3.0922216                       3672.0552
               3.1024607                       9355.6786
               3.1126999                       15821.455
                3.122939                       20794.112
               3.1331781                       19173.629
               3.1434173                       6876.6262
               3.1536564                      -14820.561
               3.1638956                      -38552.488
               3.1741347                      -55055.115
               3.1843739                      -59328.217
                3.194613                       -53880.23
               3.2048522                      -46364.557
               3.2150913                      -43488.174
               3.2253304                      -46145.515
               3.2355696                       -49663.13
               3.2458087                      -48713.675
               3.2560479                      -42530.094
                3.266287                      -35843.468
               3.2765262                      -34650.471
               3.2867653                       -40378.79
               3.2970045                      -47504.818
               3.3072436                       -46929.41
               3.3174827                      -32700.833
               3.3277219                      -6870.7256
                3.337961                       21336.221
               3.3482002                       41424.555
               3.3584393                       48116.545
               3.3686785                       43700.592
               3.3789176                       34966.468
               3.3891568                       27687.742
               3.3993959                       23193.356
                3.409635                       19368.458
               3.4198742                       14468.928
               3.4301133                       9837.5895
               3.4403525                       8870.1862
               3.4505916                       13195.725
               3.4608308                       19775.542
               3.4710699                       22024.427
               3.4813091                       14570.011
               3.4915482                      -2094.5394
               3.5017873                      -21064.312
               3.5120265                      -33385.961
               3.5222656                       -34125.69
               3.5325048                      -25504.036
               3.5427439                      -14819.354
               3.5529831                      -9033.9101
               3.5632222                      -10359.002
               3.5734614                      -15991.057
               3.5837005                      -21520.922
               3.5939396                      -24672.837
               3.6041788                      -26278.043
               3.6144179                      -28240.228
               3.6246571                      -30954.108
               3.6348962                      -32793.263
               3.6451354                      -31982.905
               3.6553745                      -28768.104
               3.6656136                      -25574.978
               3.6758528                      -24932.186
               3.6860919                      -27170.431
               3.6963311                      -30146.693
               3.7065702                       -31266.35
               3.7168094                       -29859.18
               3.7270485                      -27659.132
               3.7372877                      -27003.204
               3.7475268                      -28554.941
               3.7577659                      -30751.133
               3.7680051                      -31432.383
               3.7782442                      -29989.318
               3.7884834                      -27913.515
               3.7987225                      -27269.631
               3.8089617                      -28656.764
               3.8192008                      -30681.771
                 3.82944                      -31419.009
               3.8396791                      -30354.382
               3.8499182                      -28869.855
               3.8601574                      -28822.253
               3.8703965                      -30678.753
               3.8806357                       -33079.33
               3.8908748                       -34219.66
                3.901114                      -33598.716
               3.9113531                      -32330.224
               3.9215923                      -31725.754
               3.9318314                       -31683.89
               3.9420705                       -30682.26
               3.9523097                      -27542.753
               3.9625488                      -23223.693
                3.972788                      -20648.089
               3.9830271                      -22368.185
               3.9932663                      -28035.559
               4.0035054                      -34075.676
               4.0137446                      -36130.448
               4.0239837                      -32354.076
               4.0342228                       -24802.87
                4.044462                      -17753.288
               4.0547011                      -14395.924
               4.0649403                       -14663.81
               4.0751794                      -15856.531
               4.0854186                      -15280.684
               4.0956577                      -12524.294
               4.1058969                      -9523.3021
                4.116136                      -8608.4524
               4.1263751                      -10369.939
               4.1366143                      -13107.105
               4.1468534                      -14132.215
               4.1570926                      -11723.199
               4.1673317                      -6257.6791
               4.1775709                       44.102247
                 4.18781                       4289.8646
               4.1980492                       4179.2872
               4.2082883                      -1112.2365
               4.2185274                      -10509.149
               4.2287666                      -21140.232
               4.2390057                      -29191.321
               4.2492449                      -31520.898
                4.259484                      -27413.638
               4.2697232                      -19348.339
               4.2799623                       -11973.63
               4.2902014                      -9619.5954
               4.3004406                      -13802.283
               4.3106797                      -22334.818
               4.3209189                      -30624.566
                4.331158                      -34278.516
               4.3413972                      -31362.973
               4.3516363                      -23077.665
               4.3618755                      -12756.362
               4.3721146                      -4066.7272
               4.3823537                       538.82884
               4.3925929                       534.06823
                4.402832                      -2839.0002
               4.4130712                      -7348.8374
               4.4233103                      -10859.278
               4.4335495                      -12321.587
               4.4437886                       -12178.35
               4.4540278                      -11844.357
               4.4642669                       -12487.19
                4.474506                      -13957.597
               4.4847452                      -14800.265
               4.4949843                      -13519.419
               4.5052235                      -10161.285
               4.5154626                      -6785.7687
               4.5257018                      -6145.5705
               4.5359409                      -9429.8422
               4.5461801                      -14973.615
               4.5564192                      -19315.746
               4.5666583                      -20097.706
               4.5768975                      -18515.421
               4.5871366                      -18992.598
               4.5973758                       -25765.53
               4.6076149                      -38713.081
               4.6178541                      -51842.288
               4.6280932                      -56212.625
               4.6383324                      -45757.026
               4.6485715                      -21966.091
               4.6588106                        6160.615
               4.6690498                       27226.597
               4.6792889                       34225.535
               4.6895281                       28310.871
               4.6997672                       17045.372
               4.7100064                       8677.5646
               4.7202455                       6788.5191
               4.7304847                       9068.4941
               4.7407238                       10575.564
               4.7509629                       8374.8742
               4.7612021                       3688.1573
               4.7714412                       72.863368
               4.7816804                      -410.84857
               4.7919195                       515.57928
               4.8021587                      -1311.8584
               4.8123978                      -8669.5969
                4.822637                      -19926.981
               4.8328761                      -29478.369
               4.8431152                      -31413.281
               4.8533544                      -23596.872
               4.8635935                      -9083.3075
               4.8738327                       6028.8308
               4.8840718                       16476.288
                4.894311                       20561.309
               4.9045501                       20086.178
               4.9147892                       18131.202
               4.9250284                       16725.892
               4.9352675                       16056.644
               4.9455067                        15291.41
               4.9557458                       13853.389
                4.965985                       11970.803
               4.9762241                       10280.692
               4.9864633                       9143.6756
               4.9967024                       8395.8009
               5.0069415                       7660.7198
               5.0171807                       6779.9955
               5.0274198                       5910.0742
                5.037659                       5266.6744
               5.0478981                        4856.893
               5.0581373                       4483.7689
               5.0683764                       3970.5618
               5.0786156                       3326.6614
               5.0888547                        2679.844
               5.0990938                       2076.5797
                5.109333                       1390.2651
               5.1195721                       447.03092
               5.1298113                      -758.09092
               5.1400504                      -1975.1557
               5.1502896                      -2837.7584
               5.1605287                      -3120.1002
               5.1707679                      -2919.5989
                5.181007                      -2642.6381
               5.1912461                      -2802.4574
               5.2014853                      -3729.6238
               5.2117244                      -5332.6395
               5.2219636                      -7052.2638
               5.2322027                      -8104.2586
               5.2424419                      -7954.7458
                5.252681                      -6766.6757
               5.2629202                       -5471.083
               5.2731593                      -5308.2803
               5.2833984                      -7078.2579
               5.2936376                      -10620.774
               5.3038767                       -14922.64
               5.3141159                      -18768.288
                5.324355                      -21411.235
               5.3345942                       -22754.28
               5.3448333                      -22990.767
               5.3550725                      -22146.299
               5.3653116                      -20004.402
               5.3755507                      -16466.069
               5.3857899                      -11924.203
                5.396029                      -7209.8401
               5.4062682                      -3112.4322
               5.4165073                       71.773767
               5.4267465                       2527.3039
               5.4369856                       4483.4724
               5.4472248                       5833.3077
               5.4574639                       6220.0328
                5.467703                       5496.7079
               5.4779422                       4052.0469
               5.4881813                        2622.541
               5.4984205                       1751.3847
               5.5086596                       1432.6886
               5.5188988                       1283.6616
               5.5291379                       1023.6992
               5.5393771                       722.16876
               5.5496162                       562.02105
               5.5598553                        443.2707
               5.5700945                      -39.385195
               5.5803336                      -1140.6614
               5.5905728                      -2539.3115
               5.6008119                      -3522.8977
               5.6110511                      -3717.9816
               5.6212902                      -3596.6189
               5.6315293                      -4063.2082
               5.6417685                      -5351.2132
               5.6520076                      -6336.5473
               5.6622468                      -5188.2209
               5.6724859                      -1018.6862
               5.6827251                       4958.5755
               5.6929642                       10042.779
               5.7032034                       12122.015
               5.7134425                       11388.338
               5.7236816                       10001.406
               5.7339208                        9869.683
               5.7441599                       10620.175
               5.7543991                       9849.9852
               5.7646382                       5665.8494
               5.7748774                       -807.7807
               5.7851165                      -5537.9599
               5.7953557                      -4630.1746
               5.8055948                       2186.9119
               5.8158339                       10832.275
               5.8260731                       15829.385
               5.8363122                       14596.802
               5.8465514                       9417.1278
               5.8567905                       5375.8997
               5.8670297                       6058.5366
               5.8772688                       10698.361
                5.887508                       15096.916
               5.8977471                       15296.614
               5.9079862                       10716.394
               5.9182254                       4204.9521
               5.9284645                      -652.87988
               5.9387037                      -2354.0242
               5.9489428                      -2066.6211
                5.959182                      -1926.5679
               5.9694211                      -2970.7182
               5.9796603                      -4576.6991
               5.9898994                      -5542.2924
               6.0001385                      -5418.7964
               6.0103777                      -4809.2693
               6.0206168                      -4649.9894
                6.030856                      -5459.5633
               6.0410951                      -7226.1325
               6.0513343                        -9618.89
               6.0615734                      -11874.606
               6.0718126                      -12448.789
               6.0820517                      -9333.3755
               6.0922908                      -1572.6828
                 6.10253                       8963.4361
               6.1127691                        17486.54
               6.1230083                       18877.092
               6.1332474                       11516.713
               6.1434866                      -760.72946
               6.1537257                      -10718.109
               6.1639649                      -12649.149
                6.174204                      -6403.6025
               6.1844431                       2816.4581
               6.1946823                       8741.4145
               6.2049214                       8783.9668
               6.2151606                       5315.8404
               6.2253997                       2686.8429
               6.2356389                       2959.2274
                6.245878                       4268.8164
               6.2561171                       3074.9816
               6.2663563                      -2098.7208
               6.2765954                      -9065.1224
               6.2868346                       -13918.59
               6.2970737                      -14508.035
               6.3073129                      -12107.736
                6.317552                      -9882.2897
               6.3277912                      -9877.3384
               6.3380303                      -11517.815
               6.3482694                      -12860.204
               6.3585086                      -13009.504
               6.3687477                      -13059.728
               6.3789869                      -14623.851
                6.389226                      -17636.262
               6.3994652                      -19908.557
               6.4097043                      -19080.311
               6.4199435                      -15038.242
               6.4301826                      -10252.422
               6.4404217                      -7502.0639
               6.4506609                      -7134.7526
                  6.4609                       -6613.015
               6.4711392                      -2960.2109
               6.4813783                       4126.0602
               6.4916175                       11484.032
               6.5018566                       14904.147
               6.5120958                       12650.183
               6.5223349                       6949.9987
                6.532574                       2179.8305
               6.5428132                       1421.5159
               6.5530523                       4376.2578
               6.5632915                       8192.1753
               6.5735306                       10107.587
               6.5837698                         9433.38
               6.5940089                        7389.989
               6.6042481                       5467.0142
               6.6144872                       4142.5833
               6.6247263                       3043.0008
               6.6349655                       1969.0449
               6.6452046                       1432.8128
               6.6554438                       2110.5778
               6.6656829                       3934.8453
               6.6759221                        5949.711
               6.6861612                       7160.4612
               6.6964004                       7466.6299
               6.7066395                       7652.2924
               6.7168786                       8438.0506
               6.7271178                       9638.1003
               6.7373569                       10367.891
               6.7475961                       10103.034
               6.7578352                       9430.4126
               6.7680744                       9611.7607
               6.7783135                       11335.046
               6.7885527                       13936.778
               6.7987918                       15948.556
               6.8090309                       16460.401
               6.8192701                        15911.61
               6.8295092                       15468.808
               6.8397484                       15609.126
               6.8499875                       15400.908
               6.8602267                       13325.552
               6.8704658                       8916.4349
               6.8807049                       3577.4237
               6.8909441                      -352.73785
               6.9011832                      -1541.2171
               6.9114224                      -831.03085
               6.9216615                       -516.1643
               6.9319007                      -2330.3203
               6.9421398                      -5931.8409
                6.952379                      -9192.5009
               6.9626181                      -9959.2073
               6.9728572                      -7703.4407
               6.9830964                      -3711.7102
               6.9933355                       137.77907
               7.0035747                       2784.4471
               7.0138138                       4409.8726
                7.024053                       5776.9254
               7.0342921                       7337.9588
               7.0445313                       8951.5955
               7.0547704                       10258.958
               7.0650095                       11118.208
               7.0752487                       11605.592
               7.0854878                       11708.528
                7.095727                       11205.489
               7.1059661                       9952.1841
               7.1162053                       8239.1959
               7.1264444                       6726.8767
               7.1366836                       5909.6716
               7.1469227                       5624.3446
               7.1571618                       5149.2908
                7.167401                       3864.5926
               7.1776401                       1847.8269
               7.1878793                      -190.02744
               7.1981184                      -1573.1523
               7.2083576                      -2266.9618
               7.2185967                      -2818.3021
               7.2288359                       -3707.668
                7.239075                      -4792.1088
               7.2493141                       -5419.471
               7.2595533                      -5098.9673
               7.2697924                       -4035.892
               7.2800316                       -2972.473
               7.2902707                      -2484.3407
               7.3005099                      -2439.6684
                7.310749                      -2168.9844
               7.3209882                      -1181.3223
               7.3312273                       284.30085
               7.3414664                       1420.9659
               7.3517056                       1578.4894
               7.3619447                       858.50376
               7.3721839                        24.32626
                7.382423                      -174.20227
               7.3926622                       367.34326
               7.4029013                       1064.4397
               7.4131405                       1168.7668
               7.4233796                       360.19101
               7.4336187                      -1073.7202
               7.4438579                      -2522.3083
                7.454097                      -3473.3306
               7.4643362                      -3737.5235
               7.4745753                      -3416.9987
               7.4848145                      -2778.8394
               7.4950536                      -2168.0307
               7.5052927                      -1936.6824
               7.5155319                      -2315.0428
                7.525771                      -3261.3869
               7.5360102                      -4430.9393
               7.5462493                      -5331.8219
               7.5564885                      -5549.5523
               7.5667276                      -4847.5777
               7.5769668                      -3103.4132
               7.5872059                      -256.43839
                7.597445                        3548.223
               7.6076842                       7694.0965
               7.6179233                       11040.775
               7.6281625                        12351.07
               7.6384016                       11048.568
               7.6486408                       7760.4493
               7.6588799                       4141.3398
               7.6691191                       1986.6326
               7.6793582                       2208.8065
               7.6895973                       4373.7709
               7.6998365                       7071.5631
               7.7100756                       8800.3688
               7.7203148                       8761.0445
               7.7305539                       7147.4501
               7.7407931                       4917.1077
               7.7510322                       3279.7396
               7.7612714                       3143.9426
               7.7715105                       4683.5814
               7.7817496                       7183.8247
               7.7919888                       9329.8757
               7.8022279                       9923.5224
               7.8124671                       8664.7841
               7.8227062                       6428.8039
               7.8329454                       4719.3026
               7.8431845                       4609.1955
               7.8534237                        5967.215
               7.8636628                       7613.1159
               7.8739019                       8290.1736
               7.8841411                       7632.3116
               7.8943802                       6301.8196
               7.9046194                       5220.6416
               7.9148585                       4640.0088
               7.9250977                        3922.279
               7.9353368                       2223.1875
                7.945576                      -585.12101
               7.9558151                       -3618.626
               7.9660542                       -5574.568
               7.9762934                       -5656.166
               7.9865325                      -4022.0673
               7.9967717                       -1464.235
               8.0070108                       1261.0847
                 8.01725                       3801.1764
               8.0274891                       6054.6938
               8.0377283                       7851.7953
               8.0479674                        8924.672
               8.0582065                       9202.4969
               8.0684457                       9025.1313
               8.0786848                       8925.7313
                8.088924                       9128.2105
               8.0991631                       9281.8783
               8.1094023                       8766.7329
               8.1196414                       7318.2758
               8.1298806                       5360.1236
               8.1401197                       3701.6111
               8.1503588                       2895.6842
                8.160598                       2892.5067
               8.1708371                        3300.559
               8.1810763                       3918.0512
               8.1913154                       4918.5007
               8.2015546                       6474.1833
               8.2117937                        8255.601
               8.2220328                       9434.9395
                8.232272                        9307.351
               8.2425111                       7950.0293
               8.2527503                       6219.0829
               8.2629894                       5013.2502
               8.2732286                       4487.3801
               8.2834677                       3984.0026
               8.2937069                       2746.4396
                8.303946                       690.77666
               8.3141851                      -1534.0534
               8.3244243                       -3215.141
               8.3346634                      -4220.1282
               8.3449026                      -4902.1322
               8.3551417                      -5378.7263
               8.3653809                      -5042.0762
                 8.37562                      -2984.7156
               8.3858592                       947.32522
               8.3960983                         5538.62
               8.4063374                       8804.1717
               8.4165766                       9432.2753
               8.4268157                       7805.7204
               8.4370549                       5638.7549
                8.447294                       4531.8865
               8.4575332                       4758.1194
               8.4677723                       5351.2772
               8.4780115                       5299.3147
               8.4882506                       4603.6392
               8.4984897                       4173.1947
               8.5087289                       4745.6653
                8.518968                       6015.1365
               8.5292072                       6898.6735
               8.5394463                       6665.4749
               8.5496855                       5738.4158
               8.5599246                       5306.6272
               8.5701638                       6121.0197
               8.5804029                       7705.3202
                8.590642                       8805.3739
               8.6008812                       8632.1185
               8.6111203                       7633.0529
               8.6213595                       7004.6304
               8.6315986                       7448.7343
               8.6418378                       8452.6605
               8.6520769                       8831.7374
               8.6623161                       7971.5322
               8.6725552                       6485.4681
               8.6827943                       5608.6502
               8.6930335                        5954.631
               8.7032726                       6917.6459
               8.7135118                       7329.7657
               8.7237509                       6679.4127
               8.7339901                       5618.7672
               8.7442292                       5235.8161
               8.7544684                        5863.613
               8.7647075                       6689.8421
               8.7749466                       6594.3171
               8.7851858                       5346.3238
               8.7954249                       3896.0254
               8.8056641                       3427.3348
               8.8159032                       4143.8214
               8.8261424                         5066.16
               8.8363815                       5081.4614
               8.8466206                       4160.6997
               8.8568598                       3438.8992
               8.8670989                       4005.8181
               8.8773381                       5622.9521
               8.8875772                       6741.5991
               8.8978164                       5928.4013
               8.9080555                       3357.8251
               8.9182947                       878.47752
               8.9285338                         501.048
               8.9387729                       2686.9481
               8.9490121                       6023.3646
               8.9592512                       8541.3764
               8.9694904                        9375.988
               8.9797295                       9202.5555
               8.9899687                       9141.9838
               9.0002078                       9336.8709
                9.010447                       8676.2631
               9.0206861                       5955.0624
               9.0309252                       1309.0749
               9.0411644                      -3510.3269
               9.0514035                      -6336.5818
               9.0616427                      -6191.7875
               9.0718818                      -3899.6726
                9.082121                       -1283.643
               9.0923601                        220.5868
               9.1025993                       348.00045
               9.1128384                      -271.03894
               9.1230775                      -916.96969
               9.1333167                      -1307.4534
               9.1435558                      -1551.9971
                9.153795                      -1860.4228
               9.1640341                      -2397.1053
               9.1742733                      -3275.7612
               9.1845124                      -4443.3032
               9.1947516                       -5448.251
               9.2049907                      -5472.0429
               9.2152298                      -3909.9383
                9.225469                      -1158.7247
               9.2357081                       1222.7008
               9.2459473                       1465.1963
               9.2561864                      -906.70932
               9.2664256                      -4322.8259
               9.2766647                      -6034.5954
               9.2869039                      -4086.8946
                9.297143                       1192.0928
               9.3073821                       7446.4295
               9.3176213                       12054.049
               9.3278604                       13858.216
               9.3380996                       13468.336
               9.3483387                       12141.183
               9.3585779                       10540.145
                9.368817                       8584.8245
               9.3790562                        6307.738
               9.3892953                       4520.3209
               9.3995344                       4335.9632
               9.4097736                       5938.1274
               9.4200127                       7970.3144
               9.4302519                        8442.367
                9.440491                       6505.3764
               9.4507302                       3417.7015
               9.4609693                       1639.9841
               9.4712084                       2747.2092
               9.4814476                       6030.6535
               9.4916867                       9080.5358
               9.5019259                       9814.0509
                9.512165                       8098.0557
               9.5224042                       5566.4302
               9.5326433                       3970.6819
               9.5428825                       3715.4941
               9.5531216                       3885.5402
               9.5633607                       3508.7183
               9.5735999                       2633.9104
                9.583839                       2150.4498
               9.5940782                       2676.9419
               9.6043173                       3797.9214
               9.6145565                        4473.475
               9.6247956                       4139.9555
               9.6350348                       3281.4605
               9.6452739                       2853.7578
                9.655513                       3207.4681
               9.6657522                       3707.2115
               9.6759913                       3481.0255
               9.6862305                       2482.2608
               9.6964696                       1666.2269
               9.7067088                       2014.6346
               9.7169479                       3409.4163
               9.7271871                       4596.1227
               9.7374262                       4381.5552
               9.7476653                       2895.0078
               9.7579045                       1596.0819
               9.7681436                       1936.5651
               9.7783828                       3952.1083
               9.7886219                       6165.4871
               9.7988611                       6899.0251
               9.8091002                       5714.7686
               9.8193394                       3618.9026
               9.8295785                       1940.3785
               9.8398176                       1099.2489
               9.8500568                         491.082
               9.8602959                      -530.50994
               9.8705351                      -1749.8813
               9.8807742                      -2293.8686
               9.8910134                      -1707.0717
               9.9012525                       -654.8388
               9.9114917                      -373.53851
               9.9217308                      -1356.7403
               9.9319699                      -2676.0296
               9.9422091                      -2766.8431
               9.9524482                      -997.12538
               9.9626874                       1551.4421
               9.9729265                       2951.1784
               9.9831657                       2170.5547
               9.9934048                       10.547691
               10.003644                      -1675.0138
               10.013883                      -1698.0806
               10.024122                      -514.41597
               10.034361                       432.44672
               10.044601                       240.53405
                10.05484                      -636.33001
               10.065079                      -1058.2525
               10.075318                      -544.60893
               10.085557                       190.73368
               10.095796                       85.565173
               10.106035                      -988.42531
               10.116275                      -1948.3391
               10.126514                      -1602.5232
               10.136753                     -0.60459582
               10.146992                       1437.2113
               10.157231                       1247.0812
                10.16747                      -599.91318
               10.177709                      -2597.2784
               10.187949                      -3140.1031
               10.198188                      -2079.0441
               10.208427                      -817.98304
               10.218666                      -843.21615
               10.228905                      -2168.0411
               10.239144                      -3271.9004

