                        y_beam=5/real
----------------------------------------------------------------------
                       0                               0
            0.0088673591                       134.19473
             0.017734718                      -16.408021
             0.026602077                      -59.773543
             0.035469436                       153.14267
             0.044336795                       95.084333
             0.053204154                      -229.13367
             0.062071513                      -188.83874
             0.070938872                      -228.92111
             0.079806231                      -1584.3613
             0.088673591                      -3673.9216
              0.09754095                      -4268.1142
              0.10640831                      -2905.8785
              0.11527567                      -1505.4235
              0.12414303                      -1154.3101
              0.13301039                      -1022.2745
              0.14187774                       -608.3086
               0.1507451                      -426.76251
              0.15961246                      -523.28301
              0.16847982                      -455.37441
              0.17734718                       -340.9281
              0.18621454                      -447.81635
               0.1950819                      -539.61748
              0.20394926                      -483.72049
              0.21281662                      -510.42138
              0.22168398                      -590.15038
              0.23055134                      -523.50332
              0.23941869                        -442.468
              0.24828605                      -475.16685
              0.25715341                      -453.53993
              0.26602077                      -354.68177
              0.27488813                      -346.59477
              0.28375549                      -369.49234
              0.29262285                      -306.62411
              0.30149021                      -276.39599
              0.31035757                      -323.52043
              0.31922493                      -311.93033
              0.32809228                      -268.76317
              0.33695964                      -302.32595
                0.345827                      -323.88404
              0.35469436                      -276.24738
              0.36356172                      -276.26596
              0.37242908                      -317.87073
              0.38129644                      -292.68432
               0.3901638                      -265.37345
              0.39903116                      -306.36153
              0.40789852                      -313.31976
              0.41676588                      -271.01027
              0.42563323                      -288.88231
              0.43450059                      -323.03001
              0.44336795                      -285.67666
              0.45223531                      -269.09563
              0.46110267                      -317.46504
              0.46997003                      -307.10848
              0.47883739                      -242.40323
              0.48770475                      -259.25517
              0.49657211                      -324.45918
              0.50543947                      -323.46241
              0.51430682                      -299.39808
              0.52317418                      -313.01085
              0.53204154                      -312.30333
               0.5409089                      -291.43732
              0.54977626                      -306.68126
              0.55864362                      -326.13402
              0.56751098                      -297.69222
              0.57637834                      -272.86324
               0.5852457                      -304.02111
              0.59411306                      -348.71187
              0.60298042                      -352.20099
              0.61184777                      -320.74239
              0.62071513                      -298.27796
              0.62958249                      -310.14839
              0.63844985                      -325.57394
              0.64731721                      -310.33174
              0.65618457                      -296.44125
              0.66505193                      -312.16003
              0.67391929                      -315.26234
              0.68278665                       -291.9204
              0.69165401                      -290.98413
              0.70052137                      -303.45228
              0.70938872                      -281.98034
              0.71825608                       -268.0217
              0.72712344                      -317.54852
               0.7359908                      -381.14901
              0.74485816                      -399.60872
              0.75372552                      -389.93923
              0.76259288                      -371.97003
              0.77146024                      -350.18443
               0.7803276                       -348.5416
              0.78919496                      -359.69867
              0.79806231                      -348.99083
              0.80692967                      -336.47284
              0.81579703                      -349.48206
              0.82466439                       -351.9452
              0.83353175                      -332.65763
              0.84239911                      -334.80884
              0.85126647                      -346.72541
              0.86013383                      -330.11616
              0.86900119                      -324.66947
              0.87786855                      -365.32607
              0.88673591                      -401.76897
              0.89560326                      -404.40741
              0.90447062                       -403.1351
              0.91333798                      -401.00001
              0.92220534                      -390.99433
               0.9310727                      -395.60659
              0.93994006                      -404.52184
              0.94880742                      -391.08327
              0.95767478                      -384.99548
              0.96654214                      -401.74025
               0.9754095                       -398.7349
              0.98427685                      -382.48871
              0.99314421                      -395.41782
               1.0020116                      -405.61406
               1.0108789                      -386.18135
               1.0197463                      -387.92911
               1.0286136                      -408.33208
                1.037481                      -392.84176
               1.0463484                      -380.72679
               1.0552157                      -406.10969
               1.0640831                      -388.81638
               1.0729504                      -341.41913
               1.0818178                      -397.35292
               1.0906852                      -501.88789
               1.0995525                       -476.4622
               1.1084199                      -388.36751
               1.1172872                      -408.07196
               1.1261546                      -453.19078
                1.135022                      -398.37378
               1.1438893                      -356.90085
               1.1527567                      -420.17531
                1.161624                      -469.20626
               1.1704914                      -439.37578
               1.1793588                      -418.09982
               1.1882261                       -432.7775
               1.1970935                      -435.59249
               1.2059608                      -431.35792
               1.2148282                      -436.39691
               1.2236955                      -435.45157
               1.2325629                      -435.71372
               1.2414303                      -443.96171
               1.2502976                      -440.64528
                1.259165                       -436.7884
               1.2680323                      -449.46692
               1.2768997                      -450.23443
               1.2857671                      -438.30515
               1.2946344                      -450.22817
               1.3035018                      -461.91651
               1.3123691                      -443.84996
               1.3212365                      -445.29574
               1.3301039                       -471.8845
               1.3389712                       -457.5559
               1.3478386                      -435.00667
               1.3567059                      -472.18307
               1.3655733                      -488.03248
               1.3744407                       -427.1533
                1.383308                      -422.16307
               1.3921754                      -512.79988
               1.4010427                      -529.81899
               1.4099101                       -445.3134
               1.4187774                      -429.40207
               1.4276448                      -492.17752
               1.4365122                       -495.3867
               1.4453795                       -457.3308
               1.4542469                      -471.78411
               1.4631142                      -493.93358
               1.4719816                      -473.81942
                1.480849                      -468.39754
               1.4897163                      -489.57095
               1.4985837                       -485.2186
                1.507451                      -472.16079
               1.5163184                      -485.30482
               1.5251858                      -491.72406
               1.5340531                       -479.0795
               1.5429205                      -482.84055
               1.5517878                      -494.30434
               1.5606552                      -486.69813
               1.5695226                      -482.83056
               1.5783899                      -494.13944
               1.5872573                      -493.29946
               1.5961246                       -485.2666
                1.604992                      -492.61001
               1.6138593                      -497.85288
               1.6227267                      -489.66231
               1.6315941                      -491.10468
               1.6404614                      -499.96328
               1.6493288                      -495.19248
               1.6581961                      -490.76949
               1.6670635                      -499.67785
               1.6759309                      -500.86603
               1.6847982                      -492.51389
               1.6936656                      -497.15591
               1.7025329                      -505.55188
               1.7114003                      -497.90286
               1.7202677                      -491.62907
                1.729135                      -502.87772
               1.7380024                      -512.12261
               1.7468697                      -506.12525
               1.7557371                      -499.13049
               1.7646045                      -500.71806
               1.7734718                      -505.05253
               1.7823392                      -506.63211
               1.7912065                       -505.1919
               1.8000739                      -504.34287
               1.8089412                      -506.51301
               1.8178086                      -507.12065
                1.826676                       -504.5207
               1.8355433                      -505.08911
               1.8444107                      -507.88313
                1.853278                      -506.24379
               1.8621454                      -504.58719
               1.8710128                      -507.62666
               1.8798801                      -508.13462
               1.8887475                      -505.18534
               1.8976148                      -506.75511
               1.9064822                      -509.34746
               1.9153496                      -506.96334
               1.9242169                      -506.65849
               1.9330843                      -510.09103
               1.9419516                      -508.58662
                1.950819                      -505.53644
               1.9596864                      -508.42685
               1.9685537                      -509.79855
               1.9774211                      -506.02734
               1.9862884                      -506.47037
               1.9951558                      -509.62527
               2.0040231                       -507.1873
               2.0128905                      -505.36837
               2.0217579                      -508.77686
               2.0306252                      -508.50601
               2.0394926                      -505.06719
               2.0483599                      -507.04137
               2.0572273                      -508.92784
               2.0660947                       -505.2546
                2.074962                      -504.61661
               2.0838294                      -507.55722
               2.0926967                      -505.26617
               2.1015641                      -502.32794
               2.1104315                      -504.96228
               2.1192988                       -505.1386
               2.1281662                      -501.27111
               2.1370335                      -502.13164
               2.1459009                      -504.32448
               2.1547682                      -501.24183
               2.1636356                      -499.75265
                2.172503                       -502.1685
               2.1813703                      -501.15765
               2.1902377                      -499.60072
                2.199105                      -501.92078
               2.2079724                      -500.38477
               2.2168398                      -495.25732
               2.2257071                      -496.71184
               2.2345745                      -499.72899
               2.2434418                      -495.63918
               2.2523092                      -493.38608
               2.2611766                      -496.95477
               2.2700439                      -495.51603
               2.2789113                      -491.02739
               2.2877786                      -493.10737
                2.296646                      -494.47926
               2.3055134                      -489.67347
               2.3143807                       -489.0045
               2.3232481                      -492.11028
               2.3321154                      -488.92713
               2.3409828                      -485.52698
               2.3498501                      -488.52092
               2.3587175                      -488.10031
               2.3675849                      -483.24302
               2.3764522                      -484.34096
               2.3853196                      -486.50427
               2.3941869                      -482.12151
               2.4030543                      -480.41784
               2.4119217                      -483.75255
                2.420789                      -481.54272
               2.4296564                      -477.45077
               2.4385237                      -479.98561
               2.4473911                      -480.63243
               2.4562585                      -475.71454
               2.4651258                      -475.85469
               2.4739932                      -478.69955
               2.4828605                      -474.94415
               2.4917279                      -472.22644
               2.5005953                       -475.5538
               2.5094626                      -474.45156
                 2.51833                      -469.77894
               2.5271973                      -471.57866
               2.5360647                       -473.6895
                2.544932                      -469.77719
               2.5537994                      -468.88851
               2.5626668                      -471.19991
               2.5715341                      -467.68464
               2.5804015                      -464.47913
               2.5892688                      -467.77208
               2.5981362                      -467.45898
               2.6070036                      -462.58449
               2.6158709                       -463.8401
               2.6247383                        -466.227
               2.6336056                      -461.82763
                2.642473                       -460.1236
               2.6513404                      -463.68698
               2.6602077                      -461.54413
               2.6690751                      -457.34411
               2.6779424                      -460.01953
               2.6868098                      -460.82524
               2.6956772                      -455.77463
               2.7045445                      -455.91179
               2.7134119                       -458.9454
               2.7222792                      -455.09858
               2.7311466                      -452.24397
               2.7400139                       -455.7079
               2.7488813                      -454.55606
               2.7577487                      -449.68195
                2.766616                      -451.55778
               2.7754834                      -453.32545
               2.7843507                       -448.3993
               2.7932181                      -447.43763
               2.8020855                      -450.98944
               2.8109528                      -448.03907
               2.8198202                      -444.27301
               2.8286875                      -447.43337
               2.8375549                      -447.33684
               2.8464223                      -441.96961
               2.8552896                      -442.61454
                2.864157                       -444.7664
               2.8730243                      -439.71894
               2.8818917                      -437.20456
               2.8907591                      -440.67626
               2.8996264                      -438.48112
               2.9084938                      -433.71978
               2.9173611                      -436.21533
               2.9262285                       -437.1906
               2.9350958                      -431.76554
               2.9439632                        -431.529
               2.9528306                      -434.76764
               2.9616979                      -430.82116
               2.9705653                      -427.49693
               2.9794326                      -431.05643
                  2.9883                      -430.09841
               2.9971674                      -424.85901
               3.0060347                       -426.6729
               3.0149021                      -428.81261
               3.0237694                      -423.64922
               3.0326368                      -422.18945
               3.0415042                      -425.73911
               3.0503715                      -422.47346
               3.0592389                      -417.88316
               3.0681062                      -420.84255
               3.0769736                      -420.90742
               3.0858409                      -415.19449
               3.0947083                       -415.8409
               3.1035757                      -418.77358
                3.112443                      -414.07239
               3.1213104                      -411.46268
               3.1301777                       -415.3533
               3.1390451                      -413.44569
               3.1479125                      -408.31929
               3.1567798                      -410.86403
               3.1656472                       -412.2744
               3.1745145                      -406.62471
               3.1833819                      -406.14709
               3.1922493                      -409.82206
               3.2011166                       -405.9326
                3.209984                      -402.18639
               3.2188513                      -405.96809
               3.2277187                      -405.31537
               3.2365861                      -399.62484
               3.2454534                      -401.26906
               3.2543208                      -403.79774
               3.2631881                      -398.44679
               3.2720555                      -396.70088
               3.2809228                      -400.82358
               3.2897902                      -397.97287
               3.2986576                      -393.19543
               3.3075249                      -396.52871
               3.3163923                      -397.16967
               3.3252596                      -391.17459
                3.334127                      -391.64414
               3.3429944                      -395.06427
               3.3518617                      -390.27149
               3.3607291                      -387.19632
               3.3695964                      -391.42885
               3.3784638                      -389.79088
               3.3873312                      -384.16022
               3.3961985                       -386.7132
               3.4050659                       -388.6115
               3.4139332                       -382.6428
               3.4228006                      -381.81376
                3.431668                      -385.96464
               3.4405353                      -382.09843
               3.4494027                      -377.78876
                 3.45827                      -381.79678
               3.4671374                      -381.50421
               3.4760047                      -375.29015
               3.4848721                      -376.77956
               3.4937395                       -379.8338
               3.5026068                      -374.23987
               3.5114742                       -372.0018
               3.5203415                      -376.55444
               3.5292089                      -373.85514
               3.5380763                      -368.45507
               3.5469436                      -371.89595
                3.555811                      -373.01355
               3.5646783                      -366.55508
               3.5735457                      -366.75701
               3.5824131                      -370.78888
               3.5912804                       -365.9304
               3.6001478                       -362.2865
               3.6090151                      -366.90301
               3.6178825                      -365.58576
               3.6267499                      -359.33477
               3.6356172                       -361.8742
               3.6444846                      -364.36937
               3.6533519                      -358.03686
               3.6622193                       -356.7843
               3.6710866                      -361.52631
                3.679954                      -357.73312
               3.6888214                      -352.77118
               3.6976887                      -357.07614
               3.7065561                      -357.27668
               3.7154234                       -350.4875
               3.7242908                      -351.82442
               3.7331582                      -355.57124
               3.7420255                      -349.75771
               3.7508929                      -346.96933
               3.7597602                      -352.08764
               3.7686276                      -349.64713
                3.777495                      -343.55039
               3.7863623                      -347.15539
               3.7952297                       -348.9103
                3.804097                      -341.94319
               3.8129644                      -341.81533
               3.8218318                      -346.57605
               3.8306991                      -341.65502
               3.8395665                       -337.3295
               3.8484338                      -342.42271
               3.8573012                      -341.54322
               3.8661685                      -334.57757
               3.8750359                      -337.10544
               3.8839033                      -340.35445
               3.8927706                      -333.62375
                3.901638                      -331.86132
               3.9105053                      -337.32826
               3.9193727                      -333.66478
               3.9282401                      -327.92389
               3.9371074                      -332.57675
               3.9459748                      -333.39773
               3.9548421                      -325.92741
               3.9637095                      -327.05408
               3.9725769                      -331.64005
               3.9814442                      -325.58593
               3.9903116                      -322.11628
               3.9991789                      -327.90542
               4.0080463                      -325.80859
               4.0169136                      -318.87566
                4.025781                      -322.65867
               4.0346484                      -325.20895
               4.0435157                      -317.65711
               4.0523831                      -317.11592
               4.0612504                      -322.76885
               4.0701178                      -317.81936
               4.0789852                       -312.6743
               4.0878525                      -318.34073
               4.0967199                      -318.03956
               4.1055872                      -310.23923
               4.1144546                      -312.74223
                4.123322                      -316.93607
               4.1321893                      -309.77206
               4.1410567                      -307.38538
                4.149924                       -313.7361
               4.1587914                      -310.28251
               4.1676588                      -303.60807
               4.1765261                       -308.6677
               4.1853935                      -310.28407
               4.1942608                       -302.0247
               4.2031282                      -302.87804
               4.2119955                      -308.50106
               4.2208629                      -302.20649
               4.2297303                      -297.90037
               4.2385976                       -304.4914
                4.247465                      -302.85865
               4.2563323                      -294.92058
               4.2651997                      -298.88497
               4.2740671                      -302.42454
               4.2829344                      -294.19226
               4.2918018                      -293.10935
               4.3006691                      -299.83417
               4.3095365                        -294.887
               4.3184039                      -288.72025
               4.3272712                      -295.03818
               4.3361386                      -295.46526
               4.3450059                      -286.65029
               4.3538733                       -289.0623
               4.3627407                      -294.40348
                4.371608                      -286.73809
               4.3804754                      -283.54182
               4.3893427                      -290.93526
               4.3982101                      -287.77475
               4.4070774                      -279.94644
               4.4159448                      -285.44757
               4.4248122                      -288.06034
               4.4336795                       -278.8621
               4.4425469                       -279.3288
               4.4514142                      -286.21605
               4.4602816                      -279.68008
                4.469149                       -274.3258
               4.4780163                      -281.86501
               4.4868837                      -280.85652
                4.495751                      -271.70628
               4.5046184                       -275.8469
               4.5134858                      -280.63347
               4.5223531                      -271.62708
               4.5312205                      -269.84798
               4.5400878                      -277.88768
               4.5489552                      -273.02437
               4.5578226                      -265.61066
               4.5666899                      -272.70047
               4.5755573                      -274.09505
               4.5844246                      -264.08944
                4.593292                      -266.35646
               4.6021593                      -273.14746
               4.6110267                      -264.95735
               4.6198941                      -260.75453
               4.6287614                      -269.42638
               4.6376288                      -266.72313
               4.6464961                       -257.5052
               4.6553635                      -263.51331
               4.6642309                      -267.42027
               4.6730982                       -257.1383
               4.6819656                      -257.08821
               4.6908329                      -265.54817
               4.6997003                      -258.80821
               4.7085677                      -252.14756
                4.717435                      -260.81745
               4.7263024                       -260.6581
               4.7351697                      -250.04177
               4.7440371                      -254.33087
               4.7529045                      -260.68872
               4.7617718                      -250.79439
               4.7706392                      -248.09297
               4.7795065                      -257.72656
               4.7883739                      -253.04439
               4.7972412                      -244.06446
               4.8061086                      -252.02422
                4.814976                      -254.66136
               4.8238433                       -243.2057
               4.8327107                      -245.18755
                4.841578                      -253.75706
               4.8504454                      -244.97381
               4.8593128                      -239.44123
               4.8681801                       -249.6149
               4.8770475                      -247.53464
               4.8859148                      -236.56691
               4.8947822                      -243.08154
               4.9036496                      -248.61091
               4.9125169                      -237.01842
               4.9213843                      -236.20966
               4.9302516                       -246.5759
                4.939119                       -239.6519
               4.9479864                      -231.30063
               4.9568537                      -241.27087
               4.9657211                      -242.22615
               4.9745884                      -229.79207
               4.9834558                      -234.13732
               4.9923231                      -242.45638
               5.0011905                      -231.52511
               5.0100579                      -227.57325
               5.0189252                      -239.12763
               5.0277926                      -234.76299
               5.0366599                       -223.7991
               5.0455273                       -232.7281
               5.0543947                      -236.97969
                5.063262                      -223.76754
               5.0721294                      -225.27508
               5.0809967                      -236.06304
               5.0898641                      -226.65014
               5.0987315                      -219.38786
               5.1075988                      -231.36099
               5.1164662                      -230.17298
               5.1253335                      -217.03103
               5.1342009                       -224.0554
               5.1430682                      -231.67103
               5.1519356                      -218.52982
                5.160803                      -216.65628
               5.1696703                      -229.37535
               5.1785377                      -222.34842
                5.187405                       -211.8283
               5.1962724                       -223.3128
               5.2051398                      -225.76739
               5.2140071                      -211.09496
               5.2228745                       -215.3633
               5.2317418                      -226.16525
               5.2406092                      -214.04836
               5.2494766                      -208.41418
               5.2583439                      -222.30282
               5.2672113                      -218.47094
               5.2760786                      -204.98884
                5.284946                      -214.98408
               5.2938134                      -221.34646
               5.3026807                      -205.99847
               5.3115481                       -206.7457
               5.3204154                      -220.30249
               5.3292828                      -210.23134
               5.3381501                      -200.68767
               5.3470175                      -214.79711
               5.3558849                      -214.85887
               5.3647522                      -198.98062
               5.3736196                      -206.45945
               5.3824869                      -216.75259
               5.3913543                      -201.76592
               5.4002217                       -198.3829
                5.409089                      -214.00242
               5.4179564                      -207.00241
               5.4268237                      -193.67322
               5.4356911                      -206.90264
               5.4445585                      -211.37425
               5.4534258                       -193.9298
               5.4622932                      -197.90107
               5.4711605                      -211.85995
               5.4800279                      -198.39931
               5.4888953                      -190.49242
               5.4977626                      -207.22398
                 5.50663                      -204.24419
               5.5154973                      -187.55223
               5.5243647                      -198.69797
                5.533232                      -207.84244
               5.5420994                      -189.90235
               5.5509668                      -189.48389
               5.5598341                      -206.52706
               5.5687015                      -195.81923
               5.5775688                      -183.27132
               5.5864362                      -199.93352
               5.5953036                      -201.76685
               5.6041709                      -182.45122
               5.6130383                      -190.27886
               5.6219056                      -204.04892
                5.630773                       -186.8871
               5.6396404                      -181.38894
               5.6485077                      -200.61242
               5.6573751                      -193.86959
               5.6662424                      -176.89489
               5.6751098                      -192.12634
               5.6839772                        -199.329
               5.6928445                      -178.44445
               5.7017119                       -181.7755
               5.7105792                      -199.76873
               5.7194466                      -184.80474
               5.7283139                      -173.81235
               5.7371813                      -194.00478
               5.7460487                      -192.33573
                5.754916                       -171.5202
               5.7637834                      -183.85113
               5.7726507                      -196.66496
               5.7815181                      -175.55845
               5.7903855                      -173.36712
               5.7992528                      -194.79792
               5.8081202                      -183.51832
               5.8169875                      -166.96958
               5.8258549                      -186.65026
               5.8347223                       -190.9621
               5.8435896                      -167.28266
                5.852457                      -175.22437
               5.8613243                       -193.5058
               5.8701917                      -173.76639
               5.8790591                      -165.28037
               5.8879264                      -188.97267
               5.8967938                      -182.83291
               5.9056611                       -161.0828
               5.9145285                      -178.56556
               5.9233958                      -189.46333
               5.9322632                      -164.28392
               5.9411306                      -166.43695
               5.9499979                      -189.60327
               5.9588653                      -172.98811
               5.9677326                      -157.79131
                  5.9766                      -182.19988
               5.9854674                      -182.51262
               5.9943347                      -156.38035
               6.0032021                      -169.86347
               6.0120694                      -187.55278
               6.0209368                      -162.59038
               6.0298042                       -157.7633
               6.0386715                      -184.75754
               6.0475389                      -173.08909
               6.0564062                      -151.21327
               6.0652736                      -174.47113
               6.0741409                      -182.28056
               6.0830083                      -153.06827
               6.0918757                      -160.74565
                6.100743                      -184.94348
               6.1096104                      -162.20017
               6.1184777                      -149.53321
               6.1273451                      -178.81557
               6.1362125                      -173.85437
               6.1450798                      -145.85492
               6.1539472                      -165.85292
               6.1628145                      -181.80563
               6.1716819                      -151.28583
               6.1805493                      -151.47961
               6.1894166                      -181.34452
                6.198284                      -163.00694
               6.2071513                       -142.0954
               6.2160187                      -171.66922
               6.2248861                      -174.96853
               6.2337534                      -141.97779
               6.2426208                      -156.47833
               6.2514881                       -180.7008
               6.2603555                      -151.06961
               6.2692228                      -142.38131
               6.2780902                      -176.47459
               6.2869576                      -164.78454
               6.2958249                       -135.7965
               6.3046923                        -163.277
               6.3135596                      -176.02966
                6.322427                        -139.783
               6.3312944                      -146.56988
               6.3401617                      -178.56553
               6.3490291                      -152.36045
               6.3578964                      -133.83484
               6.3667638                      -170.12149
               6.3756312                       -167.2201
               6.3844985                      -130.99638
               6.3933659                      -153.72169
               6.4022332                      -176.60283
               6.4111006                      -139.42318
                6.419968                      -136.47561
               6.4288353                      -175.04267
               6.4377027                      -155.01285
                 6.44657                      -126.29417
               6.4554374                      -162.18031
               6.4643047                      -169.92057
               6.4731721                       -128.0363
               6.4820395                      -143.21307
               6.4909068                      -176.22262
               6.4997742                      -140.95186
               6.5086415                      -126.63347
               6.5175089                      -169.81543
               6.5263763                      -158.74832
               6.5352436                      -120.22297
                6.544111                      -152.64405
               6.5529783                      -172.39047
               6.5618457                      -127.17895
               6.5707131                      -132.07299
               6.5795804                      -174.40345
               6.5884478                      -144.28824
               6.5973151                        -117.553
               6.6061825                      -162.64244
               6.6150499                      -163.15879
               6.6239172                      -116.07715
               6.6327846                      -141.64389
               6.6416519                      -174.07083
               6.6505193                      -128.59698
               6.6593866                        -120.759
                6.668254                      -170.69584
               6.6771214                      -149.21742
               6.6859887                      -109.81063
               6.6948561                      -153.40671
               6.7037234                      -167.72116
               6.7125908                      -114.27488
               6.7214582                      -129.46976
               6.7303255                      -174.36561
               6.7391929                      -132.33494
               6.7480602                      -109.84885
               6.7569276                      -164.71618
                6.765795                      -155.36474
               6.7746623                      -104.00526
               6.7835297                      -142.13559
                6.792397                      -171.79798
               6.8012644                      -115.14306
               6.8101318                      -116.56943
               6.8189991                      -172.66832
               6.8278665                      -138.26929
               6.8367338                      -100.01475
               6.8456012                      -156.18469
               6.8544685                      -162.18669
               6.8633359                      -100.71566
               6.8722033                      -129.02978
               6.8810706                        -174.663
                6.889938                      -118.87537
               6.8988053                      -103.55231
               6.9076727                      -168.41107
               6.9165401                      -146.08738
               6.9254074                      -91.999047
               6.9342748                      -144.97675
               6.9431421                      -168.98357
               6.9520095                      -100.45974
               6.9608769                      -114.49404
               6.9697442                       -175.5458
               6.9786116                      -125.49583
               6.9874789                      -91.185273
               6.9963463                      -161.12345
               7.0052137                      -155.27504
                7.014081                      -86.576066
               7.0229484                      -131.16906
               7.0318157                      -174.91906
               7.0406831                      -103.63853
               7.0495504                      -99.146583
               7.0584178                      -173.67466
               7.0672852                       -134.8097
               7.0761525                      -80.356721
               7.0850199                      -150.47737
               7.0938872                       -165.0963
               7.1027546                      -84.482995
                7.111622                      -115.06231
               7.1204893                      -179.03816
               7.1293567                      -110.46326
                7.138224                        -83.8057
               7.1470914                      -168.32533
               7.1559588                      -146.36078
               7.1648261                      -72.030005
               7.1736935                      -136.34416
               7.1825608                      -174.60322
               7.1914282                      -86.360477
               7.2002955                      -97.219846
               7.2091629                      -180.32902
               7.2180303                      -120.91168
               7.2268976                      -69.489751
                7.235765                      -158.90831
               7.2446323                       -159.4264
               7.2534997                      -67.203755
               7.2623671                      -118.86815
               7.2712344                      -182.67627
               7.2801018                      -92.691403
               7.2889691                      -78.492371
               7.2978365                        -177.794
               7.3067039                       -134.6763
               7.3155712                      -57.381429
               7.3244386                      -145.04178
               7.3333059                      -173.00397
               7.3421733                      -66.830962
               7.3510407                      -98.508468
                7.359908                      -188.06114
               7.3687754                      -103.71384
               7.3776427                      -60.008042
               7.3865101                      -170.52316
               7.3953774                      -151.11304
               7.4042448                      -48.766162
               7.4131122                      -126.62743
               7.4219795                      -185.82213
               7.4308469                      -71.731668
               7.4397142                      -76.078873
               7.4485816                      -189.43874
                7.457449                      -119.34586
               7.4663163                      -43.152071
               7.4751837                      -157.79201
                7.484051                      -169.21533
               7.4929184                      -44.957135
               7.5017858                      -103.92947
               7.5106531                      -196.37916
               7.5195205                       -82.49499
               7.5283878                      -52.767757
               7.5372552                      -185.51415
               7.5461226                      -139.11184
               7.5549899                      -29.514757
               7.5638573                      -139.16107
               7.5727246                      -187.60127
                7.581592                      -47.190346
               7.5904593                      -77.636426
               7.5993267                       -203.0012
               7.6081941                      -99.368041
               7.6170614                      -30.128489
               7.6259288                      -175.12144
               7.6347961                      -162.07695
               7.6436635                      -20.807212
               7.6525309                      -114.57724
               7.6613982                      -204.52778
               7.6702656                      -56.500365
               7.6791329                      -48.907632
               7.6880003                      -203.93323
               7.6968677                      -122.14811
                7.705735                      -10.042746
               7.7146024                      -157.35088
               7.7234697                      -186.80859
               7.7323371                      -18.753221
               7.7412045                      -84.477641
               7.7500718                      -217.94473
               7.7589392                      -73.588378
               7.7678065                      -19.402168
               7.7766739                      -197.46758
               7.7855412                      -150.09116
               7.7944086                       5.3427321
                7.803276                      -131.69758
               7.8121433                      -211.37631
               7.8210107                      -24.961509
                7.829878                      -49.891595
               7.8387454                      -225.59768
               7.8476128                      -98.691202
               7.8564801                        8.716275
               7.8653475                      -182.10986
               7.8742148                      -181.84439
               7.8830822                       13.715523
               7.8919496                      -98.216859
               7.9008169                      -233.38846
               7.9096843                       -40.76437
               7.9185516                      -12.508413
                7.927419                      -225.15862
               7.9362864                      -131.43427
               7.9451537                       32.836136
               7.9540211                      -156.74917
               7.9628884                      -215.38843
               7.9717558                       12.759112
               7.9806231                      -57.653347
               7.9894905                      -250.05713
               7.9983579                      -67.021985
               8.0072252                       25.299687
               8.0160926                       -214.3915
               8.0249599                      -170.69227
               8.0338273                       50.005273
               8.0426947                       -120.8461
                8.051562                      -248.02196
               8.0604294                       0.3524653
               8.0692967                      -11.557874
               8.0781641                      -258.32205
               8.0870315                      -103.91834
               8.0958988                       60.499255
               8.1047662                      -191.36119
               8.1136335                      -214.47866
               8.1225009                       57.090782
               8.1313682                      -74.631797
               8.1402356                      -276.40746
                8.149103                      -25.201031
               8.1579703                       37.620519
               8.1668377                      -255.04284
                8.175705                      -150.77146
               8.1845724                       89.461224
               8.1934398                      -154.69254
               8.2023071                      -259.89272
               8.2111745                       50.981878
               8.2200418                      -19.313139
               8.2289092                      -296.69322
               8.2377766                      -64.923091
               8.2466439                       86.487681
               8.2555113                      -237.25067
               8.2643786                      -205.85482
                8.273246                       108.10766
               8.2821134                      -103.83929
               8.2909807                      -303.10808
               8.2998481                       28.872365
               8.3087154                       42.771815
               8.3175828                      -304.68757
               8.3264501                       -118.8706
               8.3353175                       130.74702
               8.3441849                      -202.43785
               8.3530522                      -266.24191
               8.3619196                       112.14839
               8.3707869                      -39.353245
               8.3796543                      -339.43512
               8.3885217                      -11.407236
                8.397389                       108.03958
               8.4062564                      -296.12466
               8.4151237                       -185.8603
               8.4239911                       165.31251
               8.4328585                      -148.90949
               8.4417258                      -327.72437
               8.4505932                        97.38607
               8.4594605                       36.844214
               8.4683279                      -363.48852
               8.4771953                      -71.024768
               8.4860626                       171.61322
                 8.49493                      -267.01668
               8.5037973                      -263.21753
               8.5126647                       184.52546
                8.521532                      -76.163451
               8.5303994                      -384.80771
               8.5392668                       60.113793
               8.5481341                       121.23987
               8.5570015                      -369.45216
               8.5658688                      -149.74865
               8.5747362                       227.38027
               8.5836036                      -214.08031
               8.5924709                      -346.57396
               8.6013383                       182.48994
               8.6102056                         14.7229
                8.619073                      -430.81571
               8.6279404                      -2.4099337
               8.6368077                       208.58127
               8.6456751                      -351.45682
               8.6545424                      -245.55027
               8.6634098                       268.17915
               8.6722772                      -135.22207
               8.6811445                      -429.74434
               8.6900119                       153.53341
               8.6988792                       120.72985
               8.7077466                      -458.12769
               8.7166139                      -91.433928
               8.7254813                       291.81849
               8.7343487                      -304.10078
                8.743216                      -354.27055
               8.7520834                         286.099
               8.7609507                      -30.110087
               8.7698181                      -504.77335
               8.7786855                       92.737083
               8.7875528                       236.54133
               8.7964202                      -458.61823
               8.8052875                      -206.19542
               8.8141549                       362.16157
               8.8230223                      -223.09806
               8.8318896                      -469.36999
                8.840757                       272.94871
               8.8496243                       99.259582
               8.8584917                      -562.10899
               8.8673591                      -3.3802712

