                        Mix 1DC_ydriv_budget/real
----------------------------------------------------------------------
                       0                              -0
             0.010239144                       5645.9535
             0.020478289                       9693.8196
             0.030717433                       11787.755
             0.040956577                       12869.886
             0.051195721                       14053.801
             0.061434866                       15487.128
              0.07167401                       16335.788
             0.081913154                       15837.951
             0.092152298                       14275.719
              0.10239144                       12824.545
              0.11263059                       12430.679
              0.12286973                       12890.183
              0.13310888                        13097.25
              0.14334802                       12213.759
              0.15358716                       10552.617
              0.16382631                        9261.733
              0.17406545                       9137.8939
               0.1843046                       9801.3435
              0.19454374                       10087.778
              0.20478289                       9252.6795
              0.21502203                       7741.0242
              0.22526117                       6725.2715
              0.23550032                       6889.8548
              0.24573946                       7720.4426
              0.25597861                       8033.7678
              0.26621775                       7200.0113
               0.2764569                       5793.1919
              0.28669604                       4996.6971
              0.29693518                       5378.4827
              0.30717433                       6302.1551
              0.31741347                       6582.7995
              0.32765262                       5710.0699
              0.33789176                       4375.0656
              0.34813091                       3756.7019
              0.35837005                       4304.1739
              0.36860919                       5272.1157
              0.37884834                        5488.153
              0.38908748                       4561.2452
              0.39932663                       3284.9267
              0.40956577                       2819.8008
              0.41980492                       3497.5683
              0.43004406                       4478.3304
               0.4402832                       4613.9289
              0.45052235                        3628.876
              0.46076149                       2404.2181
              0.47100064                       2072.5639
              0.48123978                       2854.2163
              0.49147892                       3829.6548
              0.50171807                       3881.8234
              0.51195721                       2841.6282
              0.52219636                       1662.4096
               0.5324355                       1444.6764
              0.54267465                       2309.4113
              0.55291379                         3272.41
              0.56315293                       3248.1937
              0.57339208                       2158.4965
              0.58363122                       1014.3776
              0.59387037                       887.89236
              0.60410951                       1819.9425
              0.61434866                       2775.2323
               0.6245878                       2690.9454
              0.63482694                        1555.973
              0.64506609                       426.80817
              0.65530523                       362.34341
              0.66554438                       1352.2472
              0.67578352                        2320.562
              0.68602267                       2203.9619
              0.69626181                       1023.4863
              0.70650095                      -126.72505
               0.7167401                      -167.74133
              0.72697924                       881.52007
              0.73721839                       1908.5857
              0.74745753                       1803.3771
              0.75769668                       566.60467
              0.76793582                      -669.09998
              0.77817496                      -741.02661
              0.78841411                       389.20226
              0.79865325                       1565.3099
               0.8088924                       1543.0699
              0.81913154                       218.56321
              0.82937069                       -1220.633
              0.83960983                      -1406.3786
              0.84984897                      -130.58456
              0.86008812                       1378.9134
              0.87032726                       1572.5464
              0.88056641                       86.532692
              0.89080555                       -1792.382
               0.9010447                      -2240.0257
              0.91128384                      -647.91355
              0.92152298                       1623.4161
              0.93176213                       2341.2243
              0.94200127                       517.05983
              0.95224042                      -2381.0299
              0.96247956                      -3455.5703
              0.97271871                      -1034.9895
              0.98295785                        3336.212
              0.99319699                       5671.1776
               1.0034361                       2969.0697
               1.0136753                      -3341.8139
               1.0239144                      -7170.5286
               1.0341536                      -1721.4461
               1.0443927                       14915.083
               1.0546319                       36998.042
                1.064871                       53991.927
               1.0751101                       57566.511
               1.0853493                       47740.465
               1.0955884                       33462.735
               1.1058276                       27072.707
               1.1160667                       36795.917
               1.1263059                       62773.138
                1.136545                       98939.816
               1.1467842                       138159.63
               1.1570233                       175712.27
               1.1672624                       208519.53
               1.1775016                       232100.22
               1.1877407                       239696.48
               1.1979799                       225833.14
                1.208219                       191745.75
               1.2184582                       147367.88
               1.2286973                       106889.74
               1.2389365                       80502.976
               1.2491756                       68715.063
               1.2594147                       63841.647
               1.2696539                        57295.01
                1.279893                       46411.472
               1.2901322                        35239.52
               1.3003713                       29305.706
               1.3106105                       29706.597
               1.3208496                       32066.529
               1.3310888                       30963.584
               1.3413279                       25188.637
                1.351567                       18643.922
               1.3618062                       16171.145
               1.3720453                       18611.703
               1.3822845                       22028.615
               1.3925236                       21753.943
               1.4027628                       17093.946
               1.4130019                       11943.582
               1.4232411                       10749.789
               1.4334802                       13963.222
               1.4437193                       17597.205
               1.4539585                       17315.595
               1.4641976                       12865.337
               1.4744368                       8326.9723
               1.4846759                       7924.5294
               1.4949151                       11676.254
               1.5051542                       15348.086
               1.5153934                       14784.905
               1.5256325                       10198.498
               1.5358716                       5994.0897
               1.5461108                       6262.5706
               1.5563499                        10535.83
               1.5665891                       14196.913
               1.5768282                       13197.279
               1.5870674                       8272.9647
               1.5973065                       4278.7352
               1.6075457                          5227.4
               1.6177848                       10087.924
               1.6280239                       13728.056
               1.6382631                       12155.011
               1.6485022                        6718.149
               1.6587414                       2865.4995
               1.6689805                       4581.0635
               1.6792197                       10163.063
               1.6894588                       13795.583
               1.6996979                       11483.777
               1.7099371                       5319.0512
               1.7201762                       1548.0778
               1.7304154                       4201.6765
               1.7406545                       10750.985
               1.7508937                       14432.788
               1.7611328                       11139.246
                1.771372                       3894.4749
               1.7816111                       97.429582
               1.7918502                       4001.8846
               1.8020894                       12019.125
               1.8123285                       15940.888
               1.8225677                       11245.252
               1.8328068                       2167.5702
                1.843046                      -1996.2041
               1.8532851                         3803.68
               1.8635243                       14646.854
               1.8737634                       19723.387
               1.8840025                       12908.273
               1.8942417                      -327.81455
               1.9044808                      -6921.4897
                 1.91472                       1948.2267
               1.9249591                       22162.207
               1.9351983                       39593.773
               1.9454374                        42298.36
               1.9556766                       30652.123
               1.9659157                       15922.523
               1.9761548                       8828.1486
                1.986394                       9406.1651
               1.9966331                       8329.7307
               2.0068723                      -1463.6151
               2.0171114                      -14554.242
               2.0273506                      -15327.606
               2.0375897                       7904.3546
               2.0478289                       49563.218
                2.058068                       87383.466
               2.0683071                       98045.807
               2.0785463                       75232.235
               2.0887854                       34680.674
               2.0990246                       1816.7964
               2.1092637                      -7491.8678
               2.1195029                       3009.4186
                2.129742                        16551.68
               2.1399812                       19394.004
               2.1502203                       11714.568
               2.1604594                       4617.2436
               2.1706986                       7627.0162
               2.1809377                       19109.229
               2.1911769                       28206.369
                2.201416                        25551.73
               2.2116552                       12114.689
               2.2218943                      -1955.3576
               2.2321335                      -6788.1335
               2.2423726                      -1323.6244
               2.2526117                       6765.7282
               2.2628509                        8934.786
                 2.27309                       3524.9056
               2.2833292                       -3649.041
               2.2935683                      -5676.7931
               2.3038075                      -1250.1844
               2.3140466                       4632.0038
               2.3242857                       6044.4866
               2.3345249                       1928.4347
                2.344764                      -3284.4841
               2.3550032                      -4406.1432
               2.3652423                      -616.07007
               2.3754815                       4013.6155
               2.3857206                        4808.056
               2.3959598                       1134.5145
               2.4061989                      -3152.7667
                2.416438                      -3710.7281
               2.4266772                      -53.557853
               2.4369163                       4037.0737
               2.4471555                       4353.3459
               2.4573946                       508.96831
               2.4676338                      -3606.0961
               2.4778729                      -3654.7488
               2.4881121                       717.77641
               2.4983512                       5211.3738
               2.5085903                       4844.7208
               2.5188295                      -940.44115
               2.5290686                       -6841.501
               2.5393078                      -5642.6885
               2.5495469                       5506.1313
               2.5597861                       21814.882
               2.5700252                       33649.319
               2.5802644                       33482.811
               2.5905035                       21559.216
               2.6007426                       5727.4709
               2.6109818                      -4443.8361
               2.6212209                      -4578.9061
               2.6314601                       2002.6414
               2.6416992                        7919.753
               2.6519384                       8160.0709
               2.6621775                       3798.3599
               2.6724167                       54.913334
               2.6826558                       806.71937
               2.6928949                       4776.8041
               2.7031341                       6977.6203
               2.7133732                       3988.8667
               2.7236124                      -2133.1822
               2.7338515                      -5431.0124
               2.7440907                      -2000.8254
               2.7543298                       5368.4549
                2.764569                       8951.8192
               2.7748081                       3536.4329
               2.7850472                      -7016.5422
               2.7952864                      -10899.811
               2.8055255                       2383.9704
               2.8157647                       31881.436
               2.8260038                       63297.474
                2.836243                       78184.722
               2.8464821                       67536.944
               2.8567213                       38755.283
               2.8669604                       10011.116
               2.8771995                      -3508.9101
               2.8874387                      -156.29953
               2.8976778                       9277.1118
                2.907917                        12643.63
               2.9181561                       7413.3549
               2.9283953                       2083.2843
               2.9386344                       7479.8051
               2.9488735                       26383.647
               2.9591127                       50894.067
               2.9693518                       69402.096
                2.979591                       76215.564
               2.9898301                         74927.6
               3.0000693                       73021.317
               3.0103084                       73590.605
               3.0205476                       72440.456
               3.0307867                       63183.709
               3.0410258                       44962.862
                3.051265                       24875.059
               3.0615041                       12440.568
               3.0717433                       11322.144
               3.0819824                       16310.578
               3.0922216                       18622.209
               3.1024607                       14590.302
               3.1126999                       9503.7238
                3.122939                       12823.292
               3.1331781                       29045.649
               3.1434173                       52547.501
               3.1536564                       71127.044
               3.1638956                       75149.637
               3.1741347                       64414.624
               3.1843739                       47244.294
                3.194613                       33299.651
               3.2048522                       26710.996
               3.2150913                       24968.861
               3.2253304                       23317.622
               3.2355696                       19728.718
               3.2458087                       15946.046
               3.2560479                        14525.36
                3.266287                       15586.893
               3.2765262                       16677.496
               3.2867653                       15536.865
               3.2970045                       12589.526
               3.3072436                       10523.464
               3.3174827                        11507.95
               3.3277219                       15020.632
                3.337961                       18505.576
               3.3482002                        20113.66
               3.3584393                       20693.003
               3.3686785                        23037.66
               3.3789176                       29178.141
               3.3891568                       38364.467
               3.3993959                       47584.157
                3.409635                       53948.778
               3.4198742                        56632.86
               3.4301133                        56764.28
               3.4403525                       55804.391
               3.4505916                       54272.836
               3.4608308                       51964.891
               3.4710699                       49035.888
               3.4813091                       46447.299
               3.4915482                       45147.421
               3.5017873                       44933.647
               3.5120265                       44439.176
               3.5222656                       42529.325
               3.5325048                       39800.107
               3.5427439                       38560.124
               3.5529831                       41056.701
               3.5632222                       47444.049
               3.5734614                       55352.023
               3.5837005                       61508.363
               3.5939396                       64026.584
               3.6041788                       63426.583
               3.6144179                       61663.941
               3.6246571                        60212.09
               3.6348962                       58934.429
               3.6451354                       56577.812
               3.6553745                       52194.653
               3.6656136                       46095.446
               3.6758528                       39570.756
               3.6860919                       33837.411
               3.6963311                       29270.942
               3.7065702                        25528.37
               3.7168094                       22236.267
               3.7270485                       19458.793
               3.7372877                        17525.04
               3.7475268                       16507.694
               3.7577659                       15969.134
               3.7680051                       15263.305
               3.7782442                       14094.324
               3.7884834                       12776.488
               3.7987225                       11931.299
               3.8089617                       11888.048
               3.8192008                       12332.497
                 3.82944                       12539.309
               3.8396791                       12017.021
               3.8499182                       11012.078
               3.8601574                       10382.605
               3.8703965                       10851.063
               3.8806357                       12220.849
               3.8908748                       13313.148
                3.901114                       12895.189
               3.9113531                       10991.746
               3.9215923                       9407.1561
               3.9318314                        10675.53
               3.9420705                        15925.16
               3.9523097                       23329.486
               3.9625488                       28749.416
                3.972788                       28568.825
               3.9830271                       22722.369
               3.9932663                       15311.048
               4.0035054                       11857.458
               4.0137446                       15061.266
               4.0239837                       22486.858
               4.0342228                       28334.059
                4.044462                       28109.695
               4.0547011                       22416.368
               4.0649403                       16605.191
               4.0751794                       16456.273
               4.0854186                       23473.538
               4.0956577                       33763.485
               4.1058969                       41382.767
                4.116136                       43173.067
               4.1263751                       40889.104
               4.1366143                       38929.607
               4.1468534                         39909.6
               4.1570926                       42121.941
               4.1673317                       41079.947
               4.1775709                       33622.455
                 4.18781                       20901.135
               4.1980492                       7778.5059
               4.2082883                      -589.22481
               4.2185274                      -1981.8036
               4.2287666                       2220.2902
               4.2390057                       8790.7668
               4.2492449                       14825.335
                4.259484                       18665.827
               4.2697232                       19663.625
               4.2799623                       17930.189
               4.2902014                       14599.424
               4.3004406                       11847.498
               4.3106797                       11757.071
               4.3209189                       14480.585
                4.331158                       17510.319
               4.3413972                       17378.546
               4.3516363                        12839.34
               4.3618755                        6699.391
               4.3721146                       4151.4802
               4.3823537                       8508.0883
               4.3925929                       17905.214
                4.402832                       26123.746
               4.4130712                        27214.61
               4.4233103                       20153.898
               4.4335495                       9553.8007
               4.4437886                       1844.6034
               4.4540278                       285.73412
               4.4642669                       3056.5181
                4.474506                       5750.2927
               4.4847452                       5632.7173
               4.4949843                        3697.168
               4.5052235                       2937.8431
               4.5154626                       4919.0936
               4.5257018                        8131.115
               4.5359409                        9598.091
               4.5461801                       7914.0485
               4.5564192                        4594.464
               4.5666583                       2487.8497
               4.5768975                       2987.1045
               4.5871366                       4885.0118
               4.5973758                       5919.6407
               4.6076149                       5283.3648
               4.6178541                       4455.3116
               4.6280932                       5523.7059
               4.6383324                       8780.4775
               4.6485715                       12116.651
               4.6588106                       12899.445
               4.6690498                       10484.863
               4.6792889                       6875.0602
               4.6895281                       4884.2131
               4.6997672                       5627.4788
               4.7100064                       7744.1471
               4.7202455                       8977.1578
               4.7304847                       8416.3666
               4.7407238                       7183.9031
               4.7509629                       7032.9013
               4.7612021                        8443.589
               4.7714412                       10193.456
               4.7816804                        10744.13
               4.7919195                       9889.0513
               4.8021587                       8902.3239
               4.8123978                       9067.8892
                4.822637                       10192.151
               4.8328761                       10712.741
               4.8431152                       9326.9798
               4.8533544                       6454.4329
               4.8635935                       3993.1512
               4.8738327                       3572.0766
               4.8840718                       5040.1843
                4.894311                       6691.2689
               4.9045501                       6965.9049
               4.9147892                       5904.8839
               4.9250284                       4931.0847
               4.9352675                       5262.1024
               4.9455067                       6621.6844
               4.9557458                       7551.8083
                4.965985                       6952.1586
               4.9762241                       5231.4101
               4.9864633                       3896.9875
               4.9967024                       4036.8502
               5.0069415                       5264.7632
               5.0171807                       6183.8917
               5.0274198                       5848.1578
                5.037659                       4706.4834
               5.0478981                       4097.7621
               5.0581373                       4875.7594
               5.0683764                       6604.1473
               5.0786156                       8111.7136
               5.0888547                       8758.0435
               5.0990938                       9045.6521
                5.109333                       9947.2781
               5.1195721                        11697.61
               5.1298113                       13370.132
               5.1400504                       13733.017
               5.1502896                       12528.228
               5.1605287                       10853.733
               5.1707679                       10226.408
                5.181007                        11231.33
               5.1912461                       13065.066
               5.2014853                       14371.791
               5.2117244                       14504.421
               5.2219636                       13995.324
               5.2322027                       13885.272
               5.2424419                       14692.548
                5.252681                       16053.264
               5.2629202                       17256.997
               5.2731593                         17965.3
               5.2833984                       18325.554
               5.2936376                       18482.444
               5.3038767                       18206.139
               5.3141159                       17181.813
                5.324355                       15649.005
               5.3345942                       14543.939
               5.3448333                       14757.185
               5.3550725                       16134.977
               5.3653116                       17304.771
               5.3755507                       16703.226
               5.3857899                       13964.197
                5.396029                       10346.364
               5.4062682                       7716.6369
               5.4165073                       6987.7457
               5.4267465                       7460.5759
               5.4369856                        7659.911
               5.4472248                       6809.8499
               5.4574639                       5504.1217
                5.467703                       4969.5437
               5.4779422                       5736.0675
               5.4881813                       7084.2808
               5.4984205                       7799.0353
               5.5086596                       7405.3265
               5.5188988                       6593.8823
               5.5291379                       6421.2529
               5.5393771                       7157.9709
               5.5496162                       8010.1613
               5.5598553                       7998.0025
               5.5700945                       7039.8157
               5.5803336                       6069.7267
               5.5905728                       6048.0089
               5.6008119                        6918.939
               5.6110511                       7654.3283
               5.6212902                       7375.8024
               5.6315293                       6367.6174
               5.6417685                       5843.5624
               5.6520076                       6618.7836
               5.6622468                        8048.087
               5.6724859                       8431.8269
               5.6827251                       6641.2812
               5.6929642                       3410.3431
               5.7032034                       937.45186
               5.7134425                       1027.3919
               5.7236816                        3453.227
               5.7339208                       6090.6063
               5.7441599                       6748.1607
               5.7543991                       5036.1168
               5.7646382                       2592.1587
               5.7748774                       1525.6042
               5.7851165                       2562.3046
               5.7953557                       4555.4401
               5.8055948                        5673.715
               5.8158339                       5042.3456
               5.8260731                       3333.6318
               5.8363122                       1932.4252
               5.8465514                       1645.7191
               5.8567905                       2198.4373
               5.8670297                         2824.45
               5.8772688                       3166.1039
                5.887508                       3526.7873
               5.8977471                       4333.0205
               5.9079862                       5516.6245
               5.9182254                       6534.5022
               5.9284645                       6973.8733
               5.9387037                       7028.8779
               5.9489428                       7294.3275
                5.959182                       8097.5603
               5.9694211                       9112.9342
               5.9796603                       9701.6046
               5.9898994                       9623.3608
               6.0001385                        9344.181
               6.0103777                       9577.6908
               6.0206168                       10516.406
                6.030856                       11560.441
               6.0410951                        11856.97
               6.0513343                       11132.732
               6.0615734                       9995.5609
               6.0718126                        9410.959
               6.0820517                       9872.7765
               6.0922908                       11054.338
                 6.10253                       12205.147
               6.1127691                       12820.139
               6.1230083                       12914.326
               6.1332474                       12736.792
               6.1434866                       12368.281
               6.1537257                       11701.464
               6.1639649                       10779.956
                6.174204                       9997.0241
               6.1844431                        9794.917
               6.1946823                       10125.217
               6.2049214                       10320.898
               6.2151606                       9688.5907
               6.2253997                       8346.3769
               6.2356389                       7436.1015
                6.245878                       8326.9773
               6.2561171                       11396.124
               6.2663563                       15473.447
               6.2765954                       18528.047
               6.2868346                       19087.183
               6.2970737                       17231.667
               6.3073129                       14405.578
                6.317552                       12317.676
               6.3277912                       11910.855
               6.3380303                       13134.979
               6.3482694                       15418.832
               6.3585086                       18174.846
               6.3687477                       20881.513
               6.3789869                       22922.263
                6.389226                       23657.781
               6.3994652                       22850.689
               6.4097043                       21000.593
               6.4199435                       19087.319
               6.4301826                       17807.295
               6.4404217                        17008.97
               6.4506609                       15958.715
                  6.4609                       14271.622
               6.4711392                       12597.898
               6.4813783                       12275.881
               6.4916175                       14125.366
               6.5018566                       17456.933
               6.5120958                       20296.024
               6.5223349                       20763.952
                6.532574                       18486.792
               6.5428132                       14834.582
               6.5530523                       11809.362
               6.5632915                       10563.142
               6.5735306                       10776.232
               6.5837698                       11282.504
               6.5940089                       11223.612
               6.6042481                        10662.65
               6.6144872                       10228.587
               6.6247263                       10300.871
               6.6349655                       10583.933
               6.6452046                       10427.852
               6.6554438                        9495.806
               6.6656829                       8104.5741
               6.6759221                       6958.4976
               6.6861612                       6588.0004
               6.6964004                       7007.9078
               6.7066395                       7813.7171
               6.7168786                        8520.697
               6.7271178                       8833.6344
               6.7373569                        8733.167
               6.7475961                       8466.6781
               6.7578352                       8507.6729
               6.7680744                       9406.2545
               6.7783135                       11464.032
               6.7885527                       14386.283
               6.7987918                        17233.35
               6.8090309                       18841.091
               6.8192701                       18481.521
               6.8295092                        16282.19
               6.8397484                       13107.882
               6.8499875                       10071.967
               6.8602267                       8115.5424
               6.8704658                       7894.6999
               6.8807049                       9793.4682
               6.8909441                       13744.591
               6.9011832                       18888.388
               6.9114224                       23539.683
               6.9216615                       25875.682
               6.9319007                       25099.926
               6.9421398                       22181.703
                6.952379                       19371.851
               6.9626181                       18643.841
               6.9728572                       20211.342
               6.9830964                       22353.247
               6.9933355                       22747.462
               7.0035747                       20243.944
               7.0138138                       15646.103
                7.024053                       10953.727
               7.0342921                       7833.0104
               7.0445313                       6627.3379
               7.0547704                       6576.5292
               7.0650095                       6780.3194
               7.0752487                       6922.0993
               7.0854878                       7252.5225
                7.095727                       8175.5439
               7.1059661                       10050.067
               7.1162053                       13308.847
               7.1264444                       18406.843
               7.1366836                       25236.124
               7.1469227                       32423.215
               7.1571618                       37442.138
                7.167401                       37959.939
               7.1776401                       33598.539
               7.1878793                       26577.116
               7.1981184                       20405.049
               7.2083576                       17471.934
               7.2185967                        17491.38
               7.2288359                        18139.01
                7.239075                       17317.597
               7.2493141                        15017.37
               7.2595533                       13124.524
               7.2697924                       13449.861
               7.2800316                       15902.433
               7.2902707                       18545.047
               7.3005099                        19424.89
                7.310749                       18360.401
               7.3209882                       16943.637
               7.3312273                       16795.485
               7.3414664                       17836.065
               7.3517056                       18309.012
               7.3619447                       16554.295
               7.3721839                        12782.04
                7.382423                       9078.1395
               7.3926622                       7595.6038
               7.4029013                       8663.8371
               7.4131405                       10640.455
               7.4233796                       11647.432
               7.4336187                       11512.536
               7.4438579                       12035.059
                7.454097                       15289.715
               7.4643362                       21532.268
               7.4745753                       28629.131
               7.4848145                       33515.353
               7.4950536                       34375.383
               7.5052927                       31709.725
               7.5155319                       27577.231
                7.525771                       23916.742
               7.5360102                       21453.155
               7.5462493                       19881.699
               7.5564885                       18755.403
               7.5667276                       18024.387
               7.5769668                       17804.871
               7.5872059                       17880.016
                7.597445                       17660.876
               7.6076842                       16713.579
               7.6179233                       15250.112
               7.6281625                       13980.772
               7.6384016                       13419.365
               7.6486408                       13346.712
               7.6588799                       13003.061
               7.6691191                       11836.073
               7.6793582                       10061.563
               7.6895973                       8486.8437
               7.6998365                       7788.0491
               7.7100756                        7955.436
               7.7203148                       8412.0794
               7.7305539                       8623.9103
               7.7407931                       8569.0643
               7.7510322                       8645.0598
               7.7612714                       9187.1566
               7.7715105                       10116.287
               7.7817496                       11020.553
               7.7919888                       11500.334
               7.8022279                       11401.216
               7.8124671                       10787.214
               7.8227062                       9832.3367
               7.8329454                       8825.8429
               7.8431845                       8209.5841
               7.8534237                       8400.2361
               7.8636628                       9381.0658
               7.8739019                       10449.352
               7.8841411                       10550.553
               7.8943802                       9118.4292
               7.9046194                       6724.2469
               7.9148585                       4819.3188
               7.9250977                       4612.4201
               7.9353368                        6007.265
                7.945576                       7625.9026
               7.9558151                       8029.4711
               7.9660542                       7101.4072
               7.9762934                       6292.8786
               7.9865325                       7393.5672
               7.9967717                       10851.469
               8.0070108                       15149.106
                 8.01725                       17851.418
               8.0274891                       17461.025
               8.0377283                       14505.243
               8.0479674                       10981.329
               8.0582065                       8733.5693
               8.0684457                       8195.9192
               8.0786848                       8473.1888
                8.088924                       8469.0155
               8.0991631                       7910.7355
               8.1094023                       7398.2123
               8.1196414                       7624.0214
               8.1298806                       8639.6932
               8.1401197                       9843.0336
               8.1503588                       10562.725
                8.160598                       10577.099
               8.1708371                       10107.725
               8.1810763                       9449.2806
               8.1913154                        8730.104
               8.2015546                       8033.9528
               8.2117937                       7625.1532
               8.2220328                       7892.8131
                8.232272                       8997.9519
               8.2425111                       10619.588
               8.2527503                       12147.118
               8.2629894                       13182.575
               8.2732286                       13838.304
               8.2834677                       14495.592
               8.2937069                        15267.93
                8.303946                       15763.556
               8.3141851                       15452.077
               8.3244243                       14283.902
               8.3346634                       12889.596
               8.3449026                       12079.693
               8.3551417                       12098.058
               8.3653809                       12384.808
                 8.37562                       12124.681
               8.3858592                       11057.282
               8.3960983                       9734.4668
               8.4063374                       8957.2718
               8.4165766                       8971.3162
               8.4268157                       9268.9949
               8.4370549                       9232.2844
                8.447294                       8958.3225
               8.4575332                       9363.4443
               8.4677723                       11351.267
               8.4780115                       14792.743
               8.4882506                       18330.761
               8.4984897                        20290.52
               8.5087289                       19938.873
                8.518968                       17994.156
               8.5292072                       15970.017
               8.5394463                       14979.678
               8.5496855                       15044.327
               8.5599246                       15394.636
               8.5701638                       15323.072
               8.5804029                       14739.223
                8.590642                       14015.324
               8.6008812                       13456.341
               8.6111203                       13017.609
               8.6213595                       12503.205
               8.6315986                       11908.814
               8.6418378                       11455.435
               8.6520769                       11278.732
               8.6623161                       11178.129
               8.6725552                       10775.533
               8.6827943                       9947.9429
               8.6930335                       9042.4174
               8.7032726                       8582.0155
               8.7135118                       8730.9225
               8.7237509                       9088.9833
               8.7339901                       9070.7803
               8.7442292                       8503.5852
               8.7544684                       7819.0018
               8.7647075                       7618.0577
               8.7749466                       8050.4765
               8.7851858                        8661.981
               8.7954249                       8881.7991
               8.8056641                       8639.7373
               8.8159032                       8445.8821
               8.8261424                       8822.6608
               8.8363815                       9676.2348
               8.8466206                       10290.093
               8.8568598                       9994.5239
               8.8670989                       8855.0577
               8.8773381                       7677.9728
               8.8875772                       7312.7956
               8.8978164                       7939.0615
               8.9080555                       9023.1589
               8.9182947                       9928.3965
               8.9285338                       10502.551
               8.9387729                       11045.276
               8.9490121                       11772.734
               8.9592512                       12458.667
               8.9694904                       12712.668
               8.9797295                       12588.238
               8.9899687                       12757.299
               9.0002078                       13903.492
                9.010447                       15881.679
               9.0206861                       17587.465
               9.0309252                       17856.806
               9.0411644                       16629.542
               9.0514035                       15193.995
               9.0616427                       15116.776
               9.0718818                       16760.536
                9.082121                       18805.906
               9.0923601                       19326.609
               9.1025993                       17490.082
               9.1128384                       14306.698
               9.1230775                       11711.103
               9.1333167                       10836.933
               9.1435558                       11114.401
                9.153795                       11017.516
               9.1640341                       9688.0289
               9.1742733                       7829.0144
               9.1845124                       7004.1643
               9.1947516                        8057.996
               9.2049907                       10229.791
               9.2152298                       11838.237
                9.225469                       11869.355
               9.2357081                       10931.243
               9.2459473                       10674.866
               9.2561864                       12259.865
               9.2664256                       15311.388
               9.2766647                       18269.146
               9.2869039                       19682.307
                9.297143                        19199.63
               9.3073821                       17462.466
               9.3176213                       15255.363
               9.3278604                       12903.299
               9.3380996                       10450.677
               9.3483387                       8205.7244
               9.3585779                       6848.5786
                9.368817                        6869.589
               9.3790562                       7952.9373
               9.3892953                       9075.7217
               9.3995344                       9350.6608
               9.4097736                       8797.6277
               9.4200127                        8225.691
               9.4302519                       8302.1152
                9.440491                       8759.5837
               9.4507302                        8605.471
               9.4609693                       7187.6043
               9.4712084                       5055.6898
               9.4814476                       3693.9451
               9.4916867                       4289.6695
               9.5019259                       6667.6695
                9.512165                       9392.3741
               9.5224042                       10939.212
               9.5326433                       10850.277
               9.5428825                       9868.3615
               9.5531216                       9062.2072
               9.5633607                        8874.183
               9.5735999                       8960.9942
                9.583839                       8808.2486
               9.5940782                       8345.0422
               9.6043173                       7912.8111
               9.6145565                        7732.131
               9.6247956                       7564.1942
               9.6350348                       6993.6512
               9.6452739                       6005.2716
                9.655513                       5152.9674
               9.6657522                       5056.3668
               9.6759913                         5729.76
               9.6862305                       6488.9275
               9.6964696                       6596.4829
               9.7067088                       6006.6988
               9.7169479                       5427.2972
               9.7271871                        5612.096
               9.7374262                       6609.6543
               9.7476653                       7747.4177
               9.7579045                         8351.96
               9.7681436                       8417.5493
               9.7783828                        8492.879
               9.7886219                        8917.956
               9.7988611                       9287.0539
               9.8091002                       8809.0017
               9.8193394                       7256.2671
               9.8295785                       5476.1583
               9.8398176                        4797.448
               9.8500568                       5799.9198
               9.8602959                       7658.6567
               9.8705351                       8801.0858
               9.8807742                       8331.2774
               9.8910134                       6865.3252
               9.9012525                       5942.8292
               9.9114917                       6558.6478
               9.9217308                       8229.9046
               9.9319699                       9491.2772
               9.9422091                       9306.1276
               9.9524482                       7996.1821
               9.9626874                       6808.6038
               9.9729265                       6619.3692
               9.9831657                       7111.6222
               9.9934048                       7230.4427
               10.003644                       6379.8916
               10.013883                       5080.1053
               10.024122                       4401.1131
               10.034361                       4792.1789
               10.044601                       5563.4375
                10.05484                       5585.8943
               10.065079                       4484.8053
               10.075318                       3067.7549
               10.085557                       2518.9396
               10.095796                       3184.4789
               10.106035                       4215.2661
               10.116275                       4451.4091
               10.126514                       3636.7974
               10.136753                       2695.8098
               10.146992                       2769.2792
               10.157231                        3999.064
                10.16747                       5325.4372
               10.177709                       5523.8131
               10.187949                       4425.9658
               10.198188                       3074.5117
               10.208427                       2656.1752
               10.218666                       3315.9545
               10.228905                       4069.3159
               10.239144                       3884.8835

