-1.9986	4454+4.6253e+05i	-1.29e+05+1.7583e+05i	74262-24555i	-78161+22819i
-1.9926	44619+3.9867e+05i	-88133+1.4005e+05i	-3604.1-26484i	7161.1+17780i
-1.9866	-35824+4.0103e+05i	-96737+1.5561e+05i	1.0066e+05+64164i	-73641-71954i
-1.9806	-3.5316e+05+1.1846e+05i	-1.3115e+05+65028i	12936+51873i	-83676+30611i
-1.9746	52412+6.0312e+05i	-56358+1.2441e+05i	75306+49428i	-82719-84795i
-1.9686	-3.3689e+05+8.837e+05i	-1.3704e+05+84409i	16320-41526i	-9480.7+37787i
-1.9626	-42330+5.7446e+05i	-67989+85532i	-2677-3225.7i	1779-7261.2i
-1.9567	-14921+6.3935e+05i	-94039+78628i	-54292+23309i	54500-34073i
-1.9507	-68319+5.9037e+05i	-73138+54363i	61376-1.8044e+05i	-69042+1.8034e+05i
-1.9447	-60810+4.9575e+05i	-90653+26040i	-89481-1.0338e+05i	81137+97309i
-1.9387	21420+5.4812e+05i	-1.0683e+05+1.0866e+05i	92988-1.4163e+05i	-94063+1.1866e+05i
-1.9327	-78188+5.3761e+05i	-90062+54881i	77715-1.5735e+05i	-62448+1.5244e+05i
-1.9267	-23430+5.5775e+05i	-80239+14844i	-2.6395e+05-51447i	2.4922e+05+33077i
-1.9208	-12295+4.937e+05i	-1.2002e+05-13674i	-7215.1-1.4612e+05i	182.17+1.2644e+05i
-1.9148	12999+4.4731e+05i	-75324-22785i	-1.9696e+05+2.9138e+05i	1.9501e+05-2.5733e+05i
-1.9088	28887+4.8563e+05i	-2.4061e+05+34667i	1.8826e+05+15492i	-1.9279e+05-55160i
-1.9028	-42792+5.2839e+05i	-45390+24601i	-85493-1.0591e+05i	1.0189e+05+1.0725e+05i
-1.8968	-10815+4.669e+05i	-76304-29768i	5671.5+1.7611e+05i	6594.6-1.6404e+05i
-1.8908	-13031+4.3567e+05i	-98472-45843i	-10539+56369i	21053-41798i
-1.8849	-20022+4.7807e+05i	-14810-22358i	1.0196e+05+1.117e+05i	-87665-98270i
-1.8789	-20479+4.5218e+05i	-1.4913e+05+2.1293e+05i	1.4662e+05-1.5431e+05i	-1.4883e+05+1.4539e+05i
-1.8729	-64685+4.1032e+05i	-92927+83656i	-37884+84435i	45517-82051i
-1.8669	-44579+3.8902e+05i	-1.5872e+05+28097i	-4382.9+23899i	12242-25912i
-1.8609	-3.4087e+05+3.3243e+05i	-70554+33125i	11063+22481i	13543-5545.3i
-1.8549	-36640+4.539e+05i	-1.2144e+05+59232i	3.5659e+05+2.5776e+05i	-3.2682e+05-2.4882e+05i
-1.849	-1.0849e+05+5.5249e+05i	-1.3858e+05+5494.4i	-42123-2.2136e+05i	42240+2.1634e+05i
-1.843	-2.1883e+05+3.0365e+05i	-1.4592e+05+19462i	2.3776e+05-2.2222e+05i	-2.3214e+05+1.9905e+05i
-1.837	-1.1584e+05+5.1304e+05i	-3.9865e+05-50527i	-1.6386e+05-45021i	1.6489e+05+61510i
-1.831	-28846+3.9636e+05i	-50613-64850i	-2.4777e+05+24823i	2.5669e+05-20865i
-1.825	-27024+3.6218e+05i	-58845-72702i	-81603+1.5108e+05i	85572-1.5057e+05i
-1.819	-52377+3.8901e+05i	-1.2842e+05+24367i	3.2136e+05-2.9765e+05i	-3.1158e+05+3.0168e+05i
-1.8131	-1.9732e+05+3.1223e+05i	-1.1175e+05-22674i	33462-93371i	-27356+94580i
-1.8071	-1.0009e+05+2.1756e+05i	-1.0052e+05-50407i	-37093-1.9338e+05i	41452+1.8921e+05i
-1.8011	-41595+3.7974e+05i	-3.0246e+05+55934i	-78222-1.4275e+05i	79617+1.5248e+05i
-1.7951	-54850+2.8071e+05i	-2.5927e+05-95094i	1.472e+05-21300i	-1.371e+05+23181i
-1.7891	-28478+4.857e+05i	-83887-1.0566e+05i	-1.6035e+05-67958i	1.6776e+05+68818i
-1.7831	-1.386e+05+3.8824e+05i	-1.5578e+05+50679i	76013+20050i	-88023-13259i
-1.7772	-2.743e+05+4.2977e+05i	-2.4567e+05-1.9129e+05i	-1.9312e+05+19654i	1.7909e+05-15109i
-1.7712	-66577+3.485e+05i	-2.1082e+05-99937i	1.021e+05-1.1737e+05i	-97306+92588i
-1.7652	-83520+1.6842e+05i	-1.2461e+05+1.126e+05i	-3.8796e+05+1.503e+05i	4.1146e+05-47503i
-1.7592	-1.0394e+05+4.3859e+05i	-83808+8730.5i	-1.5794e+05+1.5043e+05i	1.4747e+05-1.4864e+05i
-1.7532	-76908+3.5504e+05i	-2.0296e+05-1.0383e+05i	21631-18928i	-9172.2+18857i
-1.7472	-55368+3.4805e+05i	-67628+165.46i	97151-42653i	-81625+29678i
-1.7413	-35396+2.7045e+05i	-2.6675e+05+93281i	-4.9194e+05+2.9372e+05i	4.8339e+05-2.593e+05i
-1.7353	-61833+3.0652e+05i	-2.2443e+05-47741i	-1.9095e+05-82423i	2.0402e+05+88838i
-1.7293	36116+3.877e+05i	-2.9585e+05-5134i	-1.4395e+05-1.4769e+05i	1.4672e+05+1.2951e+05i
-1.7233	914.13+3.1347e+05i	-2.9318e+05+39042i	71643-77516i	-71022+85659i
-1.7173	12819+2.9104e+05i	-2.2086e+05-44858i	-1.1602e+06+5.6157e+05i	1.1202e+06-5.2364e+05i
-1.7113	-1.6624e+05+3.538e+05i	-1.5749e+05-1.6233e+05i	65115+28825i	-53512-19136i
-1.7054	-54980+1.8797e+05i	-1.1731e+05-70315i	-1.3982e+05-1.723e+05i	1.6208e+05+1.779e+05i
-1.6994	-37269+3.919e+05i	-1.7564e+05-3.5281e+05i	-73791+87466i	58081-74045i
-1.6934	-2.3125e+05+4.6561e+05i	-6.2092e+05+31922i	-4.0982e+05-98708i	3.7889e+05+76819i
-1.6874	-1.295e+05+3.7021e+05i	-49248+82670i	-6.7696e+05-20937i	6.3649e+05+20648i
-1.6814	-66339+2.6896e+05i	-83173+8842.5i	-3.1351e+05+1.2514e+05i	2.9929e+05-1.0651e+05i
-1.6754	-82320+2.2319e+05i	-2.3189e+05-1.8476e+05i	-1.2523e+05-1.2028e+05i	1.366e+05+1.1788e+05i
-1.6694	-30462+2.4808e+05i	-32268+10317i	-96357-26105i	70171+60739i
-1.6635	-59422+2.3685e+05i	-2.561e+05-1.5913e+05i	-3.7614e+05+1.7044e+05i	3.5096e+05-1.7373e+05i
-1.6575	-21315+1.8775e+05i	-1.1544e+05+1.6039e+05i	-1.233e+06-40033i	1.1866e+06+38581i
-1.6515	-20193+1.4353e+05i	-1.0117e+05+12348i	-2.4475e+05+16750i	2.3837e+05-14933i
-1.6455	-39394+20502i	-1.9298e+05-57074i	-92296+42218i	97575-50734i
-1.6395	-3.08e+05-4.5088e+05i	-1.4497e+05-69319i	-1.3963e+05+50101i	84412+3633.5i
-1.6335	-2.806e+05+8.0541e+05i	-8.1161e+05-1.5759e+05i	-1.1091e+05-59762i	1.4043e+05+56373i
-1.6276	-2.9417e+05+7.1798e+05i	-4279-21508i	-1.0006e+06-5.4234e+05i	9.4558e+05+4.9896e+05i
-1.6216	-79053+4.0988e+05i	-53588-48779i	3.7094e+05+56225i	-3.6039e+05-56104i
-1.6156	-1.0356e+05+3.2174e+05i	-69200-65983i	1.3615e+05+57646i	-1.2678e+05-57408i
-1.6096	-65998+2.6001e+05i	-81925-1.2709e+05i	72516+30208i	-62245-27930i
-1.6036	-93805+1.901e+05i	-91179-2.9016e+05i	53558+3755.9i	-52082-5474.3i
-1.5976	-1.9868e+05-33945i	-2.0632e+05+28510i	1.2906e+05-21099i	-1.1962e+05+17600i
-1.5917	1037.6+3.0939e+05i	-77626+32124i	-1.5158e+05+3.0132e+05i	1.5958e+05-2.5544e+05i
-1.5857	-1.1976e+05+2.2538e+05i	-3.9528e+05-1.7358e+05i	-26235+73617i	30213-62956i
-1.5797	-1.1619e+05+58734i	-2.2013e+05-3.1046e+05i	27946+49820i	-25304-45335i
-1.5737	-59059+2.5395e+05i	37218+1.594e+05i	75623+1.0897e+05i	-57556-1.05e+05i
-1.5677	-83496+1.3425e+05i	-41407-10191i	-34790-36632i	49382+41966i
-1.5617	-1.3799e+05-72730i	-6.2129e+05-2.0495e+05i	-2.0596e+05-41055i	2.0343e+05+93896i
-1.5558	-30894+3.6522e+05i	-3.3579e+05+1.5896e+05i	1.055e+05+50323i	-95427-59717i
-1.5498	-54557+1.8631e+05i	-72533-44830i	-4089.4-85811i	5809+70512i
-1.5438	-49208+1.0069e+05i	-1.1137e+05-72976i	3.273e+05+2.2807e+05i	-3.1457e+05-1.9736e+05i
-1.5378	-50967+1.0024e+05i	-2.1703e+05-2.3853e+05i	-14538+1.9589e+05i	65298-1.9186e+05i
-1.5318	-3.7595e+05-1.3051e+05i	-85225-83888i	-1.64e+05-2.8818e+05i	1.4695e+05+2.8332e+05i
-1.5258	39925-70693i	-2.9404e+05-3.7974e+05i	7442.5-3.5977e+05i	3495.1+3.7682e+05i
-1.5199	-67820+1.6587e+05i	-38908+84645i	-61216-2.7112e+05i	81718+2.5127e+05i
-1.5139	-2.8333e+05+1.3696e+05i	-94854+67504i	-2.8384e+05-1.6198e+05i	2.5783e+05+1.8798e+05i
-1.5079	-85966+1.0159e+05i	-1.3009e+05-88365i	-4144.2-2.0626e+05i	-15935+1.9759e+05i
-1.5019	-50295-54226i	-1.065e+05-80767i	-6.6406e+05+1.0039e+05i	6.169e+05-1.0457e+05i
-1.4959	-74897-4.264e+05i	-4.6787e+05-3.2305e+05i	-1.4567e+05-3.7139e+05i	1.0451e+05+3.4213e+05i
-1.4899	-2.3296e+05+5.7158e+05i	18462+32781i	56248+2.309e+05i	11576-2.3117e+05i
-1.484	-4.6714e+05+79436i	-772.5-1.1054e+05i	-12959+30584i	40556-11225i
-1.478	-1.3109e+06-6007.3i	-4.5742e+05+91578i	-1.7541e+05-2.6185e+05i	1.5972e+05+2.7299e+05i
-1.472	-94519-3.5696e+05i	-2.2451e+05-1.605e+05i	1.2158e+05+1.2187e+05i	-1.1755e+05-1.2828e+05i
-1.466	-2.9595e+05+5.574e+05i	-2.7392e+05-2.0608e+05i	-80770+41332i	79817-51812i
-1.46	-4.3182e+05+1.1969e+05i	-7.9883e+05-5.3609e+05i	51167-1.1259e+05i	-32033+1.0919e+05i
-1.454	-2.2033e+05-20249i	-1.4602e+05-2.9356e+05i	1.0948e+05-4.2868e+05i	-89857+4.0494e+05i
-1.4481	-3.287e+05-2.5886e+05i	-54025-48065i	-3.4643e+05+7.1191e+05i	3.0953e+05-6.4608e+05i
-1.4421	-9.8953e+05-1.4216e+06i	15133-2.8022e+05i	-1.0098e+05+1.7187e+05i	1.1071e+05-1.7336e+05i
-1.4361	69088+1.0532e+06i	-1.301e+05-1.2561e+05i	-40105+1.2579e+05i	31974-1.2058e+05i
-1.4301	-1.0432e+05+2.1339e+05i	-75411-5.9197e+05i	83598+56725i	-80944-52716i
-1.4241	-1.6946e+06-6.4807e+05i	-5.8879e+05-2.3775e+05i	-34985+35282i	21023-45481i
-1.4181	2.259e+05+2.562e+05i	51692+4.2036e+05i	-4.8734e+05+68696i	5.0523e+05-52032i
-1.4122	65059+1.5468e+05i	-233.09+62445i	-90229-34611i	80100+43568i
-1.4062	-1.2873e+05-2.6317e+05i	-1.9061e+05-1.4697e+05i	15316-61231i	-11244+66249i
-1.4002	-7.0782e+05+3.4556e+05i	-25943-1.1022e+05i	-29332-77466i	18110+83260i
-1.3942	1.5149e+05+2.4417e+05i	-6.0284e+05+81704i	-53190-32223i	51152+38999i
-1.3882	-3.4436e+05-4.3259e+05i	-4.0066e+05+22273i	-11505-9429.2i	21976+2387.7i
-1.3822	-1.0825e+06+1.1099e+06i	-3.0397e+05-90649i	-1.1454e+05-1.2818e+05i	1.2151e+05+1.4014e+05i
-1.3762	-4.0897e+05-3.4252e+05i	6672.7-2.7706e+05i	-2.2564e+05+8310.8i	2.1036e+05+25025i
-1.3703	-1.9653e+05+1.2153e+06i	-6.5193e+05+2.8362e+05i	-1.6604e+05-2.5905e+05i	1.5162e+05+2.3782e+05i
-1.3643	-71656+5.1024e+05i	-2.6141e+05+40567i	-5.2338e+05-8.0808e+05i	4.9967e+05+7.7813e+05i
-1.3583	-1.3161e+05+4.4761e+05i	-1.0397e+05-1.2587e+05i	-24075-3.8819e+05i	39390+3.6611e+05i
-1.3523	-1.0644e+05+2.5605e+05i	-1.5977e+05-1512.3i	1.5365e+05+7.6119e+05i	-1.5053e+05-7.1917e+05i
-1.3463	-1.7069e+05+1.0287e+05i	-3.2276e+05-3.7226e+05i	-1.2478e+05+3.0975e+05i	1.0034e+05-2.809e+05i
-1.3403	-1.5535e+05+21526i	16598-50814i	-1.3888e+05+70080i	1.3255e+05-67720i
-1.3344	-50172+1.1621e+05i	-1.4846e+05-3.3393e+05i	-1.4491e+06-4.2369e+05i	1.3794e+06+4.3156e+05i
-1.3284	1.2725e+05+1.8949e+05i	-94509-1.3531e+05i	4.9301e+05+2.1496e+05i	-5.0696e+05-2.167e+05i
-1.3224	1.2726e+05+71767i	-1.6967e+05-2.3779e+05i	1.6361e+05+1.8496e+05i	-1.7206e+05-1.7299e+05i
-1.3164	88858+57267i	23224+1.0655e+05i	1.0037e+05+89103i	-92697-78443i
-1.3104	-1.3085e+06+4.8141e+05i	-3.8864e+05+2.122e+05i	29542-1.9946e+05i	-20635+2.0984e+05i
-1.3044	-2.4565e+05-1.0007e+05i	-49292-90698i	1.5284e+05+4.5435e+05i	-1.3892e+05-4.4342e+05i
-1.2985	-23269+44741i	-1.7808e+05-1.0283e+05i	69565+2.4978e+05i	-59664-2.2396e+05i
-1.2925	-43850-1.5768e+05i	-2.0283e+05-83760i	60049+2.3428e+05i	-57455-2.1939e+05i
-1.2865	-1.2288e+05-2.4666e+05i	-86814-87230i	-93660-26593i	72534+26319i
-1.2805	-79811-706.24i	-3.9832e+05-4.0333e+05i	1.1731e+05+1.9412e+05i	-92640-1.9226e+05i
-1.2745	15904-2.8896e+05i	-10389+89543i	-3.3245e+05+1.2104e+05i	3.1915e+05-97537i
-1.2685	29085-5.1924e+05i	-38648-1.2461e+05i	1.142e+05+95342i	-1.1006e+05-90897i
-1.2626	1.1622e+05-9.2032e+05i	-3.448e+05-3.0414e+05i	-81849+3.1298e+05i	58473-2.8354e+05i
-1.2566	3.0498e+05-1.8853e+06i	-47102-1.6827e+05i	8726.4+1.2054e+05i	-32702-1.0075e+05i
-1.2506	-4.2177e+06-7.4057e+05i	-60772-1.1483e+05i	95769+1.9278e+05i	-19397-1.6212e+05i
-1.2446	2.4832e+05+1.8535e+06i	-55684-4.474e+05i	-8481.1+63587i	76140-99050i
-1.2386	-2.0834e+06+1.2891e+06i	-5.2382e+05+13113i	64934+1.6324e+05i	-80539-1.6759e+05i
-1.2326	-3.6094e+05+1.5882e+06i	11777-1.6843e+05i	73948+1.7188e+05i	-87873-1.5887e+05i
-1.2267	-7.3329e+05+9.352e+05i	-72859-3.119e+05i	-5426.6+3.8029e+05i	-18823-3.5037e+05i
-1.2207	-8.589e+05+5.0834e+05i	13290-3.7163e+05i	-80145+4.4542e+05i	53427-4.2438e+05i
-1.2147	-8.7307e+05+2.6133e+05i	24288-5.9032e+05i	35050-2.9881e+05i	-57754+2.586e+05i
-1.2087	27077+5.0836e+05i	-53376-7.2965e+05i	4.793e+05-9.4728e+05i	-4.3634e+05+9.1602e+05i
-1.2027	-1.5289e+05+2.2962e+05i	-2.8881e+05+1.0512e+05i	-91319+4.263e+05i	1.592e+05-2.9638e+05i
-1.1967	-3.9476e+05+4.6936e+05i	-45822-1.2126e+06i	1.1285e+05+1.9899e+05i	-80631-96334i
-1.1908	-3.0768e+06-2.3896e+05i	-1.132e+05+9.7798e+05i	51035+1.2078e+05i	-86543-1.5699e+05i
-1.1848	-2.0804e+06+1.5458e+06i	-1.3858e+05-23057i	2.7006e+05-30779i	-2.4867e+05+13312i
-1.1788	-3.0841e+05+5.1494e+05i	3.3408e+05-5.3195e+05i	9.1005e+05+3.9029e+05i	-8.5856e+05-3.5258e+05i
-1.1728	-2.4589e+05+2.349e+05i	-7.456e+05+6.6136e+05i	-6.0311e+05+97982i	5.4761e+05-1.9698e+05i
-1.1668	-3.4968e+05-65321i	-2.8746e+05+3.4505e+05i	2.1885e+05+2.1381e+05i	-34280-4.0278e+05i
-1.1608	-1.288e+06-6.3467e+05i	365.8+2.0748e+05i	-1.525e+05-6.2927e+05i	1.6174e+05+6.3008e+05i
-1.1549	-3.4826e+05-4.6117e+05i	-4.6261e+05+5.1487e+05i	1.0996e+05+44064i	-59002+20961i
-1.1489	69150+1.0342e+06i	-5.3371e+05+8.9554e+05i	82015-1.2749e+05i	-42356+1.2954e+05i
-1.1429	-68366+6.2815e+05i	-3.8261e+05+4.1082e+05i	1.824e+05-2.0413e+05i	-1.6403e+05+2.114e+05i
-1.1369	-53749+3.188e+05i	-1.888e+05+3.6111e+05i	-27718-1.6885e+05i	58672+1.6723e+05i
-1.1309	-54041+1.1066e+05i	-1.5676e+05+1.3248e+05i	-7.113e+05+48496i	7.2376e+05-56703i
-1.1249	-4494.5+31070i	-5.8114e+05+1.245e+05i	-1.7642e+05+7.2615e+05i	1.6947e+05-7.0957e+05i
-1.1189	-1.2219e+05+1.4221e+05i	-1.9474e+05+2.1069e+05i	-84962+2.0448e+05i	83020-2.0477e+05i
-1.113	38585-24782i	-1.5613e+05+79641i	-1.0648e+05-13374i	1.1506e+05+22781i
-1.107	49343-82487i	-1.762e+05-34318i	78095+2.4505e+05i	-67464-2.4441e+05i
-1.101	1.4291e+05-4.9325e+05i	-3.9795e+05-3.9802e+05i	-91263+2.5115e+05i	1.0218e+05-2.5777e+05i
-1.095	-1.5528e+05-6.869e+05i	54711+2.1641e+05i	8090.2+1.8967e+05i	-3452.3-1.7492e+05i
-1.089	-7.9158e+05+5.0536e+05i	-17501+67317i	35045+76887i	-31970-50190i
-1.083	-7.1714e+05+2.1319e+06i	-14161-392.84i	-1.4475e+05+3.9562e+05i	1.5129e+05-3.9085e+05i
-1.0771	-7.0029e+05+9.9119e+05i	18086-67059i	3.1771e+05+3.7045e+05i	-2.988e+05-3.7052e+05i
-1.0711	-3.2496e+05+4.674e+05i	-4.6481e+05+1.1596e+05i	-56824+1.6333e+05i	72584-1.4324e+05i
-1.0651	-2.7393e+05+2.9108e+05i	-1.3129e+05-18522i	-1.7093e+05+93097i	1.6006e+05-80912i
-1.0591	-1.7873e+05+95373i	-96687-88585i	-42021+99864i	42267-92330i
-1.0531	-5.7204e+05+3.8717e+05i	-84173-1.4206e+05i	-5665.5+1.0795e+05i	12153-96452i
-1.0471	-2.8999e+05-4252.5i	-96937-2.4934e+05i	5016.2+75335i	408.66-63508i
-1.0412	-2.3457e+05-1.6693e+05i	-37551-83565i	-22115+78806i	22187-65792i
-1.0352	52498-4.5881e+05i	-45733-1.7224e+05i	-27456+34303i	25233-18501i
-1.0292	-2.0502e+06+1.1703e+06i	-37686-2.3776e+05i	9938.2+1.5895e+05i	3771.7-1.4625e+05i
-1.0232	-2.2696e+06-8.5785e+05i	-2.5954e+05-1.6586e+05i	-2434.5+1.4025e+05i	17776-1.2509e+05i
-1.0172	-1.043e+05+1.8968e+05i	-75630-3.3806e+05i	3119.4+1.1826e+05i	7574.7-1.0038e+05i
-1.0112	-5.8005e+05-3.0136e+05i	19596-3.9615e+05i	56493+87846i	-60646-59970i
-1.0053	-3.6752e+05+10107i	-8.433e+05+33716i	1.2246e+05+44340i	-1.2183e+05-54401i
-0.99928	-4.0107e+05-2.9403e+05i	-2.8198e+05-5.0239e+05i	-10626+92768i	16436-73572i
-0.99329	-5.8837e+05-9.4929e+05i	-4.0207e+05-1.0545e+06i	36632+1.446e+05i	-31533-72875i
-0.98731	-1.069e+05-65041i	-1.3423e+06-1.5117e+06i	2.7226e+05-40100i	-2.2512e+05-42479i
-0.98132	-2.2345e+05-5.2852e+05i	3.8775e+05+9.0395e+05i	57122+19034i	-43911-9336.9i
-0.97534	-5.6368e+05-5.4209e+05i	-2.3016e+05+94272i	-1.3701e+05+1.6946e+05i	1.6922e+05-1.6625e+05i
-0.96936	-6.2132e+05-9.1413e+05i	-1.8306e+05-29940i	-11677+80123i	31017-66092i
-0.96337	-1.0988e+06-1.6444e+06i	-2.2789e+05+17793i	-58712+99249i	69380-74689i
-0.95739	-2.4959e+06-3.6013e+06i	79229-1.5911e+05i	29347+69990i	856.75-62815i
-0.95141	2.2718e+05-3.338e+05i	17449-2.2843e+05i	-10213+72851i	15947-48904i
-0.94542	-6.7338e+05-2.7751e+06i	-77510-1.228e+05i	-942.92+1.0104e+05i	8055.6-41791i
-0.93944	-2.1138e+06-1.0812e+07i	-2.2755e+05-7.1656e+05i	78743+1.0752e+05i	12588-50588i
-0.93346	9.5464e+05+9.8712e+06i	4.0963e+05-2.6337e+05i	-44239+5019.3i	-805.56-30480i
-0.92747	3.5133e+05+3.6167e+06i	7.3249e+05-9.6111e+05i	49194+1.3722e+05i	-81264-95615i
-0.92149	2.0655e+05+2.1034e+06i	-1.9664e+06+2.1707e+06i	-2732.8-15849i	-72680-1.1069e+05i
-0.9155	29623+1.3045e+06i	-4.2486e+05+4.1569e+05i	-6.2682e+05+2.4922e+05i	6.8439e+05-2.4136e+05i
-0.90952	-2.9136e+06+2.682e+05i	-4.128e+05-38093i	-7.3722e+05-18186i	7.4029e+05+20542i
-0.90354	1.133e+06+7.7623e+05i	-1.3507e+05+4399.6i	-3551.1+52521i	-8908.5-72609i
-0.89755	-5.045e+06+3.7405e+06i	-1.2739e+05-99441i	11909+44681i	-245.75-25436i
-0.89157	-9.2337e+05+1.0779e+06i	-1.1614e+05-1.7865e+05i	-1.9933e+05+88770i	1.6993e+05-77812i
-0.88559	-2.7311e+06+5.2166e+05i	-88457-2.9229e+05i	763.99+1.1242e+05i	-7553.8-1.0036e+05i
-0.8796	-8.512e+05+2.0301e+05i	-1.1309e+05-2.3965e+05i	-9686.9+92245i	1010.1-76687i
-0.87362	-2.7405e+06-1.9117e+06i	-1.2717e+05-4.1453e+05i	23846+1.1705e+05i	-33505-80263i
-0.86763	2.4546e+05+1.1285e+06i	-4.6948e+05-9.2713e+05i	-28578+60757i	18259-38520i
-0.86165	-4.6935e+05+2.3164e+05i	2.7328e+05-3.8725e+05i	-23269+46825i	2389.6-39468i
-0.85567	-1.1404e+06-5.5479e+05i	-2.2349e+05-68202i	-6836.8+81426i	6614.2-74616i
-0.84968	-7.391e+06-6.0163e+06i	2.1904e+05-6.3485e+05i	-7810.4+33569i	24394-25147i
-0.8437	1.7047e+06+3.1355e+06i	-1.5821e+06+3.7728e+05i	-22944+69820i	-6322.9-84588i
-0.83772	-4.2829e+06-5.819e+05i	-2.2993e+05-3.2004e+05i	13845+65680i	-3933.8-22545i
-0.83173	4.6116e+05+2.7804e+06i	-1.5289e+05-5.9513e+05i	18.643-68739i	-13015+1.0136e+05i
-0.82575	9.0139e+05+1.5801e+06i	-1.0081e+06-9.0081e+05i	-24148+2.342e+05i	1188.8-2.4392e+05i
-0.81977	-91685+1.7328e+06i	-5.9842e+05-1.2374e+05i	-12239+1.2991e+05i	3849.1-1.5444e+05i
-0.81378	78478+1.233e+06i	-2.4217e+05-1.1012e+06i	-14244+1.0094e+05i	-2728.5-1.148e+05i
-0.8078	3.1133e+05+1.1275e+06i	-9.7541e+05-2.7393e+06i	-10060+62210i	-30605-86613i
-0.80181	-9.2214e+05+1.3603e+06i	8.7631e+05+30233i	-29516+1.6521e+05i	-11014-1.2999e+05i
-0.79583	2.4953e+05+1.0781e+06i	1.3152e+06-2.4592e+06i	-30201+1.202e+05i	-96804-63531i
-0.78985	2.3007e+05+9.7462e+05i	-2.5427e+06+5.3448e+06i	-30121+92556i	2.8468e+05-1.5768e+05i
-0.78386	2.0521e+05+9.019e+05i	-9.0181e+05+1.1521e+06i	-16379+1.2337e+05i	83370-1.3053e+05i
-0.77788	1.6466e+05+8.3181e+05i	-6.1605e+05+5.9892e+05i	-18863+1.1142e+05i	59112-1.116e+05i
-0.7719	1.8311e+05+7.7168e+05i	-8.7324e+05+50796i	-24666+1.3589e+05i	59040-1.296e+05i
-0.76591	1.9007e+05+6.8892e+05i	-4.9108e+06-2.6633e+06i	-42353+1.6244e+05i	1.6062e+05-79869i
-0.75993	-1.9221e+05+8.2921e+05i	1.1053e+06+8.36e+05i	-24972+39469i	23444-40993i
-0.75394	86017+6.9223e+05i	5.528e+05+2.7971e+05i	-17157+82489i	15723-78142i
-0.74796	46945+5.213e+05i	7.0895e+05+15248i	-19505+90481i	11453-82383i
-0.74198	1.552e+05+7.1238e+05i	-2.166e+06+1.5985e+06i	-21049+92443i	1.1131e+05-89817i
-0.73599	1.3378e+05+6.0444e+05i	-1.8027e+05+2.5453e+05i	-21603+92034i	39917-80199i
-0.73001	-23234+5.4034e+05i	-49994+46282i	-21864+96501i	36260-80035i
-0.72403	1.1524e+05+7.048e+05i	-59975-2.39e+05i	-18214+85779i	25168-54325i
-0.71804	1.0587e+05+5.9027e+05i	1.1729e+05+61204i	-55320+1.3235e+05i	71201-1.2633e+05i
-0.71206	66872+5.9923e+05i	1.0443e+05-1.5707e+05i	-42901+89822i	56906-76363i
-0.70608	78210+5.3579e+05i	48941-3.8907e+05i	-41767+93421i	49285-72185i
-0.70009	-5278.8+4.9721e+05i	1.7672e+05-7.5635e+05i	-54337+1.6137e+05i	58135-1.1773e+05i
-0.69411	84252+4.9625e+05i	-1.1383e+05+3.4789e+05i	-56056+1.1759e+05i	58106-1.1565e+05i
-0.68812	82336+4.6326e+05i	1.7605e+05-2.595e+05i	-1.1116e+05-9969.7i	1.1588e+05+43507i
-0.68214	81044+4.314e+05i	2.2708e+05-5.2224e+05i	-1.4556e+05+3.0079e+05i	1.6339e+05-2.5506e+05i
-0.67616	82221+3.9896e+05i	4.1693e+05-7.5808e+05i	-24030+2.1155e+05i	41958-1.6046e+05i
-0.67017	86132+3.5784e+05i	6.3294e+05-1.164e+06i	-85962+1.7604e+05i	1.223e+05-91432i
-0.66419	94951+2.9188e+05i	1.2627e+06-2.0894e+06i	-1.257e+05+81409i	2.0802e+05+1.0303e+05i
-0.65821	-85084+8287.6i	-1.4161e+06-2.5057e+06i	-5.4382e+05-1.8684e+05i	4.1881e+05+2.1135e+05i
-0.65222	-8.494e+05+8.7275e+05i	-2.0567e+06+6.3383e+06i	31998+5.7475e+05i	-4.1103e+05-6.4097e+05i
-0.64624	-65744+6.6626e+05i	-87633+1.3398e+06i	97025+6.7608e+05i	-1.8775e+05-8.3028e+05i
-0.64025	-12030+4.8457e+05i	-3.5918e+06+3.3074e+06i	39008+8.0742e+05i	91597-1.0022e+06i
-0.63427	1952.6+4.2086e+05i	-9.2976e+05+1.0723e+06i	54658+1.2313e+06i	-93524-1.34e+06i
-0.62829	17248+3.8705e+05i	-7.0357e+05+6.6101e+05i	1.2567e+06+3.1458e+06i	-1.4396e+06-3.2937e+06i
-0.6223	19094+3.2595e+05i	-1.0207e+06+5.6947e+05i	3.9789e+06-3.0589e+06i	-4.0098e+06+2.8886e+06i
-0.61632	14540+3.0069e+05i	-3.9061e+05+3.605e+05i	1.5996e+05-1.3142e+06i	-57795+1.3008e+06i
-0.61034	18170+2.5946e+05i	-3.4264e+05+2.2083e+05i	73690-6.6886e+05i	-22695+6.5527e+05i
-0.60435	-3390.7+2.0087e+05i	-3.3173e+05+71729i	52954-4.5377e+05i	-16928+4.3748e+05i
-0.59837	-1175.3+2.8163e+05i	-7.3015e+05-2.3751e+05i	16119-3.432e+05i	7275.9+3.2977e+05i
-0.59239	27000+1.042e+05i	-9.8683e+05+8.1828e+05i	31432-2.7748e+05i	-17127+2.7885e+05i
-0.5864	2153.5+4.0977e+05i	-4.2689e+05+1.5793e+05i	22705-2.4126e+05i	-6133.4+2.303e+05i
-0.58042	32282+2.4342e+05i	-3.7908e+05+12306i	21151-2.106e+05i	-6978.8+2.0106e+05i
-0.57443	-1.9422e+05+3.2999e+05i	-3.6932e+05-93627i	17842-1.9992e+05i	-2901.2+1.8832e+05i
-0.56845	-34574+1.9266e+05i	-3.75e+05-1.9409e+05i	6264.2-2.0012e+05i	4390.3+1.9196e+05i
-0.56247	-24547+1.4831e+05i	-4.0176e+05-2.9141e+05i	-96840-2.7035e+05i	97772+2.7293e+05i
-0.55648	-22302+1.0796e+05i	-4.3972e+05-4.3203e+05i	-21691-4.2529e+05i	20184+4.1237e+05i
-0.5505	-26934+64022i	-4.7188e+05-5.8727e+05i	34397+2.2315e+05i	-6986.2-2.3238e+05i
-0.54452	-19525+27669i	-5.9258e+05-7.8327e+05i	-69108-31443i	79579+42432i
-0.53853	-22710-20762i	-7.8414e+05-1.1524e+06i	71958-16882i	-52378+2650.4i
-0.53255	-22469-75754i	-1.264e+06-1.8614e+06i	-1.0606e+05+67403i	1.2517e+05-80824i
-0.52656	-30934-1.2825e+05i	-4.3105e+06-5.7418e+06i	9133.1-21715i	27310+1625.7i
-0.52058	-35806-2.0271e+05i	-5.24e+06-4.8786e+06i	35820-58860i	5202.4+40615i
-0.5146	-32770-2.9454e+05i	3.0532e+06+2.268e+06i	-69427+97308i	71464-78066i
-0.50861	-27325-4.1079e+05i	2.16e+06-2.0267e+05i	-13496+11023i	13466+2639i
-0.50263	18563-5.7637e+05i	-1.5218e+06+4.0549e+06i	-7541.6-2017.8i	21482-23093i
-0.49665	-1.6519e+06-2.6622e+05i	5584+1.3094e+06i	-4731-8652.5i	14477+3143.1i
-0.49066	-1.6467e+06-1.3678e+06i	3.7605e+05+4.7396e+05i	-8264.6-14623i	14282+18250i
-0.48468	40725-9.1403e+05i	58563+1.0986e+06i	-11348-24833i	17078+2705.1i
-0.4787	-49371-1.4525e+06i	2.3625e+05+4.7884e+05i	-21405-48427i	26008+36564i
-0.47271	-1.2248e+05-2.2915e+06i	2.6641e+05+2.2687e+05i	-83128-2.0196e+05i	78901+1.787e+05i
-0.46673	-2.3879e+05-4.1871e+06i	3.2795e+05+64069i	49229+1.4326e+05i	-34047-1.3499e+05i
-0.46074	-9.484e+05-1.378e+07i	3.5842e+05-1.2673e+05i	12231+64865i	-4604.7-65806i
-0.45476	-6.2256e+06+1.3492e+07i	4.0447e+05-3.288e+05i	2142.8+72797i	7457.4-56771i
-0.44878	4.8897e+05+5.3305e+06i	4.677e+05-5.6965e+05i	-18762+94521i	31031-83113i
-0.44279	2.5226e+05+3.3637e+06i	5.8059e+05-8.8529e+05i	88034-1.088e+05i	-70930+1.093e+05i
-0.43681	1.6453e+05+2.5308e+06i	7.27e+05-1.3485e+06i	29930-8486.4i	-13209+18347i
-0.43083	1.3099e+05+2.0642e+06i	1.002e+06-2.1348e+06i	21263+4071i	-1208.9+12663i
-0.42484	1.0492e+05+1.7693e+06i	1.6251e+06-3.8528e+06i	17711+8815.9i	10706+22390i
-0.41886	90086+1.5636e+06i	4.2894e+06-1.0932e+07i	52610+11732i	8436.4+2.0453e+05i
-0.41287	76068+1.4125e+06i	-6.9528e+06+1.8962e+07i	12674+12996i	-1.0299e+05-1.6627e+05i
-0.40689	69588+1.2954e+06i	-2.0853e+06+5.3813e+06i	11956+14389i	-31941-61489i
-0.40091	61478+1.204e+06i	-1.0458e+06+3.6472e+06i	11415+15659i	-22368-45069i
-0.39492	56291+1.1282e+06i	-7.6412e+05+2.6566e+06i	13271+18366i	-17286-43300i
-0.38894	51650+1.0654e+06i	-5.9889e+05+2.1439e+06i	8918.2+16730i	-13548-33912i
-0.38296	47622+1.0133e+06i	-5.2086e+05+1.8309e+06i	8899.6+17944i	-11322-34006i
-0.37697	44104+9.6779e+05i	-4.2465e+05+1.5975e+06i	8657.2+18975i	-10197-32820i
-0.37099	40951+9.2843e+05i	-3.6918e+05+1.4314e+06i	9188.9+20432i	-9984.5-33303i
-0.365	38380+8.9401e+05i	-3.272e+05+1.3039e+06i	7653.8+20747i	-7748.4-32406i
-0.35902	35976+8.6352e+05i	-2.9431e+05+1.2021e+06i	7363.9+21910i	-6955.2-33006i
-0.35304	33863+8.3631e+05i	-2.6691e+05+1.119e+06i	6496.6+23359i	-5397.4-33553i
-0.34705	31199+8.1265e+05i	-2.4729e+05+1.0436e+06i	18169+19049i	-20587-34746i
-0.34107	29898+7.901e+05i	-2.2474e+05+9.8746e+05i	9600.2+24620i	-8698.8-36111i
-0.33509	28203+7.7005e+05i	-2.31e+05+9.4586e+05i	10113+26921i	-7188.7-36600i
-0.3291	25580+7.5146e+05i	-1.9228e+05+8.8501e+05i	21088+37500i	-13828-56954i
-0.32312	25939+7.3528e+05i	-1.8596e+05+8.5435e+05i	3348.2+24091i	-4122.5-31219i
-0.31714	24411+7.1984e+05i	-1.6826e+05+8.1036e+05i	6094.1+27676i	-6236.2-38011i
-0.31115	22530+7.0559e+05i	-1.9364e+05+8.184e+05i	13700+33737i	186.4-48533i
-0.30517	22226+6.9248e+05i	-1.6777e+05+7.716e+05i	4215.6+30051i	-2874.4-34024i
-0.29918	21058+6.8021e+05i	-1.5757e+05+7.3794e+05i	5678.1+33152i	-3367.1-39159i
-0.2932	19882+6.6892e+05i	-1.6194e+05+6.8943e+05i	7761.5+35428i	-6256.3-41965i
-0.28722	17523+6.5761e+05i	-1.2549e+05+7.0936e+05i	21272+51137i	-16221-66668i
-0.28123	18849+6.4886e+05i	-1.3108e+05+6.8589e+05i	813.64+30929i	-1809.6-36856i
-0.27525	17785+6.3934e+05i	-1.2504e+05+6.6131e+05i	2457.2+37244i	-2430.6-43339i
-0.26927	16912+6.3058e+05i	-1.1909e+05+6.5582e+05i	3320.8+41077i	-891.49-48304i
-0.26328	16113+6.2238e+05i	-1.1436e+05+6.3466e+05i	3820.5+44954i	-1866.7-52521i
-0.2573	15362+6.1466e+05i	-1.0991e+05+6.1821e+05i	4210+49343i	-2053.9-57578i
-0.25131	14645+6.0741e+05i	-1.053e+05+6.0416e+05i	4611.3+54600i	-2471.6-63185i
-0.24533	13950+6.0058e+05i	-1.0351e+05+5.8853e+05i	5096.6+61151i	-2330.6-70396i
-0.23935	13268+5.9414e+05i	-95446+5.7893e+05i	5758.8+69658i	-3487.9-80125i
-0.23336	12588+5.881e+05i	-91555+5.6677e+05i	6762.3+81279i	-3980-93362i
-0.22738	11889+5.8243e+05i	-87598+5.5446e+05i	8472.9+98317i	-5291.1-1.1256e+05i
-0.2214	11047+5.7712e+05i	-83358+5.4133e+05i	13454+1.2795e+05i	-9666.8-1.4646e+05i
-0.21541	10386+5.7238e+05i	-78110+5.2809e+05i	11935+1.7486e+05i	-6173.7-1.9867e+05i
-0.20943	8776.9+5.6972e+05i	-81336+5.0723e+05i	97436+2.5212e+05i	-1.0135e+05-2.8998e+05i
-0.20345	6847.8+5.7413e+05i	-94875+4.1212e+05i	5.117e+05+9.5912e+05i	-5.4511e+05-1.103e+06i
-0.19746	35139+5.5165e+05i	-1.9926e+05+5.782e+05i	1.0334e+06-8.2737e+05i	-1.1781e+06+9.0654e+05i
-0.19148	16309+5.4691e+05i	-91832+5.4637e+05i	1.2429e+05-3.1942e+05i	-1.4464e+05+3.5771e+05i
-0.18549	11287+5.4571e+05i	-75266+5.2475e+05i	16148-1.5894e+05i	-21826+1.7838e+05i
-0.17951	10252+5.4265e+05i	-70187+5.1343e+05i	7908.8-1.0779e+05i	-11292+1.2098e+05i
-0.17353	9545.8+5.3938e+05i	-66360+5.0483e+05i	4871.1-81037i	-7164.4+90914i
-0.16754	8975.2+5.3615e+05i	-63052+4.9758e+05i	3438-64410i	-5100.7+72233i
-0.16156	8482.5+5.3302e+05i	-60029+4.9116e+05i	2649.5-53041i	-3903.9+59467i
-0.15558	8031.8+5.3002e+05i	-57192+4.8536e+05i	2166.7-44772i	-3137.9+50190i
-0.14959	7617.8+5.2715e+05i	-54484+4.8004e+05i	1844.6-38491i	-2609.6+43151i
-0.14361	7218.7+5.2441e+05i	-51875+4.7513e+05i	1619.1-33559i	-2228.8+37632i
-0.13762	6855.3+5.2182e+05i	-49346+4.7058e+05i	1444.1-29597i	-1934+33203i
-0.13164	6497.2+5.1936e+05i	-46883+4.6634e+05i	1306.7-26341i	-1702.5+29569i
-0.12566	6158.4+5.1703e+05i	-44475+4.6239e+05i	1192.7-23628i	-1513.8+26546i
-0.11967	5829.8+5.1483e+05i	-42128+4.587e+05i	1095.4-21339i	-1356.5+24000i
-0.11369	5513.2+5.1276e+05i	-39803+4.5527e+05i	1010.5-19386i	-1223.1+21830i
-0.10771	5210.1+5.108e+05i	-37528+4.5207e+05i	932.17-17707i	-1106+19967i
-0.10172	4917+5.0899e+05i	-35285+4.4909e+05i	857.86-16253i	-1000.5+18357i
-0.095739	4631.7+5.0728e+05i	-33073+4.4632e+05i	790.81-14983i	-908.44+16953i
-0.089755	4353.4+5.0568e+05i	-30890+4.4376e+05i	725.67-13878i	-823.63+15732i
-0.083772	4083.7+5.0421e+05i	-28728+4.414e+05i	663.14-12906i	-746.22+14660i
-0.077788	3823.8+5.0284e+05i	-26591+4.3922e+05i	602.15-12054i	-674.38+13722i
-0.071804	3576.9+5.0158e+05i	-24469+4.3722e+05i	540.06-11305i	-604.4+12898i
-0.065821	3336+5.0043e+05i	-22370+4.354e+05i	481.48-10648i	-541.39+12176i
-0.059837	3107.1+4.9939e+05i	-20284+4.3376e+05i	421.49-10073i	-480.11+11546i
-0.053853	2894.4+4.9845e+05i	-18212+4.3228e+05i	360.66-9572.2i	-421.13+10996i
-0.04787	2695.5+4.9761e+05i	-16153+4.3097e+05i	299.82-9139.2i	-365.06+10522i
-0.041886	2518.6+4.9687e+05i	-14102+4.2982e+05i	234.51-8767.2i	-307.65+10114i
-0.035902	2376.8+4.9624e+05i	-12063+4.2883e+05i	166.1-8452.8i	-252.36+9770.2i
-0.029918	2284+4.9571e+05i	-10026+4.2799e+05i	90.487-8194.2i	-196.04+9487.4i
-0.023935	2272.7+4.9526e+05i	-7992.8+4.2731e+05i	3.5263-7983.4i	-138.77+9256.5i
-0.017951	2449.9+4.9493e+05i	-5955.6+4.2678e+05i	-112.81-7829.2i	-72.773+9086i
-0.011967	3017.9+4.9471e+05i	-3903.6+4.2641e+05i	-294.06-7717.3i	10.761+8961.4i
-0.0059837	5380.4+4.9455e+05i	-1767.2+4.2619e+05i	-737.03-7655i	159.03+8885.1i
0	0+5.9168e+05i	0+4.3401e+05i	0-13952i	0+12983i
0.0059837	-5380.4+4.9455e+05i	1767.2+4.2619e+05i	737.03-7655i	-159.03+8885.1i
0.011967	-3017.9+4.9471e+05i	3903.6+4.2641e+05i	294.06-7717.3i	-10.761+8961.4i
0.017951	-2449.9+4.9493e+05i	5955.6+4.2678e+05i	112.81-7829.2i	72.773+9086i
0.023935	-2272.7+4.9526e+05i	7992.8+4.2731e+05i	-3.5263-7983.4i	138.77+9256.5i
0.029918	-2284+4.9571e+05i	10026+4.2799e+05i	-90.487-8194.2i	196.04+9487.4i
0.035902	-2376.8+4.9624e+05i	12063+4.2883e+05i	-166.1-8452.8i	252.36+9770.2i
0.041886	-2518.6+4.9687e+05i	14102+4.2982e+05i	-234.51-8767.2i	307.65+10114i
0.04787	-2695.5+4.9761e+05i	16153+4.3097e+05i	-299.82-9139.2i	365.06+10522i
0.053853	-2894.4+4.9845e+05i	18212+4.3228e+05i	-360.66-9572.2i	421.13+10996i
0.059837	-3107.1+4.9939e+05i	20284+4.3376e+05i	-421.49-10073i	480.11+11546i
0.065821	-3336+5.0043e+05i	22370+4.354e+05i	-481.48-10648i	541.39+12176i
0.071804	-3576.9+5.0158e+05i	24469+4.3722e+05i	-540.06-11305i	604.4+12898i
0.077788	-3823.8+5.0284e+05i	26591+4.3922e+05i	-602.15-12054i	674.38+13722i
0.083772	-4083.7+5.0421e+05i	28728+4.414e+05i	-663.14-12906i	746.22+14660i
0.089755	-4353.4+5.0568e+05i	30890+4.4376e+05i	-725.67-13878i	823.63+15732i
0.095739	-4631.7+5.0728e+05i	33073+4.4632e+05i	-790.81-14983i	908.44+16953i
0.10172	-4917+5.0899e+05i	35285+4.4909e+05i	-857.86-16253i	1000.5+18357i
0.10771	-5210.1+5.108e+05i	37528+4.5207e+05i	-932.17-17707i	1106+19967i
0.11369	-5513.2+5.1276e+05i	39803+4.5527e+05i	-1010.5-19386i	1223.1+21830i
0.11967	-5829.8+5.1483e+05i	42128+4.587e+05i	-1095.4-21339i	1356.5+24000i
0.12566	-6158.4+5.1703e+05i	44475+4.6239e+05i	-1192.7-23628i	1513.8+26546i
0.13164	-6497.2+5.1936e+05i	46883+4.6634e+05i	-1306.7-26341i	1702.5+29569i
0.13762	-6855.3+5.2182e+05i	49346+4.7058e+05i	-1444.1-29597i	1934+33203i
0.14361	-7218.7+5.2441e+05i	51875+4.7513e+05i	-1619.1-33559i	2228.8+37632i
0.14959	-7617.8+5.2715e+05i	54484+4.8004e+05i	-1844.6-38491i	2609.6+43151i
0.15558	-8031.8+5.3002e+05i	57192+4.8536e+05i	-2166.7-44772i	3137.9+50190i
0.16156	-8482.5+5.3302e+05i	60029+4.9116e+05i	-2649.5-53041i	3903.9+59467i
0.16754	-8975.2+5.3615e+05i	63052+4.9758e+05i	-3438-64410i	5100.7+72233i
0.17353	-9545.8+5.3938e+05i	66360+5.0483e+05i	-4871.1-81037i	7164.4+90914i
0.17951	-10252+5.4265e+05i	70187+5.1343e+05i	-7908.8-1.0779e+05i	11292+1.2098e+05i
0.18549	-11287+5.4571e+05i	75266+5.2475e+05i	-16148-1.5894e+05i	21826+1.7838e+05i
0.19148	-16309+5.4691e+05i	91832+5.4637e+05i	-1.2429e+05-3.1942e+05i	1.4464e+05+3.5771e+05i
0.19746	-35139+5.5165e+05i	1.9926e+05+5.782e+05i	-1.0334e+06-8.2737e+05i	1.1781e+06+9.0654e+05i
0.20345	-6847.8+5.7413e+05i	94875+4.1212e+05i	-5.117e+05+9.5912e+05i	5.4511e+05-1.103e+06i
0.20943	-8776.9+5.6972e+05i	81336+5.0723e+05i	-97436+2.5212e+05i	1.0135e+05-2.8998e+05i
0.21541	-10386+5.7238e+05i	78110+5.2809e+05i	-11935+1.7486e+05i	6173.7-1.9867e+05i
0.2214	-11047+5.7712e+05i	83358+5.4133e+05i	-13454+1.2795e+05i	9666.8-1.4646e+05i
0.22738	-11889+5.8243e+05i	87598+5.5446e+05i	-8472.9+98317i	5291.1-1.1256e+05i
0.23336	-12588+5.881e+05i	91555+5.6677e+05i	-6762.3+81279i	3980-93362i
0.23935	-13268+5.9414e+05i	95446+5.7893e+05i	-5758.8+69658i	3487.9-80125i
0.24533	-13950+6.0058e+05i	1.0351e+05+5.8853e+05i	-5096.6+61151i	2330.6-70396i
0.25131	-14645+6.0741e+05i	1.053e+05+6.0416e+05i	-4611.3+54600i	2471.6-63185i
0.2573	-15362+6.1466e+05i	1.0991e+05+6.1821e+05i	-4210+49343i	2053.9-57578i
0.26328	-16113+6.2238e+05i	1.1436e+05+6.3466e+05i	-3820.5+44954i	1866.7-52521i
0.26927	-16912+6.3058e+05i	1.1909e+05+6.5582e+05i	-3320.8+41077i	891.49-48304i
0.27525	-17785+6.3934e+05i	1.2504e+05+6.6131e+05i	-2457.2+37244i	2430.6-43339i
0.28123	-18849+6.4886e+05i	1.3108e+05+6.8589e+05i	-813.64+30929i	1809.6-36856i
0.28722	-17523+6.5761e+05i	1.2549e+05+7.0936e+05i	-21272+51137i	16221-66668i
0.2932	-19882+6.6892e+05i	1.6194e+05+6.8943e+05i	-7761.5+35428i	6256.3-41965i
0.29918	-21058+6.8021e+05i	1.5757e+05+7.3794e+05i	-5678.1+33152i	3367.1-39159i
0.30517	-22226+6.9248e+05i	1.6777e+05+7.716e+05i	-4215.6+30051i	2874.4-34024i
0.31115	-22530+7.0559e+05i	1.9364e+05+8.184e+05i	-13700+33737i	-186.4-48533i
0.31714	-24411+7.1984e+05i	1.6826e+05+8.1036e+05i	-6094.1+27676i	6236.2-38011i
0.32312	-25939+7.3528e+05i	1.8596e+05+8.5435e+05i	-3348.2+24091i	4122.5-31219i
0.3291	-25580+7.5146e+05i	1.9228e+05+8.8501e+05i	-21088+37500i	13828-56954i
0.33509	-28203+7.7005e+05i	2.31e+05+9.4586e+05i	-10113+26921i	7188.7-36600i
0.34107	-29898+7.901e+05i	2.2474e+05+9.8746e+05i	-9600.2+24620i	8698.8-36111i
0.34705	-31199+8.1265e+05i	2.4729e+05+1.0436e+06i	-18169+19049i	20587-34746i
0.35304	-33863+8.3631e+05i	2.6691e+05+1.119e+06i	-6496.6+23359i	5397.4-33553i
0.35902	-35976+8.6352e+05i	2.9431e+05+1.2021e+06i	-7363.9+21910i	6955.2-33006i
0.365	-38380+8.9401e+05i	3.272e+05+1.3039e+06i	-7653.8+20747i	7748.4-32406i
0.37099	-40951+9.2843e+05i	3.6918e+05+1.4314e+06i	-9188.9+20432i	9984.5-33303i
0.37697	-44104+9.6779e+05i	4.2465e+05+1.5975e+06i	-8657.2+18975i	10197-32820i
0.38296	-47622+1.0133e+06i	5.2086e+05+1.8309e+06i	-8899.6+17944i	11322-34006i
0.38894	-51650+1.0654e+06i	5.9889e+05+2.1439e+06i	-8918.2+16730i	13548-33912i
0.39492	-56291+1.1282e+06i	7.6412e+05+2.6566e+06i	-13271+18366i	17286-43300i
0.40091	-61478+1.204e+06i	1.0458e+06+3.6472e+06i	-11415+15659i	22368-45069i
0.40689	-69588+1.2954e+06i	2.0853e+06+5.3813e+06i	-11956+14389i	31941-61489i
0.41287	-76068+1.4125e+06i	6.9528e+06+1.8962e+07i	-12674+12996i	1.0299e+05-1.6627e+05i
0.41886	-90086+1.5636e+06i	-4.2894e+06-1.0932e+07i	-52610+11732i	-8436.4+2.0453e+05i
0.42484	-1.0492e+05+1.7693e+06i	-1.6251e+06-3.8528e+06i	-17711+8815.9i	-10706+22390i
0.43083	-1.3099e+05+2.0642e+06i	-1.002e+06-2.1348e+06i	-21263+4071i	1208.9+12663i
0.43681	-1.6453e+05+2.5308e+06i	-7.27e+05-1.3485e+06i	-29930-8486.4i	13209+18347i
0.44279	-2.5226e+05+3.3637e+06i	-5.8059e+05-8.8529e+05i	-88034-1.088e+05i	70930+1.093e+05i
0.44878	-4.8897e+05+5.3305e+06i	-4.677e+05-5.6965e+05i	18762+94521i	-31031-83113i
0.45476	6.2256e+06+1.3492e+07i	-4.0447e+05-3.288e+05i	-2142.8+72797i	-7457.4-56771i
0.46074	9.484e+05-1.378e+07i	-3.5842e+05-1.2673e+05i	-12231+64865i	4604.7-65806i
0.46673	2.3879e+05-4.1871e+06i	-3.2795e+05+64069i	-49229+1.4326e+05i	34047-1.3499e+05i
0.47271	1.2248e+05-2.2915e+06i	-2.6641e+05+2.2687e+05i	83128-2.0196e+05i	-78901+1.787e+05i
0.4787	49371-1.4525e+06i	-2.3625e+05+4.7884e+05i	21405-48427i	-26008+36564i
0.48468	-40725-9.1403e+05i	-58563+1.0986e+06i	11348-24833i	-17078+2705.1i
0.49066	1.6467e+06-1.3678e+06i	-3.7605e+05+4.7396e+05i	8264.6-14623i	-14282+18250i
0.49665	1.6519e+06-2.6622e+05i	-5584+1.3094e+06i	4731-8652.5i	-14477+3143.1i
0.50263	-18563-5.7637e+05i	1.5218e+06+4.0549e+06i	7541.6-2017.8i	-21482-23093i
0.50861	27325-4.1079e+05i	-2.16e+06-2.0267e+05i	13496+11023i	-13466+2639i
0.5146	32770-2.9454e+05i	-3.0532e+06+2.268e+06i	69427+97308i	-71464-78066i
0.52058	35806-2.0271e+05i	5.24e+06-4.8786e+06i	-35820-58860i	-5202.4+40615i
0.52656	30934-1.2825e+05i	4.3105e+06-5.7418e+06i	-9133.1-21715i	-27310+1625.7i
0.53255	22469-75754i	1.264e+06-1.8614e+06i	1.0606e+05+67403i	-1.2517e+05-80824i
0.53853	22710-20762i	7.8414e+05-1.1524e+06i	-71958-16882i	52378+2650.4i
0.54452	19525+27669i	5.9258e+05-7.8327e+05i	69108-31443i	-79579+42432i
0.5505	26934+64022i	4.7188e+05-5.8727e+05i	-34397+2.2315e+05i	6986.2-2.3238e+05i
0.55648	22302+1.0796e+05i	4.3972e+05-4.3203e+05i	21691-4.2529e+05i	-20184+4.1237e+05i
0.56247	24547+1.4831e+05i	4.0176e+05-2.9141e+05i	96840-2.7035e+05i	-97772+2.7293e+05i
0.56845	34574+1.9266e+05i	3.75e+05-1.9409e+05i	-6264.2-2.0012e+05i	-4390.3+1.9196e+05i
0.57443	1.9422e+05+3.2999e+05i	3.6932e+05-93627i	-17842-1.9992e+05i	2901.2+1.8832e+05i
0.58042	-32282+2.4342e+05i	3.7908e+05+12306i	-21151-2.106e+05i	6978.8+2.0106e+05i
0.5864	-2153.5+4.0977e+05i	4.2689e+05+1.5793e+05i	-22705-2.4126e+05i	6133.4+2.303e+05i
0.59239	-27000+1.042e+05i	9.8683e+05+8.1828e+05i	-31432-2.7748e+05i	17127+2.7885e+05i
0.59837	1175.3+2.8163e+05i	7.3015e+05-2.3751e+05i	-16119-3.432e+05i	-7275.9+3.2977e+05i
0.60435	3390.7+2.0087e+05i	3.3173e+05+71729i	-52954-4.5377e+05i	16928+4.3748e+05i
0.61034	-18170+2.5946e+05i	3.4264e+05+2.2083e+05i	-73690-6.6886e+05i	22695+6.5527e+05i
0.61632	-14540+3.0069e+05i	3.9061e+05+3.605e+05i	-1.5996e+05-1.3142e+06i	57795+1.3008e+06i
0.6223	-19094+3.2595e+05i	1.0207e+06+5.6947e+05i	-3.9789e+06-3.0589e+06i	4.0098e+06+2.8886e+06i
0.62829	-17248+3.8705e+05i	7.0357e+05+6.6101e+05i	-1.2567e+06+3.1458e+06i	1.4396e+06-3.2937e+06i
0.63427	-1952.6+4.2086e+05i	9.2976e+05+1.0723e+06i	-54658+1.2313e+06i	93524-1.34e+06i
0.64025	12030+4.8457e+05i	3.5918e+06+3.3074e+06i	-39008+8.0742e+05i	-91597-1.0022e+06i
0.64624	65744+6.6626e+05i	87633+1.3398e+06i	-97025+6.7608e+05i	1.8775e+05-8.3028e+05i
0.65222	8.494e+05+8.7275e+05i	2.0567e+06+6.3383e+06i	-31998+5.7475e+05i	4.1103e+05-6.4097e+05i
0.65821	85084+8287.6i	1.4161e+06-2.5057e+06i	5.4382e+05-1.8684e+05i	-4.1881e+05+2.1135e+05i
0.66419	-94951+2.9188e+05i	-1.2627e+06-2.0894e+06i	1.257e+05+81409i	-2.0802e+05+1.0303e+05i
0.67017	-86132+3.5784e+05i	-6.3294e+05-1.164e+06i	85962+1.7604e+05i	-1.223e+05-91432i
0.67616	-82221+3.9896e+05i	-4.1693e+05-7.5808e+05i	24030+2.1155e+05i	-41958-1.6046e+05i
0.68214	-81044+4.314e+05i	-2.2708e+05-5.2224e+05i	1.4556e+05+3.0079e+05i	-1.6339e+05-2.5506e+05i
0.68812	-82336+4.6326e+05i	-1.7605e+05-2.595e+05i	1.1116e+05-9969.7i	-1.1588e+05+43507i
0.69411	-84252+4.9625e+05i	1.1383e+05+3.4789e+05i	56056+1.1759e+05i	-58106-1.1565e+05i
0.70009	5278.8+4.9721e+05i	-1.7672e+05-7.5635e+05i	54337+1.6137e+05i	-58135-1.1773e+05i
0.70608	-78210+5.3579e+05i	-48941-3.8907e+05i	41767+93421i	-49285-72185i
0.71206	-66872+5.9923e+05i	-1.0443e+05-1.5707e+05i	42901+89822i	-56906-76363i
0.71804	-1.0587e+05+5.9027e+05i	-1.1729e+05+61204i	55320+1.3235e+05i	-71201-1.2633e+05i
0.72403	-1.1524e+05+7.048e+05i	59975-2.39e+05i	18214+85779i	-25168-54325i
0.73001	23234+5.4034e+05i	49994+46282i	21864+96501i	-36260-80035i
0.73599	-1.3378e+05+6.0444e+05i	1.8027e+05+2.5453e+05i	21603+92034i	-39917-80199i
0.74198	-1.552e+05+7.1238e+05i	2.166e+06+1.5985e+06i	21049+92443i	-1.1131e+05-89817i
0.74796	-46945+5.213e+05i	-7.0895e+05+15248i	19505+90481i	-11453-82383i
0.75394	-86017+6.9223e+05i	-5.528e+05+2.7971e+05i	17157+82489i	-15723-78142i
0.75993	1.9221e+05+8.2921e+05i	-1.1053e+06+8.36e+05i	24972+39469i	-23444-40993i
0.76591	-1.9007e+05+6.8892e+05i	4.9108e+06-2.6633e+06i	42353+1.6244e+05i	-1.6062e+05-79869i
0.7719	-1.8311e+05+7.7168e+05i	8.7324e+05+50796i	24666+1.3589e+05i	-59040-1.296e+05i
0.77788	-1.6466e+05+8.3181e+05i	6.1605e+05+5.9892e+05i	18863+1.1142e+05i	-59112-1.116e+05i
0.78386	-2.0521e+05+9.019e+05i	9.0181e+05+1.1521e+06i	16379+1.2337e+05i	-83370-1.3053e+05i
0.78985	-2.3007e+05+9.7462e+05i	2.5427e+06+5.3448e+06i	30121+92556i	-2.8468e+05-1.5768e+05i
0.79583	-2.4953e+05+1.0781e+06i	-1.3152e+06-2.4592e+06i	30201+1.202e+05i	96804-63531i
0.80181	9.2214e+05+1.3603e+06i	-8.7631e+05+30233i	29516+1.6521e+05i	11014-1.2999e+05i
0.8078	-3.1133e+05+1.1275e+06i	9.7541e+05-2.7393e+06i	10060+62210i	30605-86613i
0.81378	-78478+1.233e+06i	2.4217e+05-1.1012e+06i	14244+1.0094e+05i	2728.5-1.148e+05i
0.81977	91685+1.7328e+06i	5.9842e+05-1.2374e+05i	12239+1.2991e+05i	-3849.1-1.5444e+05i
0.82575	-9.0139e+05+1.5801e+06i	1.0081e+06-9.0081e+05i	24148+2.342e+05i	-1188.8-2.4392e+05i
0.83173	-4.6116e+05+2.7804e+06i	1.5289e+05-5.9513e+05i	-18.643-68739i	13015+1.0136e+05i
0.83772	4.2829e+06-5.819e+05i	2.2993e+05-3.2004e+05i	-13845+65680i	3933.8-22545i
0.8437	-1.7047e+06+3.1355e+06i	1.5821e+06+3.7728e+05i	22944+69820i	6322.9-84588i
0.84968	7.391e+06-6.0163e+06i	-2.1904e+05-6.3485e+05i	7810.4+33569i	-24394-25147i
0.85567	1.1404e+06-5.5479e+05i	2.2349e+05-68202i	6836.8+81426i	-6614.2-74616i
0.86165	4.6935e+05+2.3164e+05i	-2.7328e+05-3.8725e+05i	23269+46825i	-2389.6-39468i
0.86763	-2.4546e+05+1.1285e+06i	4.6948e+05-9.2713e+05i	28578+60757i	-18259-38520i
0.87362	2.7405e+06-1.9117e+06i	1.2717e+05-4.1453e+05i	-23846+1.1705e+05i	33505-80263i
0.8796	8.512e+05+2.0301e+05i	1.1309e+05-2.3965e+05i	9686.9+92245i	-1010.1-76687i
0.88559	2.7311e+06+5.2166e+05i	88457-2.9229e+05i	-763.99+1.1242e+05i	7553.8-1.0036e+05i
0.89157	9.2337e+05+1.0779e+06i	1.1614e+05-1.7865e+05i	1.9933e+05+88770i	-1.6993e+05-77812i
0.89755	5.045e+06+3.7405e+06i	1.2739e+05-99441i	-11909+44681i	245.75-25436i
0.90354	-1.133e+06+7.7623e+05i	1.3507e+05+4399.6i	3551.1+52521i	8908.5-72609i
0.90952	2.9136e+06+2.682e+05i	4.128e+05-38093i	7.3722e+05-18186i	-7.4029e+05+20542i
0.9155	-29623+1.3045e+06i	4.2486e+05+4.1569e+05i	6.2682e+05+2.4922e+05i	-6.8439e+05-2.4136e+05i
0.92149	-2.0655e+05+2.1034e+06i	1.9664e+06+2.1707e+06i	2732.8-15849i	72680-1.1069e+05i
0.92747	-3.5133e+05+3.6167e+06i	-7.3249e+05-9.6111e+05i	-49194+1.3722e+05i	81264-95615i
0.93346	-9.5464e+05+9.8712e+06i	-4.0963e+05-2.6337e+05i	44239+5019.3i	805.56-30480i
0.93944	2.1138e+06-1.0812e+07i	2.2755e+05-7.1656e+05i	-78743+1.0752e+05i	-12588-50588i
0.94542	6.7338e+05-2.7751e+06i	77510-1.228e+05i	942.92+1.0104e+05i	-8055.6-41791i
0.95141	-2.2718e+05-3.338e+05i	-17449-2.2843e+05i	10213+72851i	-15947-48904i
0.95739	2.4959e+06-3.6013e+06i	-79229-1.5911e+05i	-29347+69990i	-856.75-62815i
0.96337	1.0988e+06-1.6444e+06i	2.2789e+05+17793i	58712+99249i	-69380-74689i
0.96936	6.2132e+05-9.1413e+05i	1.8306e+05-29940i	11677+80123i	-31017-66092i
0.97534	5.6368e+05-5.4209e+05i	2.3016e+05+94272i	1.3701e+05+1.6946e+05i	-1.6922e+05-1.6625e+05i
0.98132	2.2345e+05-5.2852e+05i	-3.8775e+05+9.0395e+05i	-57122+19034i	43911-9336.9i
0.98731	1.069e+05-65041i	1.3423e+06-1.5117e+06i	-2.7226e+05-40100i	2.2512e+05-42479i
0.99329	5.8837e+05-9.4929e+05i	4.0207e+05-1.0545e+06i	-36632+1.446e+05i	31533-72875i
0.99928	4.0107e+05-2.9403e+05i	2.8198e+05-5.0239e+05i	10626+92768i	-16436-73572i
1.0053	3.6752e+05+10107i	8.433e+05+33716i	-1.2246e+05+44340i	1.2183e+05-54401i
1.0112	5.8005e+05-3.0136e+05i	-19596-3.9615e+05i	-56493+87846i	60646-59970i
1.0172	1.043e+05+1.8968e+05i	75630-3.3806e+05i	-3119.4+1.1826e+05i	-7574.7-1.0038e+05i
1.0232	2.2696e+06-8.5785e+05i	2.5954e+05-1.6586e+05i	2434.5+1.4025e+05i	-17776-1.2509e+05i
1.0292	2.0502e+06+1.1703e+06i	37686-2.3776e+05i	-9938.2+1.5895e+05i	-3771.7-1.4625e+05i
1.0352	-52498-4.5881e+05i	45733-1.7224e+05i	27456+34303i	-25233-18501i
1.0412	2.3457e+05-1.6693e+05i	37551-83565i	22115+78806i	-22187-65792i
1.0471	2.8999e+05-4252.5i	96937-2.4934e+05i	-5016.2+75335i	-408.66-63508i
1.0531	5.7204e+05+3.8717e+05i	84173-1.4206e+05i	5665.5+1.0795e+05i	-12153-96452i
1.0591	1.7873e+05+95373i	96687-88585i	42021+99864i	-42267-92330i
1.0651	2.7393e+05+2.9108e+05i	1.3129e+05-18522i	1.7093e+05+93097i	-1.6006e+05-80912i
1.0711	3.2496e+05+4.674e+05i	4.6481e+05+1.1596e+05i	56824+1.6333e+05i	-72584-1.4324e+05i
1.0771	7.0029e+05+9.9119e+05i	-18086-67059i	-3.1771e+05+3.7045e+05i	2.988e+05-3.7052e+05i
1.083	7.1714e+05+2.1319e+06i	14161-392.84i	1.4475e+05+3.9562e+05i	-1.5129e+05-3.9085e+05i
1.089	7.9158e+05+5.0536e+05i	17501+67317i	-35045+76887i	31970-50190i
1.095	1.5528e+05-6.869e+05i	-54711+2.1641e+05i	-8090.2+1.8967e+05i	3452.3-1.7492e+05i
1.101	-1.4291e+05-4.9325e+05i	3.9795e+05-3.9802e+05i	91263+2.5115e+05i	-1.0218e+05-2.5777e+05i
1.107	-49343-82487i	1.762e+05-34318i	-78095+2.4505e+05i	67464-2.4441e+05i
1.113	-38585-24782i	1.5613e+05+79641i	1.0648e+05-13374i	-1.1506e+05+22781i
1.1189	1.2219e+05+1.4221e+05i	1.9474e+05+2.1069e+05i	84962+2.0448e+05i	-83020-2.0477e+05i
1.1249	4494.5+31070i	5.8114e+05+1.245e+05i	1.7642e+05+7.2615e+05i	-1.6947e+05-7.0957e+05i
1.1309	54041+1.1066e+05i	1.5676e+05+1.3248e+05i	7.113e+05+48496i	-7.2376e+05-56703i
1.1369	53749+3.188e+05i	1.888e+05+3.6111e+05i	27718-1.6885e+05i	-58672+1.6723e+05i
1.1429	68366+6.2815e+05i	3.8261e+05+4.1082e+05i	-1.824e+05-2.0413e+05i	1.6403e+05+2.114e+05i
1.1489	-69150+1.0342e+06i	5.3371e+05+8.9554e+05i	-82015-1.2749e+05i	42356+1.2954e+05i
1.1549	3.4826e+05-4.6117e+05i	4.6261e+05+5.1487e+05i	-1.0996e+05+44064i	59002+20961i
1.1608	1.288e+06-6.3467e+05i	-365.8+2.0748e+05i	1.525e+05-6.2927e+05i	-1.6174e+05+6.3008e+05i
1.1668	3.4968e+05-65321i	2.8746e+05+3.4505e+05i	-2.1885e+05+2.1381e+05i	34280-4.0278e+05i
1.1728	2.4589e+05+2.349e+05i	7.456e+05+6.6136e+05i	6.0311e+05+97982i	-5.4761e+05-1.9698e+05i
1.1788	3.0841e+05+5.1494e+05i	-3.3408e+05-5.3195e+05i	-9.1005e+05+3.9029e+05i	8.5856e+05-3.5258e+05i
1.1848	2.0804e+06+1.5458e+06i	1.3858e+05-23057i	-2.7006e+05-30779i	2.4867e+05+13312i
1.1908	3.0768e+06-2.3896e+05i	1.132e+05+9.7798e+05i	-51035+1.2078e+05i	86543-1.5699e+05i
1.1967	3.9476e+05+4.6936e+05i	45822-1.2126e+06i	-1.1285e+05+1.9899e+05i	80631-96334i
1.2027	1.5289e+05+2.2962e+05i	2.8881e+05+1.0512e+05i	91319+4.263e+05i	-1.592e+05-2.9638e+05i
1.2087	-27077+5.0836e+05i	53376-7.2965e+05i	-4.793e+05-9.4728e+05i	4.3634e+05+9.1602e+05i
1.2147	8.7307e+05+2.6133e+05i	-24288-5.9032e+05i	-35050-2.9881e+05i	57754+2.586e+05i
1.2207	8.589e+05+5.0834e+05i	-13290-3.7163e+05i	80145+4.4542e+05i	-53427-4.2438e+05i
1.2267	7.3329e+05+9.352e+05i	72859-3.119e+05i	5426.6+3.8029e+05i	18823-3.5037e+05i
1.2326	3.6094e+05+1.5882e+06i	-11777-1.6843e+05i	-73948+1.7188e+05i	87873-1.5887e+05i
1.2386	2.0834e+06+1.2891e+06i	5.2382e+05+13113i	-64934+1.6324e+05i	80539-1.6759e+05i
1.2446	-2.4832e+05+1.8535e+06i	55684-4.474e+05i	8481.1+63587i	-76140-99050i
1.2506	4.2177e+06-7.4057e+05i	60772-1.1483e+05i	-95769+1.9278e+05i	19397-1.6212e+05i
1.2566	-3.0498e+05-1.8853e+06i	47102-1.6827e+05i	-8726.4+1.2054e+05i	32702-1.0075e+05i
1.2626	-1.1622e+05-9.2032e+05i	3.448e+05-3.0414e+05i	81849+3.1298e+05i	-58473-2.8354e+05i
1.2685	-29085-5.1924e+05i	38648-1.2461e+05i	-1.142e+05+95342i	1.1006e+05-90897i
1.2745	-15904-2.8896e+05i	10389+89543i	3.3245e+05+1.2104e+05i	-3.1915e+05-97537i
1.2805	79811-706.24i	3.9832e+05-4.0333e+05i	-1.1731e+05+1.9412e+05i	92640-1.9226e+05i
1.2865	1.2288e+05-2.4666e+05i	86814-87230i	93660-26593i	-72534+26319i
1.2925	43850-1.5768e+05i	2.0283e+05-83760i	-60049+2.3428e+05i	57455-2.1939e+05i
1.2985	23269+44741i	1.7808e+05-1.0283e+05i	-69565+2.4978e+05i	59664-2.2396e+05i
1.3044	2.4565e+05-1.0007e+05i	49292-90698i	-1.5284e+05+4.5435e+05i	1.3892e+05-4.4342e+05i
1.3104	1.3085e+06+4.8141e+05i	3.8864e+05+2.122e+05i	-29542-1.9946e+05i	20635+2.0984e+05i
1.3164	-88858+57267i	-23224+1.0655e+05i	-1.0037e+05+89103i	92697-78443i
1.3224	-1.2726e+05+71767i	1.6967e+05-2.3779e+05i	-1.6361e+05+1.8496e+05i	1.7206e+05-1.7299e+05i
1.3284	-1.2725e+05+1.8949e+05i	94509-1.3531e+05i	-4.9301e+05+2.1496e+05i	5.0696e+05-2.167e+05i
1.3344	50172+1.1621e+05i	1.4846e+05-3.3393e+05i	1.4491e+06-4.2369e+05i	-1.3794e+06+4.3156e+05i
1.3403	1.5535e+05+21526i	-16598-50814i	1.3888e+05+70080i	-1.3255e+05-67720i
1.3463	1.7069e+05+1.0287e+05i	3.2276e+05-3.7226e+05i	1.2478e+05+3.0975e+05i	-1.0034e+05-2.809e+05i
1.3523	1.0644e+05+2.5605e+05i	1.5977e+05-1512.3i	-1.5365e+05+7.6119e+05i	1.5053e+05-7.1917e+05i
1.3583	1.3161e+05+4.4761e+05i	1.0397e+05-1.2587e+05i	24075-3.8819e+05i	-39390+3.6611e+05i
1.3643	71656+5.1024e+05i	2.6141e+05+40567i	5.2338e+05-8.0808e+05i	-4.9967e+05+7.7813e+05i
1.3703	1.9653e+05+1.2153e+06i	6.5193e+05+2.8362e+05i	1.6604e+05-2.5905e+05i	-1.5162e+05+2.3782e+05i
1.3762	4.0897e+05-3.4252e+05i	-6672.7-2.7706e+05i	2.2564e+05+8310.8i	-2.1036e+05+25025i
1.3822	1.0825e+06+1.1099e+06i	3.0397e+05-90649i	1.1454e+05-1.2818e+05i	-1.2151e+05+1.4014e+05i
1.3882	3.4436e+05-4.3259e+05i	4.0066e+05+22273i	11505-9429.2i	-21976+2387.7i
1.3942	-1.5149e+05+2.4417e+05i	6.0284e+05+81704i	53190-32223i	-51152+38999i
1.4002	7.0782e+05+3.4556e+05i	25943-1.1022e+05i	29332-77466i	-18110+83260i
1.4062	1.2873e+05-2.6317e+05i	1.9061e+05-1.4697e+05i	-15316-61231i	11244+66249i
1.4122	-65059+1.5468e+05i	233.09+62445i	90229-34611i	-80100+43568i
1.4181	-2.259e+05+2.562e+05i	-51692+4.2036e+05i	4.8734e+05+68696i	-5.0523e+05-52032i
1.4241	1.6946e+06-6.4807e+05i	5.8879e+05-2.3775e+05i	34985+35282i	-21023-45481i
1.4301	1.0432e+05+2.1339e+05i	75411-5.9197e+05i	-83598+56725i	80944-52716i
1.4361	-69088+1.0532e+06i	1.301e+05-1.2561e+05i	40105+1.2579e+05i	-31974-1.2058e+05i
1.4421	9.8953e+05-1.4216e+06i	-15133-2.8022e+05i	1.0098e+05+1.7187e+05i	-1.1071e+05-1.7336e+05i
1.4481	3.287e+05-2.5886e+05i	54025-48065i	3.4643e+05+7.1191e+05i	-3.0953e+05-6.4608e+05i
1.454	2.2033e+05-20249i	1.4602e+05-2.9356e+05i	-1.0948e+05-4.2868e+05i	89857+4.0494e+05i
1.46	4.3182e+05+1.1969e+05i	7.9883e+05-5.3609e+05i	-51167-1.1259e+05i	32033+1.0919e+05i
1.466	2.9595e+05+5.574e+05i	2.7392e+05-2.0608e+05i	80770+41332i	-79817-51812i
1.472	94519-3.5696e+05i	2.2451e+05-1.605e+05i	-1.2158e+05+1.2187e+05i	1.1755e+05-1.2828e+05i
1.478	1.3109e+06-6007.3i	4.5742e+05+91578i	1.7541e+05-2.6185e+05i	-1.5972e+05+2.7299e+05i
1.484	4.6714e+05+79436i	772.5-1.1054e+05i	12959+30584i	-40556-11225i
1.4899	2.3296e+05+5.7158e+05i	-18462+32781i	-56248+2.309e+05i	-11576-2.3117e+05i
1.4959	74897-4.264e+05i	4.6787e+05-3.2305e+05i	1.4567e+05-3.7139e+05i	-1.0451e+05+3.4213e+05i
1.5019	50295-54226i	1.065e+05-80767i	6.6406e+05+1.0039e+05i	-6.169e+05-1.0457e+05i
1.5079	85966+1.0159e+05i	1.3009e+05-88365i	4144.2-2.0626e+05i	15935+1.9759e+05i
1.5139	2.8333e+05+1.3696e+05i	94854+67504i	2.8384e+05-1.6198e+05i	-2.5783e+05+1.8798e+05i
1.5199	67820+1.6587e+05i	38908+84645i	61216-2.7112e+05i	-81718+2.5127e+05i
1.5258	-39925-70693i	2.9404e+05-3.7974e+05i	-7442.5-3.5977e+05i	-3495.1+3.7682e+05i
1.5318	3.7595e+05-1.3051e+05i	85225-83888i	1.64e+05-2.8818e+05i	-1.4695e+05+2.8332e+05i
1.5378	50967+1.0024e+05i	2.1703e+05-2.3853e+05i	14538+1.9589e+05i	-65298-1.9186e+05i
1.5438	49208+1.0069e+05i	1.1137e+05-72976i	-3.273e+05+2.2807e+05i	3.1457e+05-1.9736e+05i
1.5498	54557+1.8631e+05i	72533-44830i	4089.4-85811i	-5809+70512i
1.5558	30894+3.6522e+05i	3.3579e+05+1.5896e+05i	-1.055e+05+50323i	95427-59717i
1.5617	1.3799e+05-72730i	6.2129e+05-2.0495e+05i	2.0596e+05-41055i	-2.0343e+05+93896i
1.5677	83496+1.3425e+05i	41407-10191i	34790-36632i	-49382+41966i
1.5737	59059+2.5395e+05i	-37218+1.594e+05i	-75623+1.0897e+05i	57556-1.05e+05i
1.5797	1.1619e+05+58734i	2.2013e+05-3.1046e+05i	-27946+49820i	25304-45335i
1.5857	1.1976e+05+2.2538e+05i	3.9528e+05-1.7358e+05i	26235+73617i	-30213-62956i
1.5917	-1037.6+3.0939e+05i	77626+32124i	1.5158e+05+3.0132e+05i	-1.5958e+05-2.5544e+05i
1.5976	1.9868e+05-33945i	2.0632e+05+28510i	-1.2906e+05-21099i	1.1962e+05+17600i
1.6036	93805+1.901e+05i	91179-2.9016e+05i	-53558+3755.9i	52082-5474.3i
1.6096	65998+2.6001e+05i	81925-1.2709e+05i	-72516+30208i	62245-27930i
1.6156	1.0356e+05+3.2174e+05i	69200-65983i	-1.3615e+05+57646i	1.2678e+05-57408i
1.6216	79053+4.0988e+05i	53588-48779i	-3.7094e+05+56225i	3.6039e+05-56104i
1.6276	2.9417e+05+7.1798e+05i	4279-21508i	1.0006e+06-5.4234e+05i	-9.4558e+05+4.9896e+05i
1.6335	2.806e+05+8.0541e+05i	8.1161e+05-1.5759e+05i	1.1091e+05-59762i	-1.4043e+05+56373i
1.6395	3.08e+05-4.5088e+05i	1.4497e+05-69319i	1.3963e+05+50101i	-84412+3633.5i
1.6455	39394+20502i	1.9298e+05-57074i	92296+42218i	-97575-50734i
1.6515	20193+1.4353e+05i	1.0117e+05+12348i	2.4475e+05+16750i	-2.3837e+05-14933i
1.6575	21315+1.8775e+05i	1.1544e+05+1.6039e+05i	1.233e+06-40033i	-1.1866e+06+38581i
1.6635	59422+2.3685e+05i	2.561e+05-1.5913e+05i	3.7614e+05+1.7044e+05i	-3.5096e+05-1.7373e+05i
1.6694	30462+2.4808e+05i	32268+10317i	96357-26105i	-70171+60739i
1.6754	82320+2.2319e+05i	2.3189e+05-1.8476e+05i	1.2523e+05-1.2028e+05i	-1.366e+05+1.1788e+05i
1.6814	66339+2.6896e+05i	83173+8842.5i	3.1351e+05+1.2514e+05i	-2.9929e+05-1.0651e+05i
1.6874	1.295e+05+3.7021e+05i	49248+82670i	6.7696e+05-20937i	-6.3649e+05+20648i
1.6934	2.3125e+05+4.6561e+05i	6.2092e+05+31922i	4.0982e+05-98708i	-3.7889e+05+76819i
1.6994	37269+3.919e+05i	1.7564e+05-3.5281e+05i	73791+87466i	-58081-74045i
1.7054	54980+1.8797e+05i	1.1731e+05-70315i	1.3982e+05-1.723e+05i	-1.6208e+05+1.779e+05i
1.7113	1.6624e+05+3.538e+05i	1.5749e+05-1.6233e+05i	-65115+28825i	53512-19136i
1.7173	-12819+2.9104e+05i	2.2086e+05-44858i	1.1602e+06+5.6157e+05i	-1.1202e+06-5.2364e+05i
1.7233	-914.13+3.1347e+05i	2.9318e+05+39042i	-71643-77516i	71022+85659i
1.7293	-36116+3.877e+05i	2.9585e+05-5134i	1.4395e+05-1.4769e+05i	-1.4672e+05+1.2951e+05i
1.7353	61833+3.0652e+05i	2.2443e+05-47741i	1.9095e+05-82423i	-2.0402e+05+88838i
1.7413	35396+2.7045e+05i	2.6675e+05+93281i	4.9194e+05+2.9372e+05i	-4.8339e+05-2.593e+05i
1.7472	55368+3.4805e+05i	67628+165.46i	-97151-42653i	81625+29678i
1.7532	76908+3.5504e+05i	2.0296e+05-1.0383e+05i	-21631-18928i	9172.2+18857i
1.7592	1.0394e+05+4.3859e+05i	83808+8730.5i	1.5794e+05+1.5043e+05i	-1.4747e+05-1.4864e+05i
1.7652	83520+1.6842e+05i	1.2461e+05+1.126e+05i	3.8796e+05+1.503e+05i	-4.1146e+05-47503i
1.7712	66577+3.485e+05i	2.1082e+05-99937i	-1.021e+05-1.1737e+05i	97306+92588i
1.7772	2.743e+05+4.2977e+05i	2.4567e+05-1.9129e+05i	1.9312e+05+19654i	-1.7909e+05-15109i
1.7831	1.386e+05+3.8824e+05i	1.5578e+05+50679i	-76013+20050i	88023-13259i
1.7891	28478+4.857e+05i	83887-1.0566e+05i	1.6035e+05-67958i	-1.6776e+05+68818i
1.7951	54850+2.8071e+05i	2.5927e+05-95094i	-1.472e+05-21300i	1.371e+05+23181i
1.8011	41595+3.7974e+05i	3.0246e+05+55934i	78222-1.4275e+05i	-79617+1.5248e+05i
1.8071	1.0009e+05+2.1756e+05i	1.0052e+05-50407i	37093-1.9338e+05i	-41452+1.8921e+05i
1.8131	1.9732e+05+3.1223e+05i	1.1175e+05-22674i	-33462-93371i	27356+94580i
1.819	52377+3.8901e+05i	1.2842e+05+24367i	-3.2136e+05-2.9765e+05i	3.1158e+05+3.0168e+05i
1.825	27024+3.6218e+05i	58845-72702i	81603+1.5108e+05i	-85572-1.5057e+05i
1.831	28846+3.9636e+05i	50613-64850i	2.4777e+05+24823i	-2.5669e+05-20865i
1.837	1.1584e+05+5.1304e+05i	3.9865e+05-50527i	1.6386e+05-45021i	-1.6489e+05+61510i
1.843	2.1883e+05+3.0365e+05i	1.4592e+05+19462i	-2.3776e+05-2.2222e+05i	2.3214e+05+1.9905e+05i
1.849	1.0849e+05+5.5249e+05i	1.3858e+05+5494.4i	42123-2.2136e+05i	-42240+2.1634e+05i
1.8549	36640+4.539e+05i	1.2144e+05+59232i	-3.5659e+05+2.5776e+05i	3.2682e+05-2.4882e+05i
1.8609	3.4087e+05+3.3243e+05i	70554+33125i	-11063+22481i	-13543-5545.3i
1.8669	44579+3.8902e+05i	1.5872e+05+28097i	4382.9+23899i	-12242-25912i
1.8729	64685+4.1032e+05i	92927+83656i	37884+84435i	-45517-82051i
1.8789	20479+4.5218e+05i	1.4913e+05+2.1293e+05i	-1.4662e+05-1.5431e+05i	1.4883e+05+1.4539e+05i
1.8849	20022+4.7807e+05i	14810-22358i	-1.0196e+05+1.117e+05i	87665-98270i
1.8908	13031+4.3567e+05i	98472-45843i	10539+56369i	-21053-41798i
1.8968	10815+4.669e+05i	76304-29768i	-5671.5+1.7611e+05i	-6594.6-1.6404e+05i
1.9028	42792+5.2839e+05i	45390+24601i	85493-1.0591e+05i	-1.0189e+05+1.0725e+05i
1.9088	-28887+4.8563e+05i	2.4061e+05+34667i	-1.8826e+05+15492i	1.9279e+05-55160i
1.9148	-12999+4.4731e+05i	75324-22785i	1.9696e+05+2.9138e+05i	-1.9501e+05-2.5733e+05i
1.9208	12295+4.937e+05i	1.2002e+05-13674i	7215.1-1.4612e+05i	-182.17+1.2644e+05i
1.9267	23430+5.5775e+05i	80239+14844i	2.6395e+05-51447i	-2.4922e+05+33077i
1.9327	78188+5.3761e+05i	90062+54881i	-77715-1.5735e+05i	62448+1.5244e+05i
1.9387	-21420+5.4812e+05i	1.0683e+05+1.0866e+05i	-92988-1.4163e+05i	94063+1.1866e+05i
1.9447	60810+4.9575e+05i	90653+26040i	89481-1.0338e+05i	-81137+97309i
1.9507	68319+5.9037e+05i	73138+54363i	-61376-1.8044e+05i	69042+1.8034e+05i
1.9567	14921+6.3935e+05i	94039+78628i	54292+23309i	-54500-34073i
1.9626	42330+5.7446e+05i	67989+85532i	2677-3225.7i	-1779-7261.2i
1.9686	3.3689e+05+8.837e+05i	1.3704e+05+84409i	-16320-41526i	9480.7+37787i
1.9746	-52412+6.0312e+05i	56358+1.2441e+05i	-75306+49428i	82719-84795i
1.9806	3.5316e+05+1.1846e+05i	1.3115e+05+65028i	-12936+51873i	83676+30611i
1.9866	35824+4.0103e+05i	96737+1.5561e+05i	-1.0066e+05+64164i	73641-71954i
1.9926	-44619+3.9867e+05i	88133+1.4005e+05i	3604.1-26484i	-7161.1+17780i
1.9986	-4454+4.6253e+05i	1.29e+05+1.7583e+05i	-74262-24555i	78161+22819i
