-5.9945	-11397+2784.7i	-55655+13598i	0	0
-5.9795	-11315+3230i	-55255+15773i	0	0
-5.9646	-11147+3589.8i	-54433+17530i	0	0
-5.9497	-10926+3872i	-53354+18908i	0	0
-5.9348	-10670+4087.8i	-52104+19962i	0	0
-5.9199	-10389+4241.1i	-50731+20710i	0	0
-5.905	-10105+4326.4i	-49345+21127i	0	0
-5.8901	-9927.6+4336.2i	-48479+21174i	0	0
-5.8752	-9084.6+4651.7i	-44362+22715i	0	0
-5.8602	-8985.9+4325.7i	-43880+21123i	0	0
-5.8453	-8711.4+4251.7i	-42539+20762i	0	0
-5.8304	-8446.8+4128.8i	-41247+20162i	0	0
-5.8155	-8192.7+3988.8i	-40007+19478i	0	0
-5.8006	-7951+3836.2i	-38826+18733i	0	0
-5.7857	-7722.2+3674.1i	-37709+17942i	0	0
-5.7708	-7505.3+3506.2i	-36650+17121i	0	0
-5.7559	-7299.4+3334i	-35644+16280i	0	0
-5.741	-7102.8+3159.9i	-34684+15430i	0	0
-5.726	-6913.8+2984.5i	-33761+14574i	0	0
-5.7111	-6723.1+2806.2i	-32830+13703i	0	0
-5.6962	-6586.7+2647.8i	-32164+12930i	0	0
-5.6813	-6402+2473.4i	-31262+12078i	0	0
-5.6664	-6241.8+2305.8i	-30480+11260i	0	0
-5.6515	-6084.4+2141.9i	-29711+10459i	0	0
-5.6366	-5931.2+1981.6i	-28963+9676.6i	0	0
-5.6217	-5781.3+1825.4i	-28231+8913.6i	0	0
-5.6068	-5634.6+1673i	-27515+8169.4i	0	0
-5.5918	-5490.2+1524.9i	-26810+7446.3i	0	0
-5.5769	-5348+1380.7i	-26116+6742.3i	0	0
-5.562	-5208+1241.4i	-25432+6062i	0	0
-5.5471	-5066.6+1101.7i	-24741+5379.8i	0	0
-5.5322	-4926.9+966.74i	-24059+4720.8i	0	0
-5.5173	-4784.4+828.94i	-23363+4047.9i	0	0
-5.5024	-4630.4+673.86i	-22611+3290.6i	0	0
-5.4875	-4395.6+331.3i	-21465+1617.8i	0	0
-5.4725	-4583.6+760.35i	-22383+3712.9i	0	0
-5.4576	-4350+529.69i	-21242+2586.6i	0	0
-5.4427	-4200+404.34i	-20509+1974.5i	0	0
-5.4278	-4062.3+302.38i	-19837+1476.6i	0	0
-5.4129	-3928.2+211.74i	-19182+1034i	0	0
-5.398	-3791.7+136.33i	-18516+665.74i	0	0
-5.3831	-3651.1+63.114i	-17829+308.2i	0	0
-5.3682	-3499.8-8.3722i	-17090-40.883i	0	0
-5.3533	-3342.6-88.197i	-16323-430.69i	0	0
-5.3383	-3192.5-184.95i	-15590-903.15i	0	0
-5.3234	-3062.9-285.14i	-14957-1392.4i	0	0
-5.3085	-2950.5-374.93i	-14408-1830.9i	0	0
-5.2936	-2845-449.67i	-13893-2195.8i	0	0
-5.2787	-2741.3-513.68i	-13386-2508.4i	0	0
-5.2638	-2635.4-566.12i	-12869-2764.5i	0	0
-5.2489	-2529.9-614.79i	-12354-3002.1i	0	0
-5.234	-2424-657.31i	-11837-3209.8i	0	0
-5.2191	-2320-697.68i	-11329-3406.9i	0	0
-5.2041	-2226-741.43i	-10870-3620.5i	0	0
-5.1892	-2092.5-747.05i	-10218-3648i	0	0
-5.1743	-1994.5-779.06i	-9739.3-3804.3i	0	0
-5.1594	-1892.1-802.99i	-9239.6-3921.1i	0	0
-5.1445	-1790-822.44i	-8741-4016.1i	0	0
-5.1296	-1688.7-838.55i	-8246.5-4094.8i	0	0
-5.1147	-1588.6-851.05i	-7757.4-4155.8i	0	0
-5.0998	-1489.6-860.63i	-7274.1-4202.6i	0	0
-5.0848	-1392-867.01i	-6797.5-4233.8i	0	0
-5.0699	-1295.5-870.28i	-6326.3-4249.7i	0	0
-5.055	-1200.5-870.73i	-5862.3-4251.9i	0	0
-5.0401	-1106.7-868.75i	-5404.3-4242.3i	0	0
-5.0252	-1014.2-864i	-4952.3-4219.1i	0	0
-5.0103	-922.51-857.2i	-4504.8-4185.9i	0	0
-4.9954	-831.56-848.05i	-4060.7-4141.2i	0	0
-4.9805	-740.46-837.65i	-3615.8-4090.4i	0	0
-4.9656	-647.65-826.19i	-3162.6-4034.5i	0	0
-4.9506	-549.66-815.92i	-2684.1-3984.3i	0	0
-4.9357	-433.04-813.35i	-2114.6-3971.8i	0	0
-4.9208	-215.02-863.85i	-1050-4218.3i	0	0
-4.9059	-1042.1-513.3i	-5088.6-2506.6i	0	0
-4.891	-454.43-633.6i	-2219.1-3094i	0	0
-4.8761	-322-629.3i	-1572.4-3073i	0	0
-4.8612	-229.75-609.14i	-1121.9-2974.6i	0	0
-4.8463	-151.06-582.06i	-737.65-2842.3i	0	0
-4.8313	-79.602-552.53i	-388.71-2698.1i	0	0
-4.8164	-11.903-518.99i	-58.126-2534.3i	0	0
-4.8015	50.051-483.65i	244.41-2361.8i	0	0
-4.7866	109.85-447.54i	536.4-2185.4i	0	0
-4.7717	166.4-409.26i	812.55-1998.5i	0	0
-4.7568	220.18-370.08i	1075.2-1807.2i	0	0
-4.7419	270.91-329.56i	1322.9-1609.3i	0	0
-4.727	318.53-288.23i	1555.5-1407.5i	0	0
-4.7121	362.97-245.78i	1772.5-1200.2i	0	0
-4.6971	404.4-202.21i	1974.8-987.41i	0	0
-4.6822	442.65-157.5i	2161.5-769.08i	0	0
-4.6673	478.03-112.07i	2334.3-547.25i	0	0
-4.6524	510.28-65.703i	2491.8-320.84i	0	0
-4.6375	539.26-18.862i	2633.3-92.106i	0	0
-4.6226	564.68+28.413i	2757.4+138.75i	0	0
-4.6077	586.14+75.687i	2862.3+369.6i	0	0
-4.5928	603+122.38i	2944.6+597.6i	0	0
-4.5779	613.57+166.52i	2996.2+813.15i	0	0
-4.5629	611.77+200.21i	2987.4+977.68i	0	0
-4.548	501.23+112.31i	2447.6+548.44i	0	0
-4.5331	701.65+442.6i	3426.3+2161.3i	0	0
-4.5182	670.16+452.1i	3272.5+2207.7i	0	0
-4.5033	653.59+503.62i	3191.6+2459.3i	0	0
-4.4884	635.3+568.61i	3102.3+2776.6i	0	0
-4.4735	613.25+645.75i	2994.6+3153.3i	0	0
-4.4586	588.73+737.98i	2874.9+3603.7i	0	0
-4.4436	566.98+849.87i	2768.7+4150.1i	0	0
-4.4287	559.5+984.86i	2732.1+4809.3i	0	0
-4.4138	584.12+1138.1i	2852.4+5557.5i	0	0
-4.3989	657.93+1287.9i	3212.8+6289.1i	0	0
-4.384	778.51+1398.1i	3801.6+6827.2i	0	0
-4.3691	915.52+1441.5i	4470.7+7039.1i	0	0
-4.3542	1033.9+1417.2i	5048.7+6920.3i	0	0
-4.3393	1118.5+1328.2i	5461.9+6486.1i	0	0
-4.3244	1173.4+1111.9i	5729.8+5429.8i	0	0
-4.3094	1103.7-207.04i	5389.5-1011i	0	0
-4.2945	991+2606.5i	4839.3+12728i	0	0
-4.2796	1116.1+1995i	5450.3+9742.2i	0	0
-4.2647	1128.6+1858.4i	5511.4+9075.2i	0	0
-4.2498	1124.4+1810i	5490.8+8838.8i	0	0
-4.2349	1112+1795.4i	5429.9+8767.3i	0	0
-4.22	1096.2+1797.5i	5352.9+8777.3i	0	0
-4.2051	1078+1809.3i	5264.1+8835.2i	0	0
-4.1902	1058+1827.3i	5166.6+8922.9i	0	0
-4.1752	1036.7+1849.3i	5062.3+9030.7i	0	0
-4.1603	1014.1+1874.1i	4952.3+9151.6i	0	0
-4.1454	990.61+1900.8i	4837.4+9282i	0	0
-4.1305	966.03+1928.6i	4717.3+9417.7i	0	0
-4.1156	940.35+1957i	4591.9+9556.4i	0	0
-4.1007	914.59+1986.1i	4466.1+9698.4i	0	0
-4.0858	887.69+2015.1i	4334.8+9839.9i	0	0
-4.0709	860.07+2043.8i	4199.9+9980.4i	0	0
-4.0559	831.81+2072.3i	4061.9+10119i	0	0
-4.041	802.88+2100.1i	3920.6+10255i	0	0
-4.0261	773.33+2127.4i	3776.3+10388i	0	0
-4.0112	742.92+2153.5i	3627.8+10516i	0	0
-3.9963	712.07+2178.9i	3477.2+10640i	0	0
-3.9814	680.29+2203.5i	3322+10760i	0	0
-3.9665	647.96+2227.2i	3164.1+10876i	0	0
-3.9516	614.98+2249.9i	3003.1+10987i	0	0
-3.9367	581.55+2271.6i	2839.8+11093i	0	0
-3.9217	547.47+2292.2i	2673.4+11193i	0	0
-3.9068	510.69+2309.9i	2493.8+11280i	0	0
-3.8919	480.25+2331.5i	2345.2+11385i	0	0
-3.877	444.91+2348.3i	2172.6+11467i	0	0
-3.8621	409.57+2364.3i	2000+11545i	0	0
-3.8472	374.11+2379i	1826.8+11617i	0	0
-3.8323	338.35+2392.5i	1652.2+11683i	0	0
-3.8174	302.45+2404.7i	1476.9+11742i	0	0
-3.8025	266.35+2415.5i	1300.6+11796i	0	0
-3.7875	230.25+2424.9i	1124.4+11841i	0	0
-3.7726	193.17+2434.2i	943.29+11887i	0	0
-3.7577	157.01+2440.7i	766.69+11918i	0	0
-3.7428	120.52+2446.2i	588.53+11945i	0	0
-3.7279	84.041+2450.4i	410.39+11966i	0	0
-3.713	47.607+2453.2i	232.47+11979i	0	0
-3.6981	11.423+2454.6i	55.779+11986i	0	0
-3.6832	-23.865+2454.2i	-116.54+11984i	0	0
-3.6682	-351.43+2377.1i	-1716.1+11608i	0	0
-3.6533	-101.68+2453.2i	-496.5+11980i	0	0
-3.6384	-136.6+2448.9i	-667.02+11958i	0	0
-3.6235	-172.06+2443.4i	-840.19+11932i	0	0
-3.6086	-207.19+2436.7i	-1011.8+11899i	0	0
-3.5937	-243.83+2430.2i	-1190.7+11867i	0	0
-3.5788	-278.12+2420.3i	-1358.1+11819i	0	0
-3.5639	-312.71+2409.5i	-1527+11766i	0	0
-3.549	-346.97+2397.2i	-1694.3+11706i	0	0
-3.534	-381.04+2383.4i	-1860.7+11638i	0	0
-3.5191	-414.91+2367.9i	-2026.1+11563i	0	0
-3.5042	-448.89+2350.9i	-2192+11480i	0	0
-3.4893	-482.99+2332.4i	-2358.5+11390i	0	0
-3.4744	-517.42+2312.8i	-2526.7+11294i	0	0
-3.4595	-551.8+2292i	-2694.5+11192i	0	0
-3.4446	-587.63+2272.3i	-2869.5+11096i	0	0
-3.4297	-621.35+2249.8i	-3034.2+10986i	0	0
-3.4148	-655.19+2227.4i	-3199.4+10877i	0	0
-3.3998	-688.54+2204.3i	-3362.3+10764i	0	0
-3.3849	-721.31+2180.5i	-3522.3+10648i	0	0
-3.37	-753.49+2156i	-3679.4+10528i	0	0
-3.3551	-785.12+2130.5i	-3833.9+10404i	0	0
-3.3402	-816.33+2104.4i	-3986.3+10276i	0	0
-3.3253	-847.43+2077.3i	-4138.2+10144i	0	0
-3.3104	-878.95+2049.6i	-4292.1+10009i	0	0
-3.2955	-914+2021.6i	-4463.3+9871.9i	0	0
-3.2805	-999.03+1999.4i	-4878.5+9763.7i	0	0
-3.2656	-927.91+1960i	-4531.2+9571i	0	0
-3.2507	-966.35+1923.1i	-4718.9+9390.9i	0	0
-3.2358	-996.63+1895i	-4866.7+9253.6i	0	0
-3.2209	-1023.1+1863.1i	-4996.1+9098i	0	0
-3.206	-1047.9+1830.2i	-5117.2+8937.4i	0	0
-3.1911	-1071.5+1796.7i	-5232.1+8773.5i	0	0
-3.1762	-1094+1762.4i	-5342+8606.2i	0	0
-3.1613	-1115.4+1727.6i	-5446.5+8436.4i	0	0
-3.1463	-1135.9+1692.3i	-5547+8263.8i	0	0
-3.1314	-1155.4+1656.4i	-5642.1+8088.5i	0	0
-3.1165	-1173.7+1620.4i	-5731.3+7912.8i	0	0
-3.1016	-1191.8+1582.8i	-5819.8+7729i	0	0
-3.0867	-1208.4+1545.5i	-5900.8+7547i	0	0
-3.0718	-1224+1507.7i	-5977.1+7362.4i	0	0
-3.0569	-1238.8+1469.4i	-6049.5+7175.3i	0	0
-3.042	-1253.3+1430.4i	-6120.1+6984.7i	0	0
-3.027	-1438.2+1329.9i	-7022.8+6494.2i	0	0
-3.0121	-1273+1354i	-6216.1+6611.9i	0	0
-2.9972	-1284.3+1313.9i	-6271.3+6415.8i	0	0
-2.9823	-1293.8+1273.7i	-6317.8+6219.7i	0	0
-2.9674	-1302.1+1233.3i	-6358.4+6022.4i	0	0
-2.9525	-1309.2+1192.7i	-6393.2+5824.1i	0	0
-2.9376	-1315.2+1151.3i	-6422.1+5622i	0	0
-2.9227	-1320+1110.1i	-6446+5420.9i	0	0
-2.9078	-1323.8+1068.5i	-6464.5+5217.9i	0	0
-2.8928	-1326.5+1026.7i	-6477.5+5013.4i	0	0
-2.8779	-1328.1+984.51i	-6485.3+4807.5i	0	0
-2.863	-1328.6+942.09i	-6487.7+4600.4i	0	0
-2.8481	-1328+899.4i	-6485.1+4392i	0	0
-2.8332	-1326.4+856.47i	-6477.1+4182.3i	0	0
-2.8183	-1323.8+813.28i	-6464.3+3971.4i	0	0
-2.8034	-1320.1+769.87i	-6446.3+3759.4i	0	0
-2.7885	-1315.5+726.24i	-6424.1+3546.3i	0	0
-2.7736	-1312.3+681.3i	-6408.4+3326.9i	0	0
-2.7586	-1302.6+638.68i	-6360.8+3118.8i	0	0
-2.7437	-1295.2+594.48i	-6324.6+2902.9i	0	0
-2.7288	-1286.7+550.17i	-6283.2+2686.6i	0	0
-2.7139	-1277.3+505.77i	-6237.3+2469.8i	0	0
-2.699	-1267+461.29i	-6187+2252.6i	0	0
-2.6841	-1255.8+416.78i	-6132.6+2035.2i	0	0
-2.6692	-1243.9+372.26i	-6074.1+1817.8i	0	0
-2.6543	-1231.1+327.76i	-6011.6+1600.5i	0	0
-2.6393	-1217.4+283.37i	-5945+1383.8i	0	0
-2.6244	-1203+239.13i	-5874.6+1167.7i	0	0
-2.6095	-1187.8+194.95i	-5800.3+951.98i	0	0
-2.5946	-1171.5+151.35i	-5720.8+739.07i	0	0
-2.5797	-1154.7+108.31i	-5638.7+528.91i	0	0
-2.5648	-1136.9+65.239i	-5551.9+318.57i	0	0
-2.5499	-1117.5+22.574i	-5456.8+110.23i	0	0
-2.535	-1097.1-19.49i	-5357.1-95.176i	0	0
-2.5201	-1075.2-61.134i	-5250.4-298.53i	0	0
-2.5051	-1051.7-102.45i	-5135.5-500.27i	0	0
-2.4902	-1026.3-143.66i	-5011.4-701.53i	0	0
-2.4753	-998.75-185.12i	-4877.1-903.96i	0	0
-2.4604	-969.02-227.37i	-4731.9-1110.3i	0	0
-2.4455	-937.12-271.49i	-4576.1-1325.8i	0	0
-2.4306	-904.99-325.21i	-4419.2-1588i	0	0
-2.4157	-861.35-352.48i	-4206.1-1721.2i	0	0
-2.4008	-820.63-407.91i	-4007.3-1991.9i	0	0
-2.3859	-769.94-469.31i	-3759.8-2291.7i	0	0
-2.3709	-675.31-572.55i	-3297.7-2795.9i	0	0
-2.356	-974.73-305.69i	-4759.8-1492.7i	0	0
-2.3411	-756.38-525.99i	-3693.6-2568.5i	0	0
-2.3262	-696.64-598.69i	-3401.9-2923.5i	0	0
-2.3113	-651.39-658.58i	-3180.9-3216i	0	0
-2.2964	-610.74-714.79i	-2982.3-3490.5i	0	0
-2.2815	-572.51-769.32i	-2795.7-3756.7i	0	0
-2.2666	-537.56-821.5i	-2625-4011.5i	0	0
-2.2516	-475.52-895.61i	-2322.1-4373.4i	0	0
-2.2367	-453.63-937.82i	-2215.2-4579.6i	0	0
-2.2218	-418.15-990.56i	-2041.9-4837.1i	0	0
-2.2069	-382.13-1044.8i	-1866-5102i	0	0
-2.192	-345.68-1099.6i	-1688-5369.7i	0	0
-2.1771	-309.08-1154.9i	-1509.3-5639.6i	0	0
-2.1622	-272.47-1210.6i	-1330.5-5911.8i	0	0
-2.1473	-235.98-1266.9i	-1152.3-6186.5i	0	0
-2.1324	-199.88-1323.7i	-976.06-6464i	0	0
-2.1174	-164.72-1381.1i	-804.36-6744i	0	0
-2.1025	-131.87-1438.8i	-643.93-7026i	0	0
-2.0876	-105.69-1497.1i	-516.1-7310.5i	0	0
-2.0727	-133.18-1524.6i	-650.33-7445i	0	0
-2.0578	180.75-1680i	882.64-8203.7i	0	0
-2.0429	97.2-1708.2i	474.64-8341.4i	0	0
-2.028	119.05-1768.6i	581.36-8636.3i	0	0
-2.0131	152.72-1834.4i	745.75-8957.9i	0	0
-1.9982	190.51-1903.5i	930.28-9295.3i	0	0
-1.9832	230.05-1975.5i	1123.4-9646.9i	0	0
-1.9683	271.01-2050.8i	1323.4-10015i	0	0
-1.9534	312.85-2129.1i	1527.7-10397i	0	0
-1.9385	354.5-2212i	1731.1-10802i	0	0
-1.9236	398.87-2295.2i	1947.8-11208i	0	0
-1.9087	441.52-2385.9i	2156-11651i	0	0
-1.8938	484.18-2481.3i	2364.4-12117i	0	0
-1.8789	525.75-2582.8i	2567.3-12612i	0	0
-1.8639	564.71-2691.7i	2757.6-13144i	0	0
-1.849	597.08-2810.7i	2915.7-13725i	0	0
-1.8341	611.19-2945.9i	2984.5-14386i	0	0
-1.8192	548.91-3124.3i	2680.4-15257i	0	0
-1.8043	-3682.3-4098.6i	-17982-20014i	0	0
-1.7894	1172.3-3126i	5724.7-15265i	0	0
-1.7745	1094.8-3362.2i	5346-16418i	0	0
-1.7596	1116.5-3554.7i	5452.3-17358i	0	0
-1.7447	1164.1-3748.4i	5684.3-18304i	0	0
-1.7297	1224.2-3953.8i	5978.1-19307i	0	0
-1.7148	1291.9-4176.6i	6308.7-20395i	0	0
-1.6999	1368-4420.6i	6680.3-21587i	0	0
-1.685	1451.3-4690.7i	7087.2-22906i	0	0
-1.6701	1542.5-4992.1i	7532.2-24377i	0	0
-1.6552	1642.5-5331.1i	8020.5-26033i	0	0
-1.6403	1752.7-5715.5i	8558.5-27910i	0	0
-1.6254	1874.9-6155.5i	9155.7-30059i	0	0
-1.6104	2011.7-6664.4i	9823.6-32544i	0	0
-1.5955	2166.2-7259.8i	10578-35451i	0	0
-1.5806	2342.4-7966.1i	11438-38900i	0	0
-1.5657	2545-8817.8i	12428-43059i	0	0
-1.5508	2757.7-9878.6i	13466-48239i	0	0
-1.5359	3086.8-11154i	15074-54466i	0	0
-1.521	3444.5-12859i	16820-62791i	0	0
-1.5061	3888.6-15142i	18989-73939i	0	0
-1.4912	4460.5-18376i	21781-89735i	0	0
-1.4762	5210.5-23322i	25444-1.1388e+05i	0	0
-1.4613	6166.2-31837i	30111-1.5547e+05i	0	0
-1.4464	6852.9-49993i	33464-2.4412e+05i	0	0
-1.4315	-4921.3-1.1337e+05i	-24032-5.536e+05i	0	0
-1.4166	-1.9537e+05+1.4607e+05i	-9.5403e+05+7.1328e+05i	0	0
-1.4017	-22842+59688i	-1.1154e+05+2.9147e+05i	0	0
-1.3868	-6702.4+35035i	-32729+1.7108e+05i	0	0
-1.3719	-241.14+22052i	-1177.5+1.0768e+05i	0	0
-1.357	-2931.5+23426i	-14315+1.144e+05i	0	0
-1.342	-2778.9+24339i	-13570+1.1885e+05i	0	0
-1.3271	-2320.8+19335i	-11333+94418i	0	0
-1.3122	-2247.9+16213i	-10977+79170i	0	0
-1.2973	-2063.1+14060i	-10075+68656i	0	0
-1.2824	-1851.7+12473i	-9042.4+60910i	0	0
-1.2675	-1649.8+11252i	-8056.1+54948i	0	0
-1.2526	-1467.7+10283i	-7167+50212i	0	0
-1.2377	-1306.9+9493.1i	-6381.8+46357i	0	0
-1.2227	-1165.8+8838.2i	-5693+43159i	0	0
-1.2078	-1042.4+8286.7i	-5090.4+40465i	0	0
-1.1929	-933.82+7815.6i	-4560+38165i	0	0
-1.178	-838.45+7409.2i	-4094.3+36181i	0	0
-1.1631	-754.6+7055.3i	-3684.8+34453i	0	0
-1.1482	-681.09+6744.5i	-3325.9+32935i	0	0
-1.1333	-620.27+6468.8i	-3028.9+31588i	0	0
-1.1184	-553.46+6226.1i	-2702.7+30403i	0	0
-1.1035	-505.14+6006.9i	-2466.7+29333i	0	0
-1.0885	-461.97+5810i	-2255.9+28372i	0	0
-1.0736	-424.72+5632.3i	-2074+27504i	0	0
-1.0587	-393.19+5471.3i	-1920+26717i	0	0
-1.0438	-367.11+5325.3i	-1792.7+26004i	0	0
-1.0289	-346.4+5193.3i	-1691.5+25360i	0	0
-1.014	-328.24+5069.2i	-1602.8+24754i	0	0
-0.99908	-316.44+4960.3i	-1545.2+24222i	0	0
-0.98416	-307.73+4860i	-1502.7+23732i	0	0
-0.96925	-301.96+4767.9i	-1474.5+23283i	0	0
-0.95434	-298.29+4682.8i	-1456.6+22867i	0	0
-0.93943	-294.87+4604.5i	-1439.9+22485i	0	0
-0.92452	-292.11+4536i	-1426.4+22150i	0	0
-0.90961	-295.74+4475.4i	-1444.1+21854i	0	0
-0.89469	-304.1+4417.4i	-1485+21571i	0	0
-0.87978	-314.93+4362i	-1537.9+21301i	0	0
-0.86487	-328.06+4309.7i	-1602+21045i	0	0
-0.84996	-343.7+4260.5i	-1678.3+20805i	0	0
-0.83505	-362.11+4214i	-1768.3+20578i	0	0
-0.82014	-383.14+4169.5i	-1871+20361i	0	0
-0.80522	-407.75+4128i	-1991.1+20158i	0	0
-0.79031	-435.64+4088.3i	-2127.3+19964i	0	0
-0.7754	-467.15+4050.4i	-2281.2+19779i	0	0
-0.76049	-502.61+4014.2i	-2454.3+19602i	0	0
-0.74558	-542.35+3979.4i	-2648.4+19432i	0	0
-0.73067	-586.86+3946.1i	-2865.7+19270i	0	0
-0.71576	-636.64+3914.1i	-3108.8+19113i	0	0
-0.70084	-692.41+3883.1i	-3381.2+18962i	0	0
-0.68593	-755.13+3852.6i	-3687.5+18813i	0	0
-0.67102	-826.37+3820.3i	-4035.3+18655i	0	0
-0.65611	-913.66+3761.9i	-4461.6+18370i	0	0
-0.6412	-989.44+3835.1i	-4831.6+18728i	0	0
-0.62629	-1096.2+3790.9i	-5352.8+18512i	0	0
-0.61137	-1219.4+3773.4i	-5954.4+18426i	0	0
-0.59646	-1366.1+3766.2i	-6671.1+18391i	0	0
-0.58155	-1546.2+3770i	-7550.2+18409i	0	0
-0.56664	-1775.3+3787.7i	-8669.2+18496i	0	0
-0.55173	-2081.8+3824.2i	-10166+18674i	0	0
-0.53682	-2520.7+3882.5i	-12309+18959i	0	0
-0.52191	-3211.3+3948.4i	-15681+19281i	0	0
-0.50699	-4440+3895.6i	-21682+19023i	0	0
-0.49208	-6779.6+2855.5i	-33106+13944i	0	0
-0.47717	-7908.4-2353.8i	-38618-11494i	0	0
-0.46226	-2664.9-4302.3i	-13013-21009i	0	0
-0.44735	-810.35-2458i	-3957.1-12003i	0	0
-0.43244	-633.09-1469.4i	-3091.5-7175.2i	0	0
-0.41752	-844.13-1088.1i	-4122-5313.2i	0	0
-0.40261	-1138.6-995.28i	-5560-4860.1i	0	0
-0.3877	-1437.7-1115.5i	-7020.7-5447.3i	0	0
-0.37279	-1759.4-1423.4i	-8591.3-6950.7i	0	0
-0.35788	-2120.2-1914.7i	-10354-9349.8i	0	0
-0.34297	-2534.3-2621.9i	-12375-12803i	0	0
-0.32805	-3025-3629.1i	-14771-17722i	0	0
-0.31314	-3638.2-5097i	-17766-24889i	0	0
-0.29823	-4451.9-7354.8i	-21739-35915i	0	0
-0.28332	-5649.9-11217i	-27589-54776i	0	0
-0.26841	-8060.6-19137i	-39361-93449i	0	0
-0.2535	-17391-40416i	-84922-1.9736e+05i	0	0
-0.23859	-1.6755e+05-1.3448e+05i	-8.1817e+05-6.5671e+05i	0	0
-0.22367	5352.1+89978i	26135+4.3938e+05i	0	0
-0.20876	7899.7+42120i	38576+2.0568e+05i	0	0
-0.19385	6168.4+28705i	30122+1.4017e+05i	0	0
-0.17894	4916.6+22510i	24009+1.0992e+05i	0	0
-0.16403	4042.2+18977i	19739+92667i	0	0
-0.14912	3400.6+16706i	16606+81580i	0	0
-0.1342	2904.4+15131i	14183+73887i	0	0
-0.11929	2502+13975i	12218+68241i	0	0
-0.10438	2154.9+13080i	10523+63870i	0	0
-0.089469	1800.7+12348i	8793.2+60299i	0	0
-0.074558	1334.7+11827i	6517.8+57753i	0	0
-0.059646	948.75+11689i	4632.9+57079i	0	0
-0.044735	868.01+11668i	4238.7+56979i	0	0
-0.029823	1030+11613i	5029.8+56710i	0	0
-0.014912	1774+11441i	8662.8+55870i	0	0
0	0+15571i	0+76035i	0	0
0.014912	-1774+11441i	-8662.8+55870i	0	0
0.029823	-1030+11613i	-5029.8+56710i	0	0
0.044735	-868.01+11668i	-4238.7+56979i	0	0
0.059646	-948.75+11689i	-4632.9+57079i	0	0
0.074558	-1334.7+11827i	-6517.8+57753i	0	0
0.089469	-1800.7+12348i	-8793.2+60299i	0	0
0.10438	-2154.9+13080i	-10523+63870i	0	0
0.11929	-2502+13975i	-12218+68241i	0	0
0.1342	-2904.4+15131i	-14183+73887i	0	0
0.14912	-3400.6+16706i	-16606+81580i	0	0
0.16403	-4042.2+18977i	-19739+92667i	0	0
0.17894	-4916.6+22510i	-24009+1.0992e+05i	0	0
0.19385	-6168.4+28705i	-30122+1.4017e+05i	0	0
0.20876	-7899.7+42120i	-38576+2.0568e+05i	0	0
0.22367	-5352.1+89978i	-26135+4.3938e+05i	0	0
0.23859	1.6755e+05-1.3448e+05i	8.1817e+05-6.5671e+05i	0	0
0.2535	17391-40416i	84922-1.9736e+05i	0	0
0.26841	8060.6-19137i	39361-93449i	0	0
0.28332	5649.9-11217i	27589-54776i	0	0
0.29823	4451.9-7354.8i	21739-35915i	0	0
0.31314	3638.2-5097i	17766-24889i	0	0
0.32805	3025-3629.1i	14771-17722i	0	0
0.34297	2534.3-2621.9i	12375-12803i	0	0
0.35788	2120.2-1914.7i	10354-9349.8i	0	0
0.37279	1759.4-1423.4i	8591.3-6950.7i	0	0
0.3877	1437.7-1115.5i	7020.7-5447.3i	0	0
0.40261	1138.6-995.28i	5560-4860.1i	0	0
0.41752	844.13-1088.1i	4122-5313.2i	0	0
0.43244	633.09-1469.4i	3091.5-7175.2i	0	0
0.44735	810.35-2458i	3957.1-12003i	0	0
0.46226	2664.9-4302.3i	13013-21009i	0	0
0.47717	7908.4-2353.8i	38618-11494i	0	0
0.49208	6779.6+2855.5i	33106+13944i	0	0
0.50699	4440+3895.6i	21682+19023i	0	0
0.52191	3211.3+3948.4i	15681+19281i	0	0
0.53682	2520.7+3882.5i	12309+18959i	0	0
0.55173	2081.8+3824.2i	10166+18674i	0	0
0.56664	1775.3+3787.7i	8669.2+18496i	0	0
0.58155	1546.2+3770i	7550.2+18409i	0	0
0.59646	1366.1+3766.2i	6671.1+18391i	0	0
0.61137	1219.4+3773.4i	5954.4+18426i	0	0
0.62629	1096.2+3790.9i	5352.8+18512i	0	0
0.6412	989.44+3835.1i	4831.6+18728i	0	0
0.65611	913.66+3761.9i	4461.6+18370i	0	0
0.67102	826.37+3820.3i	4035.3+18655i	0	0
0.68593	755.13+3852.6i	3687.5+18813i	0	0
0.70084	692.41+3883.1i	3381.2+18962i	0	0
0.71576	636.64+3914.1i	3108.8+19113i	0	0
0.73067	586.86+3946.1i	2865.7+19270i	0	0
0.74558	542.35+3979.4i	2648.4+19432i	0	0
0.76049	502.61+4014.2i	2454.3+19602i	0	0
0.7754	467.15+4050.4i	2281.2+19779i	0	0
0.79031	435.64+4088.3i	2127.3+19964i	0	0
0.80522	407.75+4128i	1991.1+20158i	0	0
0.82014	383.14+4169.5i	1871+20361i	0	0
0.83505	362.11+4214i	1768.3+20578i	0	0
0.84996	343.7+4260.5i	1678.3+20805i	0	0
0.86487	328.06+4309.7i	1602+21045i	0	0
0.87978	314.93+4362i	1537.9+21301i	0	0
0.89469	304.1+4417.4i	1485+21571i	0	0
0.90961	295.74+4475.4i	1444.1+21854i	0	0
0.92452	292.11+4536i	1426.4+22150i	0	0
0.93943	294.87+4604.5i	1439.9+22485i	0	0
0.95434	298.29+4682.8i	1456.6+22867i	0	0
0.96925	301.96+4767.9i	1474.5+23283i	0	0
0.98416	307.73+4860i	1502.7+23732i	0	0
0.99908	316.44+4960.3i	1545.2+24222i	0	0
1.014	328.24+5069.2i	1602.8+24754i	0	0
1.0289	346.4+5193.3i	1691.5+25360i	0	0
1.0438	367.11+5325.3i	1792.7+26004i	0	0
1.0587	393.19+5471.3i	1920+26717i	0	0
1.0736	424.72+5632.3i	2074+27504i	0	0
1.0885	461.97+5810i	2255.9+28372i	0	0
1.1035	505.14+6006.9i	2466.7+29333i	0	0
1.1184	553.46+6226.1i	2702.7+30403i	0	0
1.1333	620.27+6468.8i	3028.9+31588i	0	0
1.1482	681.09+6744.5i	3325.9+32935i	0	0
1.1631	754.6+7055.3i	3684.8+34453i	0	0
1.178	838.45+7409.2i	4094.3+36181i	0	0
1.1929	933.82+7815.6i	4560+38165i	0	0
1.2078	1042.4+8286.7i	5090.4+40465i	0	0
1.2227	1165.8+8838.2i	5693+43159i	0	0
1.2377	1306.9+9493.1i	6381.8+46357i	0	0
1.2526	1467.7+10283i	7167+50212i	0	0
1.2675	1649.8+11252i	8056.1+54948i	0	0
1.2824	1851.7+12473i	9042.4+60910i	0	0
1.2973	2063.1+14060i	10075+68656i	0	0
1.3122	2247.9+16213i	10977+79170i	0	0
1.3271	2320.8+19335i	11333+94418i	0	0
1.342	2778.9+24339i	13570+1.1885e+05i	0	0
1.357	2931.5+23426i	14315+1.144e+05i	0	0
1.3719	241.14+22052i	1177.5+1.0768e+05i	0	0
1.3868	6702.4+35035i	32729+1.7108e+05i	0	0
1.4017	22842+59688i	1.1154e+05+2.9147e+05i	0	0
1.4166	1.9537e+05+1.4607e+05i	9.5403e+05+7.1328e+05i	0	0
1.4315	4921.3-1.1337e+05i	24032-5.536e+05i	0	0
1.4464	-6852.9-49993i	-33464-2.4412e+05i	0	0
1.4613	-6166.2-31837i	-30111-1.5547e+05i	0	0
1.4762	-5210.5-23322i	-25444-1.1388e+05i	0	0
1.4912	-4460.5-18376i	-21781-89735i	0	0
1.5061	-3888.6-15142i	-18989-73939i	0	0
1.521	-3444.5-12859i	-16820-62791i	0	0
1.5359	-3086.8-11154i	-15074-54466i	0	0
1.5508	-2757.7-9878.6i	-13466-48239i	0	0
1.5657	-2545-8817.8i	-12428-43059i	0	0
1.5806	-2342.4-7966.1i	-11438-38900i	0	0
1.5955	-2166.2-7259.8i	-10578-35451i	0	0
1.6104	-2011.7-6664.4i	-9823.6-32544i	0	0
1.6254	-1874.9-6155.5i	-9155.7-30059i	0	0
1.6403	-1752.7-5715.5i	-8558.5-27910i	0	0
1.6552	-1642.5-5331.1i	-8020.5-26033i	0	0
1.6701	-1542.5-4992.1i	-7532.2-24377i	0	0
1.685	-1451.3-4690.7i	-7087.2-22906i	0	0
1.6999	-1368-4420.6i	-6680.3-21587i	0	0
1.7148	-1291.9-4176.6i	-6308.7-20395i	0	0
1.7297	-1224.2-3953.8i	-5978.1-19307i	0	0
1.7447	-1164.1-3748.4i	-5684.3-18304i	0	0
1.7596	-1116.5-3554.7i	-5452.3-17358i	0	0
1.7745	-1094.8-3362.2i	-5346-16418i	0	0
1.7894	-1172.3-3126i	-5724.7-15265i	0	0
1.8043	3682.3-4098.6i	17982-20014i	0	0
1.8192	-548.91-3124.3i	-2680.4-15257i	0	0
1.8341	-611.19-2945.9i	-2984.5-14386i	0	0
1.849	-597.08-2810.7i	-2915.7-13725i	0	0
1.8639	-564.71-2691.7i	-2757.6-13144i	0	0
1.8789	-525.75-2582.8i	-2567.3-12612i	0	0
1.8938	-484.18-2481.3i	-2364.4-12117i	0	0
1.9087	-441.52-2385.9i	-2156-11651i	0	0
1.9236	-398.87-2295.2i	-1947.8-11208i	0	0
1.9385	-354.5-2212i	-1731.1-10802i	0	0
1.9534	-312.85-2129.1i	-1527.7-10397i	0	0
1.9683	-271.01-2050.8i	-1323.4-10015i	0	0
1.9832	-230.05-1975.5i	-1123.4-9646.9i	0	0
1.9982	-190.51-1903.5i	-930.28-9295.3i	0	0
2.0131	-152.72-1834.4i	-745.75-8957.9i	0	0
2.028	-119.05-1768.6i	-581.36-8636.3i	0	0
2.0429	-97.2-1708.2i	-474.64-8341.4i	0	0
2.0578	-180.75-1680i	-882.64-8203.7i	0	0
2.0727	133.18-1524.6i	650.33-7445i	0	0
2.0876	105.69-1497.1i	516.1-7310.5i	0	0
2.1025	131.87-1438.8i	643.93-7026i	0	0
2.1174	164.72-1381.1i	804.36-6744i	0	0
2.1324	199.88-1323.7i	976.06-6464i	0	0
2.1473	235.98-1266.9i	1152.3-6186.5i	0	0
2.1622	272.47-1210.6i	1330.5-5911.8i	0	0
2.1771	309.08-1154.9i	1509.3-5639.6i	0	0
2.192	345.68-1099.6i	1688-5369.7i	0	0
2.2069	382.13-1044.8i	1866-5102i	0	0
2.2218	418.15-990.56i	2041.9-4837.1i	0	0
2.2367	453.63-937.82i	2215.2-4579.6i	0	0
2.2516	475.52-895.61i	2322.1-4373.4i	0	0
2.2666	537.56-821.5i	2625-4011.5i	0	0
2.2815	572.51-769.32i	2795.7-3756.7i	0	0
2.2964	610.74-714.79i	2982.3-3490.5i	0	0
2.3113	651.39-658.58i	3180.9-3216i	0	0
2.3262	696.64-598.69i	3401.9-2923.5i	0	0
2.3411	756.38-525.99i	3693.6-2568.5i	0	0
2.356	974.73-305.69i	4759.8-1492.7i	0	0
2.3709	675.31-572.55i	3297.7-2795.9i	0	0
2.3859	769.94-469.31i	3759.8-2291.7i	0	0
2.4008	820.63-407.91i	4007.3-1991.9i	0	0
2.4157	861.35-352.48i	4206.1-1721.2i	0	0
2.4306	904.99-325.21i	4419.2-1588i	0	0
2.4455	937.12-271.49i	4576.1-1325.8i	0	0
2.4604	969.02-227.37i	4731.9-1110.3i	0	0
2.4753	998.75-185.12i	4877.1-903.96i	0	0
2.4902	1026.3-143.66i	5011.4-701.53i	0	0
2.5051	1051.7-102.45i	5135.5-500.27i	0	0
2.5201	1075.2-61.134i	5250.4-298.53i	0	0
2.535	1097.1-19.49i	5357.1-95.176i	0	0
2.5499	1117.5+22.574i	5456.8+110.23i	0	0
2.5648	1136.9+65.239i	5551.9+318.57i	0	0
2.5797	1154.7+108.31i	5638.7+528.91i	0	0
2.5946	1171.5+151.35i	5720.8+739.07i	0	0
2.6095	1187.8+194.95i	5800.3+951.98i	0	0
2.6244	1203+239.13i	5874.6+1167.7i	0	0
2.6393	1217.4+283.37i	5945+1383.8i	0	0
2.6543	1231.1+327.76i	6011.6+1600.5i	0	0
2.6692	1243.9+372.26i	6074.1+1817.8i	0	0
2.6841	1255.8+416.78i	6132.6+2035.2i	0	0
2.699	1267+461.29i	6187+2252.6i	0	0
2.7139	1277.3+505.77i	6237.3+2469.8i	0	0
2.7288	1286.7+550.17i	6283.2+2686.6i	0	0
2.7437	1295.2+594.48i	6324.6+2902.9i	0	0
2.7586	1302.6+638.68i	6360.8+3118.8i	0	0
2.7736	1312.3+681.3i	6408.4+3326.9i	0	0
2.7885	1315.5+726.24i	6424.1+3546.3i	0	0
2.8034	1320.1+769.87i	6446.3+3759.4i	0	0
2.8183	1323.8+813.28i	6464.3+3971.4i	0	0
2.8332	1326.4+856.47i	6477.1+4182.3i	0	0
2.8481	1328+899.4i	6485.1+4392i	0	0
2.863	1328.6+942.09i	6487.7+4600.4i	0	0
2.8779	1328.1+984.51i	6485.3+4807.5i	0	0
2.8928	1326.5+1026.7i	6477.5+5013.4i	0	0
2.9078	1323.8+1068.5i	6464.5+5217.9i	0	0
2.9227	1320+1110.1i	6446+5420.9i	0	0
2.9376	1315.2+1151.3i	6422.1+5622i	0	0
2.9525	1309.2+1192.7i	6393.2+5824.1i	0	0
2.9674	1302.1+1233.3i	6358.4+6022.4i	0	0
2.9823	1293.8+1273.7i	6317.8+6219.7i	0	0
2.9972	1284.3+1313.9i	6271.3+6415.8i	0	0
3.0121	1273+1354i	6216.1+6611.9i	0	0
3.027	1438.2+1329.9i	7022.8+6494.2i	0	0
3.042	1253.3+1430.4i	6120.1+6984.7i	0	0
3.0569	1238.8+1469.4i	6049.5+7175.3i	0	0
3.0718	1224+1507.7i	5977.1+7362.4i	0	0
3.0867	1208.4+1545.5i	5900.8+7547i	0	0
3.1016	1191.8+1582.8i	5819.8+7729i	0	0
3.1165	1173.7+1620.4i	5731.3+7912.8i	0	0
3.1314	1155.4+1656.4i	5642.1+8088.5i	0	0
3.1463	1135.9+1692.3i	5547+8263.8i	0	0
3.1613	1115.4+1727.6i	5446.5+8436.4i	0	0
3.1762	1094+1762.4i	5342+8606.2i	0	0
3.1911	1071.5+1796.7i	5232.1+8773.5i	0	0
3.206	1047.9+1830.2i	5117.2+8937.4i	0	0
3.2209	1023.1+1863.1i	4996.1+9098i	0	0
3.2358	996.63+1895i	4866.7+9253.6i	0	0
3.2507	966.35+1923.1i	4718.9+9390.9i	0	0
3.2656	927.91+1960i	4531.2+9571i	0	0
3.2805	999.03+1999.4i	4878.5+9763.7i	0	0
3.2955	914+2021.6i	4463.3+9871.9i	0	0
3.3104	878.95+2049.6i	4292.1+10009i	0	0
3.3253	847.43+2077.3i	4138.2+10144i	0	0
3.3402	816.33+2104.4i	3986.3+10276i	0	0
3.3551	785.12+2130.5i	3833.9+10404i	0	0
3.37	753.49+2156i	3679.4+10528i	0	0
3.3849	721.31+2180.5i	3522.3+10648i	0	0
3.3998	688.54+2204.3i	3362.3+10764i	0	0
3.4148	655.19+2227.4i	3199.4+10877i	0	0
3.4297	621.35+2249.8i	3034.2+10986i	0	0
3.4446	587.63+2272.3i	2869.5+11096i	0	0
3.4595	551.8+2292i	2694.5+11192i	0	0
3.4744	517.42+2312.8i	2526.7+11294i	0	0
3.4893	482.99+2332.4i	2358.5+11390i	0	0
3.5042	448.89+2350.9i	2192+11480i	0	0
3.5191	414.91+2367.9i	2026.1+11563i	0	0
3.534	381.04+2383.4i	1860.7+11638i	0	0
3.549	346.97+2397.2i	1694.3+11706i	0	0
3.5639	312.71+2409.5i	1527+11766i	0	0
3.5788	278.12+2420.3i	1358.1+11819i	0	0
3.5937	243.83+2430.2i	1190.7+11867i	0	0
3.6086	207.19+2436.7i	1011.8+11899i	0	0
3.6235	172.06+2443.4i	840.19+11932i	0	0
3.6384	136.6+2448.9i	667.02+11958i	0	0
3.6533	101.68+2453.2i	496.5+11980i	0	0
3.6682	351.43+2377.1i	1716.1+11608i	0	0
3.6832	23.865+2454.2i	116.54+11984i	0	0
3.6981	-11.423+2454.6i	-55.779+11986i	0	0
3.713	-47.607+2453.2i	-232.47+11979i	0	0
3.7279	-84.041+2450.4i	-410.39+11966i	0	0
3.7428	-120.52+2446.2i	-588.53+11945i	0	0
3.7577	-157.01+2440.7i	-766.69+11918i	0	0
3.7726	-193.17+2434.2i	-943.29+11887i	0	0
3.7875	-230.25+2424.9i	-1124.4+11841i	0	0
3.8025	-266.35+2415.5i	-1300.6+11796i	0	0
3.8174	-302.45+2404.7i	-1476.9+11742i	0	0
3.8323	-338.35+2392.5i	-1652.2+11683i	0	0
3.8472	-374.11+2379i	-1826.8+11617i	0	0
3.8621	-409.57+2364.3i	-2000+11545i	0	0
3.877	-444.91+2348.3i	-2172.6+11467i	0	0
3.8919	-480.25+2331.5i	-2345.2+11385i	0	0
3.9068	-510.69+2309.9i	-2493.8+11280i	0	0
3.9217	-547.47+2292.2i	-2673.4+11193i	0	0
3.9367	-581.55+2271.6i	-2839.8+11093i	0	0
3.9516	-614.98+2249.9i	-3003.1+10987i	0	0
3.9665	-647.96+2227.2i	-3164.1+10876i	0	0
3.9814	-680.29+2203.5i	-3322+10760i	0	0
3.9963	-712.07+2178.9i	-3477.2+10640i	0	0
4.0112	-742.92+2153.5i	-3627.8+10516i	0	0
4.0261	-773.33+2127.4i	-3776.3+10388i	0	0
4.041	-802.88+2100.1i	-3920.6+10255i	0	0
4.0559	-831.81+2072.3i	-4061.9+10119i	0	0
4.0709	-860.07+2043.8i	-4199.9+9980.4i	0	0
4.0858	-887.69+2015.1i	-4334.8+9839.9i	0	0
4.1007	-914.59+1986.1i	-4466.1+9698.4i	0	0
4.1156	-940.35+1957i	-4591.9+9556.4i	0	0
4.1305	-966.03+1928.6i	-4717.3+9417.7i	0	0
4.1454	-990.61+1900.8i	-4837.4+9282i	0	0
4.1603	-1014.1+1874.1i	-4952.3+9151.6i	0	0
4.1752	-1036.7+1849.3i	-5062.3+9030.7i	0	0
4.1902	-1058+1827.3i	-5166.6+8922.9i	0	0
4.2051	-1078+1809.3i	-5264.1+8835.2i	0	0
4.22	-1096.2+1797.5i	-5352.9+8777.3i	0	0
4.2349	-1112+1795.4i	-5429.9+8767.3i	0	0
4.2498	-1124.4+1810i	-5490.8+8838.8i	0	0
4.2647	-1128.6+1858.4i	-5511.4+9075.2i	0	0
4.2796	-1116.1+1995i	-5450.3+9742.2i	0	0
4.2945	-991+2606.5i	-4839.3+12728i	0	0
4.3094	-1103.7-207.04i	-5389.5-1011i	0	0
4.3244	-1173.4+1111.9i	-5729.8+5429.8i	0	0
4.3393	-1118.5+1328.2i	-5461.9+6486.1i	0	0
4.3542	-1033.9+1417.2i	-5048.7+6920.3i	0	0
4.3691	-915.52+1441.5i	-4470.7+7039.1i	0	0
4.384	-778.51+1398.1i	-3801.6+6827.2i	0	0
4.3989	-657.93+1287.9i	-3212.8+6289.1i	0	0
4.4138	-584.12+1138.1i	-2852.4+5557.5i	0	0
4.4287	-559.5+984.86i	-2732.1+4809.3i	0	0
4.4436	-566.98+849.87i	-2768.7+4150.1i	0	0
4.4586	-588.73+737.98i	-2874.9+3603.7i	0	0
4.4735	-613.25+645.75i	-2994.6+3153.3i	0	0
4.4884	-635.3+568.61i	-3102.3+2776.6i	0	0
4.5033	-653.59+503.62i	-3191.6+2459.3i	0	0
4.5182	-670.16+452.1i	-3272.5+2207.7i	0	0
4.5331	-701.65+442.6i	-3426.3+2161.3i	0	0
4.548	-501.23+112.31i	-2447.6+548.44i	0	0
4.5629	-611.77+200.21i	-2987.4+977.68i	0	0
4.5779	-613.57+166.52i	-2996.2+813.15i	0	0
4.5928	-603+122.38i	-2944.6+597.6i	0	0
4.6077	-586.14+75.687i	-2862.3+369.6i	0	0
4.6226	-564.68+28.413i	-2757.4+138.75i	0	0
4.6375	-539.26-18.862i	-2633.3-92.106i	0	0
4.6524	-510.28-65.703i	-2491.8-320.84i	0	0
4.6673	-478.03-112.07i	-2334.3-547.25i	0	0
4.6822	-442.65-157.5i	-2161.5-769.08i	0	0
4.6971	-404.4-202.21i	-1974.8-987.41i	0	0
4.7121	-362.97-245.78i	-1772.5-1200.2i	0	0
4.727	-318.53-288.23i	-1555.5-1407.5i	0	0
4.7419	-270.91-329.56i	-1322.9-1609.3i	0	0
4.7568	-220.18-370.08i	-1075.2-1807.2i	0	0
4.7717	-166.4-409.26i	-812.55-1998.5i	0	0
4.7866	-109.85-447.54i	-536.4-2185.4i	0	0
4.8015	-50.051-483.65i	-244.41-2361.8i	0	0
4.8164	11.903-518.99i	58.126-2534.3i	0	0
4.8313	79.602-552.53i	388.71-2698.1i	0	0
4.8463	151.06-582.06i	737.65-2842.3i	0	0
4.8612	229.75-609.14i	1121.9-2974.6i	0	0
4.8761	322-629.3i	1572.4-3073i	0	0
4.891	454.43-633.6i	2219.1-3094i	0	0
4.9059	1042.1-513.3i	5088.6-2506.6i	0	0
4.9208	215.02-863.85i	1050-4218.3i	0	0
4.9357	433.04-813.35i	2114.6-3971.8i	0	0
4.9506	549.66-815.92i	2684.1-3984.3i	0	0
4.9656	647.65-826.19i	3162.6-4034.5i	0	0
4.9805	740.46-837.65i	3615.8-4090.4i	0	0
4.9954	831.56-848.05i	4060.7-4141.2i	0	0
5.0103	922.51-857.2i	4504.8-4185.9i	0	0
5.0252	1014.2-864i	4952.3-4219.1i	0	0
5.0401	1106.7-868.75i	5404.3-4242.3i	0	0
5.055	1200.5-870.73i	5862.3-4251.9i	0	0
5.0699	1295.5-870.28i	6326.3-4249.7i	0	0
5.0848	1392-867.01i	6797.5-4233.8i	0	0
5.0998	1489.6-860.63i	7274.1-4202.6i	0	0
5.1147	1588.6-851.05i	7757.4-4155.8i	0	0
5.1296	1688.7-838.55i	8246.5-4094.8i	0	0
5.1445	1790-822.44i	8741-4016.1i	0	0
5.1594	1892.1-802.99i	9239.6-3921.1i	0	0
5.1743	1994.5-779.06i	9739.3-3804.3i	0	0
5.1892	2092.5-747.05i	10218-3648i	0	0
5.2041	2226-741.43i	10870-3620.5i	0	0
5.2191	2320-697.68i	11329-3406.9i	0	0
5.234	2424-657.31i	11837-3209.8i	0	0
5.2489	2529.9-614.79i	12354-3002.1i	0	0
5.2638	2635.4-566.12i	12869-2764.5i	0	0
5.2787	2741.3-513.68i	13386-2508.4i	0	0
5.2936	2845-449.67i	13893-2195.8i	0	0
5.3085	2950.5-374.93i	14408-1830.9i	0	0
5.3234	3062.9-285.14i	14957-1392.4i	0	0
5.3383	3192.5-184.95i	15590-903.15i	0	0
5.3533	3342.6-88.197i	16323-430.69i	0	0
5.3682	3499.8-8.3722i	17090-40.883i	0	0
5.3831	3651.1+63.114i	17829+308.2i	0	0
5.398	3791.7+136.33i	18516+665.74i	0	0
5.4129	3928.2+211.74i	19182+1034i	0	0
5.4278	4062.3+302.38i	19837+1476.6i	0	0
5.4427	4200+404.34i	20509+1974.5i	0	0
5.4576	4350+529.69i	21242+2586.6i	0	0
5.4725	4583.6+760.35i	22383+3712.9i	0	0
5.4875	4395.6+331.3i	21465+1617.8i	0	0
5.5024	4630.4+673.86i	22611+3290.6i	0	0
5.5173	4784.4+828.94i	23363+4047.9i	0	0
5.5322	4926.9+966.74i	24059+4720.8i	0	0
5.5471	5066.6+1101.7i	24741+5379.8i	0	0
5.562	5208+1241.4i	25432+6062i	0	0
5.5769	5348+1380.7i	26116+6742.3i	0	0
5.5918	5490.2+1524.9i	26810+7446.3i	0	0
5.6068	5634.6+1673i	27515+8169.4i	0	0
5.6217	5781.3+1825.4i	28231+8913.6i	0	0
5.6366	5931.2+1981.6i	28963+9676.6i	0	0
5.6515	6084.4+2141.9i	29711+10459i	0	0
5.6664	6241.8+2305.8i	30480+11260i	0	0
5.6813	6402+2473.4i	31262+12078i	0	0
5.6962	6586.7+2647.8i	32164+12930i	0	0
5.7111	6723.1+2806.2i	32830+13703i	0	0
5.726	6913.8+2984.5i	33761+14574i	0	0
5.741	7102.8+3159.9i	34684+15430i	0	0
5.7559	7299.4+3334i	35644+16280i	0	0
5.7708	7505.3+3506.2i	36650+17121i	0	0
5.7857	7722.2+3674.1i	37709+17942i	0	0
5.8006	7951+3836.2i	38826+18733i	0	0
5.8155	8192.7+3988.8i	40007+19478i	0	0
5.8304	8446.8+4128.8i	41247+20162i	0	0
5.8453	8711.4+4251.7i	42539+20762i	0	0
5.8602	8985.9+4325.7i	43880+21123i	0	0
5.8752	9084.6+4651.7i	44362+22715i	0	0
5.8901	9927.6+4336.2i	48479+21174i	0	0
5.905	10105+4326.4i	49345+21127i	0	0
5.9199	10389+4241.1i	50731+20710i	0	0
5.9348	10670+4087.8i	52104+19962i	0	0
5.9497	10926+3872i	53354+18908i	0	0
5.9646	11147+3589.8i	54433+17530i	0	0
5.9795	11315+3230i	55255+15773i	0	0
5.9945	11397+2784.7i	55655+13598i	0	0
