0.00100000000000000	459.852867830424	22.9426433915212
0.00200000000000000	456.445544554455	45.5445544554455
0.00300000000000000	450.877750611247	67.4816625916870
0.00400000000000000	443.307692307692	88.4615384615385
0.00500000000000000	433.941176470588	108.235294117647
0.00600000000000000	423.018348623853	126.605504587156
0.00700000000000000	410.799554565702	143.429844097996
0.00800000000000000	397.551724137931	158.620689655172
0.00900000000000000	383.536382536383	172.141372141372
0.0100000000000000	369	184
0.0110000000000000	354.166986564299	194.241842610365
0.0120000000000000	339.235294117647	202.941176470588
0.0130000000000000	324.374340949033	210.193321616872
0.0140000000000000	309.724832214765	216.107382550336
0.0150000000000000	295.400000000000	220.800000000000
0.0160000000000000	281.487804878049	224.390243902439
0.0170000000000000	268.053701015965	226.995645863570
0.0180000000000000	255.143646408840	228.729281767956
0.0190000000000000	242.787122207622	229.697766097241
0.0200000000000000	231.000000000000	230.000000000000
0.0210000000000000	219.787158145065	229.726516052319
0.0220000000000000	209.144796380091	228.959276018100
0.0230000000000000	199.062432723358	227.771797631862
0.0240000000000000	189.524590163934	226.229508196721
0.0250000000000000	180.512195121951	224.390243902439
0.0260000000000000	172.003717472119	222.304832713755
0.0270000000000000	163.976085031001	220.017714791851
0.0280000000000000	156.405405405405	217.567567567568
0.0290000000000000	149.267526188558	214.987912973409
0.0300000000000000	142.538461538462	212.307692307692
0.0310000000000000	136.194709772226	209.551800146951
0.0320000000000000	130.213483146067	206.741573033708
0.0330000000000000	124.572867696441	203.895231699127
0.0340000000000000	119.251928020566	201.028277634961
0.0350000000000000	114.230769230769	198.153846153846
0.0360000000000000	109.490566037736	195.283018867925
0.0370000000000000	105.013566986998	192.425098925947
0.0380000000000000	100.783080260304	189.587852494577
0.0390000000000000	96.7834461218116	186.777719937533
0.0400000000000000	93.0000000000000	184.000000000000
0.0410000000000000	89.4190293128304	181.259010091302
0.0420000000000000	86.0277264325324	178.558225508318
0.0430000000000000	82.8141396176079	175.900400177857
0.0440000000000000	79.7671232876713	173.287671232877
0.0450000000000000	76.8762886597938	170.721649484536
0.0460000000000000	74.1319554848967	168.203497615262
0.0470000000000000	71.5251054043695	165.733997700268
0.0480000000000000	69.0473372781065	163.313609467456
0.0490000000000000	66.6908247054623	160.942520528383
0.0500000000000000	64.4482758620690	158.620689655172
0.0510000000000000	62.3128957014329	156.347884038654
0.0520000000000000	60.2783505154639	154.123711340206
0.0530000000000000	58.3387348083515	151.947647242132
0.0540000000000000	56.4885404101327	149.819059107358
0.0550000000000000	54.7226277372263	147.737226277372
0.0560000000000000	53.0361990950226	145.701357466063
0.0570000000000000	51.4247739106605	143.710605645382
0.0580000000000000	49.8841657810840	141.764080765143
0.0590000000000000	48.4104612213347	139.860860602937
0.0600000000000000	47.0000000000000	138.000000000000
0.0610000000000000	45.6493569521961	136.180538704198
0.0620000000000000	44.3553251649388	134.401508011310
0.0630000000000000	43.1149004348821	132.661936369879
0.0640000000000000	41.9252669039146	130.960854092527
0.0650000000000000	40.7837837837838	129.297297297297
0.0660000000000000	39.6879730866274	127.670311185870
0.0670000000000000	38.6355082839026	126.078952751074
0.0680000000000000	37.6242038216561	124.522292993631
0.0690000000000000	36.6520054253052	122.999418717303
0.0700000000000000	35.7169811320755	121.509433962264
0.0710000000000000	34.8173129939350	120.051461128469
0.0720000000000000	33.9512893982808	118.624641833811
0.0730000000000000	33.1172979577588	117.228137545820
0.0740000000000000	32.3138189244384	115.861130020422
0.0750000000000000	31.5394190871369	114.522821576764
0.0760000000000000	30.7927461139896	113.212435233161
0.0770000000000000	30.0725233054195	111.929214725865
0.0780000000000000	29.3775447254781	110.672424429365
0.0790000000000000	28.7066706821262	109.441349194398
0.0800000000000000	28.0588235294118	108.235294117647
0.0810000000000000	27.4329837667002	107.053584255136
0.0820000000000000	26.8281864121280	105.895564289725
0.0830000000000000	26.2435176293044	104.760598161613
0.0840000000000000	25.6781115879828	103.648068669528
0.0850000000000000	25.1311475409836	102.557377049180
0.0860000000000000	24.6018471010775	101.487942534633
0.0870000000000000	24.0894717028485	100.439201907391
0.0880000000000000	23.5933202357564	99.4106090373281
0.0890000000000000	23.1127268357169	98.4016344189401
0.0900000000000000	22.6470588235294	97.4117647058824
0.0910000000000000	22.1957147794033	96.4405022462850
0.0920000000000000	21.7581227436823	95.4873646209387
0.0930000000000000	21.3337385346447	94.5518841860979
0.0940000000000000	20.9220441749675	93.6336076223474
0.0950000000000000	20.5225464190981	92.7320954907162
0.0960000000000000	20.1347753743760	91.8469217970050
0.0970000000000000	19.7582832092976	90.9776735650933
0.0980000000000000	19.3926429428229	90.1239504198321
0.0990000000000000	19.0374473090873	89.2853641799824
0.100000000000000	18.6923076923077	88.4615384615385
