                        Xdip/real
----------------------------------------------------------------------
                       0                              -0
            0.0051195721                        4776.128
             0.010239144                       8391.8287
             0.015358716                       10007.927
             0.020478289                       9337.8135
             0.025597861                       6724.1164
             0.030717433                       3039.3884
             0.035837005                      -561.16238
             0.040956577                      -2965.4001
             0.046076149                       -3416.977
             0.051195721                      -1727.2725
             0.056315293                        1672.862
             0.061434866                        5855.951
             0.066554438                       9660.6694
              0.07167401                       12020.558
             0.076793582                       12266.155
             0.081913154                       10315.471
             0.087032726                       6699.1201
             0.092152298                       2412.8916
             0.097271871                      -1360.9256
              0.10239144                      -3585.1772
              0.10751101                      -3659.1919
              0.11263059                      -1587.8148
              0.11775016                       2019.5929
              0.12286973                       6120.1477
               0.1279893                       9530.5794
              0.13310888                        11260.24
              0.13822845                       10790.381
              0.14334802                       8221.0593
              0.14846759                       4244.1385
              0.15358716                      -50.308588
              0.15870674                      -3480.0307
              0.16382631                       -5103.166
              0.16894588                      -4483.8355
              0.17406545                       -1815.904
              0.17918502                        2130.206
               0.1843046                       6223.0647
              0.18942417                       9287.8663
              0.19454374                       10437.008
              0.19966331                       9320.6424
              0.20478289                       6226.5058
              0.20990246                       2000.5707
              0.21502203                      -2189.6233
               0.2201416                      -5182.7795
              0.22526117                      -6150.8059
              0.23038075                      -4832.9293
              0.23550032                      -1610.8216
              0.24061989                       2596.8668
              0.24573946                       6591.4328
              0.25085903                       9230.6751
              0.25597861                       9750.6273
              0.26109818                       7981.8886
              0.26621775                       4399.3331
              0.27133732                      -9.3526039
               0.2764569                      -4019.9313
              0.28157647                      -6515.4478
              0.28669604                      -6801.1179
              0.29181561                      -4801.5598
              0.29693518                      -1084.4264
              0.30205476                        3296.873
              0.30717433                        7097.804
               0.3122939                       9232.3247
              0.31741347                       9079.3254
              0.32253304                       6659.4788
              0.32765262                       2632.1907
              0.33277219                      -1887.2577
              0.33789176                      -5639.6977
              0.34301133                      -7575.9654
              0.34813091                      -7153.2967
              0.35325048                      -4490.5542
              0.35837005                      -337.94658
              0.36348962                       4131.1153
              0.36860919                       7648.3078
              0.37372877                       9207.0321
              0.37884834                       8347.1818
              0.38396791                       5287.5406
              0.38908748                       867.77253
              0.39420705                      -3684.6636
              0.39932663                      -7098.0112
               0.4044462                      -8414.0564
              0.40956577                      -7259.6969
              0.41468534                        -3955.34
              0.41980492                       571.28702
              0.42492449                       5042.7727
              0.43004406                       8189.6002
              0.43516363                       9107.6376
               0.4402832                       7514.9501
              0.44540278                       3835.0621
              0.45052235                      -917.82002
              0.45564192                      -5420.5615
              0.46076149                       -8411.605
              0.46588106                       -9046.549
              0.47100064                      -7138.6584
              0.47612021                      -3215.8834
              0.48123978                       1622.8762
              0.48635935                       6013.1741
              0.49147892                       8707.2733
               0.4965985                       8926.2443
              0.50171807                       6582.6434
              0.50683764                       2310.2074
              0.51195721                      -2709.1736
              0.51707679                      -7074.0077
              0.52219636                      -9556.0019
              0.52731593                      -9447.1007
               0.5324355                      -6762.8015
              0.53755507                      -2243.4623
              0.54267465                       2848.3291
              0.54779422                       7078.9257
              0.55291379                       9245.7432
              0.55803336                       8717.6485
              0.56315293                       5617.3887
              0.56827251                       793.46862
              0.57339208                      -4412.3551
              0.57851165                       -8538.288
              0.58363122                      -10412.663
               0.5887508                      -9486.0369
              0.59387037                      -5991.1786
              0.59898994                      -884.45739
              0.60410951                       4416.7978
              0.60922908                       8428.9425
              0.61434866                       10018.899
              0.61946823                       8726.2842
               0.6245878                       4899.3847
              0.62970737                      -394.95235
              0.63482694                      -5664.2416
              0.63994652                      -9405.6381
              0.64506609                      -10527.978
              0.65018566                       -8662.016
              0.65530523                      -4270.6065
              0.66042481                       1474.0242
              0.66554438                       7013.6331
              0.67066395                       10838.967
              0.67578352                       11915.233
              0.68090309                       9978.3887
              0.68602267                       5617.8031
              0.69114224                       120.11531
              0.69626181                      -4883.9602
              0.70138138                      -7872.3131
              0.70650095                       -7857.136
              0.71162053                      -4663.6065
               0.7167401                       1018.1907
              0.72185967                       7824.7065
              0.72697924                       14101.938
              0.73209882                       18373.812
              0.73721839                       19764.875
              0.74233796                       18258.247
              0.74745753                       14715.698
               0.7525771                       10653.842
              0.75769668                       7839.9181
              0.76281625                       7822.6645
              0.76793582                        11533.15
              0.77305539                       19071.072
              0.77817496                        29738.77
              0.78329454                       42312.742
              0.78841411                       55471.342
              0.79353368                       68248.215
              0.79865325                       80368.929
              0.80377283                        92357.91
               0.8088924                       105367.13
              0.81401197                       120759.95
              0.81913154                       139559.88
              0.82425111                       161922.95
              0.82937069                       186797.97
              0.83449026                       211897.98
              0.83960983                       234026.98
               0.8447294                       249709.42
              0.84984897                       255981.78
              0.85496855                        251149.7
              0.86008812                       235309.37
              0.86520769                       210480.04
              0.87032726                       180287.21
              0.87544684                       149248.67
              0.88056641                       121820.86
              0.88568598                       101431.56
              0.89080555                       89737.342
              0.89592512                       86296.254
               0.9010447                       88746.486
              0.90616427                       93456.139
              0.91128384                       96488.407
              0.91640341                       94642.424
              0.92152298                       86305.249
              0.92664256                       71893.025
              0.93176213                       53759.935
               0.9368817                       35587.833
              0.94200127                       21403.663
              0.94712084                       14471.624
              0.95224042                       16346.241
              0.95735999                       26339.655
              0.96247956                       41558.276
              0.96759913                       57523.898
              0.97271871                       69246.731
              0.97783828                       72499.446
              0.98295785                       64982.232
              0.98807742                       47084.841
              0.99319699                       22039.893
              0.99831657                      -4598.0321
               1.0034361                      -26054.164
               1.0085557                      -35783.388
               1.0136753                      -28948.783
               1.0187949                      -3596.4641
               1.0239144                       38741.939
                1.029034                       93162.408
               1.0341536                       152202.86
               1.0392731                       207190.84
               1.0443927                       249842.69
               1.0495123                       273782.17
               1.0546319                       275670.71
               1.0597514                        255731.4
                1.064871                       217582.95
               1.0699906                       167446.12
               1.0751101                       112911.13
               1.0802297                       61533.664
               1.0853493                       19544.421
               1.0904689                      -9085.9718
               1.0955884                      -23076.233
                1.100708                      -23722.376
               1.1058276                      -14321.242
               1.1109472                       707.77594
               1.1160667                       16796.996
               1.1211863                       30099.086
               1.1263059                       38093.997
               1.1314254                       39850.497
                1.136545                         35939.1
               1.1416646                       28063.661
               1.1467842                       18525.803
               1.1519037                       9653.0576
               1.1570233                       3309.2497
               1.1621429                       571.28243
               1.1672624                        1610.849
                1.172382                       5773.8794
               1.1775016                         11813.9
               1.1826212                       18213.377
               1.1877407                       23520.875
               1.1928603                       26639.457
               1.1979799                       27018.974
               1.2030995                       24727.077
                1.208219                       20396.572
               1.2133386                       15067.132
               1.2184582                       9955.3108
               1.2235777                       6197.1321
               1.2286973                       4611.3653
               1.2338169                       5528.3788
               1.2389365                       8718.9368
                1.244056                       13440.032
               1.2491756                        18592.76
               1.2542952                       22963.802
               1.2594147                       25501.921
               1.2645343                       25569.177
               1.2696539                       23107.259
               1.2747735                       18674.187
                1.279893                       13333.985
               1.2850126                       8416.4071
               1.2901322                       5197.5002
               1.2952518                       4575.8522
               1.3003713                       6826.3666
               1.3054909                       11499.742
               1.3106105                       17503.098
                 1.31573                       23352.344
               1.3208496                       27540.983
               1.3259692                       28935.311
               1.3310888                       27092.844
               1.3362083                       22414.508
               1.3413279                       16079.987
               1.3464475                       9770.8598
                1.351567                       5243.8567
               1.3566866                       3861.0254
               1.3618062                       6201.7491
               1.3669258                       11866.677
               1.3720453                       19537.668
               1.3771649                       27291.535
               1.3822845                       33095.716
                1.387404                       35360.001
               1.3925236                        33395.97
               1.3976432                       27652.867
               1.4027628                       19652.891
               1.4078823                       11627.402
               1.4130019                       5938.1436
               1.4181215                       4431.4866
               1.4232411                       7900.4623
               1.4283606                        15809.23
               1.4334802                       26370.798
               1.4385998                       36976.293
               1.4437193                       44876.906
               1.4488389                       47944.201
               1.4539585                       45302.906
               1.4590781                       37653.557
               1.4641976                       27177.216
               1.4693172                       17023.282
               1.4744368                       10496.207
               1.4795563                       10146.845
               1.4846759                       17013.199
               1.4897955                       30230.114
               1.4949151                       47141.188
               1.5000346                       63918.731
               1.5051542                       76560.889
               1.5102738                       82025.183
               1.5153934                       79205.241
               1.5205129                       69479.408
               1.5256325                       56654.098
               1.5307521                       46270.171
               1.5358716                       44401.697
               1.5409912                       56212.373
               1.5461108                       84609.395
               1.5512304                       129326.62
               1.5563499                       186677.33
               1.5614695                       250062.87
               1.5665891                       311143.76
               1.5717086                       361419.77
               1.5768282                       393864.85
               1.5819478                       404248.44
               1.5870674                       391850.04
               1.5921869                       359421.03
               1.5973065                       312429.34
               1.6024261                       257791.88
               1.6075457                       202415.21
               1.6126652                        151896.6
               1.6177848                       109679.02
               1.6229044                       76822.527
               1.6280239                       52385.267
               1.6331435                        34247.49
               1.6382631                       20103.113
               1.6433827                       8315.0053
               1.6485022                      -1611.8422
               1.6536218                      -9058.0179
               1.6587414                      -12777.894
               1.6638609                      -11662.853
               1.6689805                      -5505.4162
               1.6741001                       4515.1704
               1.6792197                       15824.041
               1.6843392                       24970.484
               1.6894588                       28558.612
               1.6945784                       24327.583
               1.6996979                       12046.956
               1.7048175                      -6083.7932
               1.7099371                      -25722.933
               1.7150567                      -41365.148
               1.7201762                      -47808.795
               1.7252958                      -41742.305
               1.7304154                      -23003.294
                1.735535                       4894.0221
               1.7406545                       35207.954
               1.7457741                       59397.052
               1.7508937                       69261.363
               1.7560132                       59310.788
               1.7611328                       28760.916
               1.7662524                      -17409.818
                1.771372                      -68725.109
               1.7764915                      -110885.13
               1.7816111                      -128595.01
               1.7867307                      -108986.33
               1.7918502                      -44879.792
               1.7969698                       62884.287
               1.8020894                       204658.41
                1.807209                       363037.06
               1.8123285                       515633.33
               1.8174481                       639076.87
               1.8225677                        713430.5
               1.8276873                       726098.88
               1.8328068                       674386.11
               1.8379264                       566134.71
                1.843046                       418287.25
               1.8481655                       253660.38
               1.8532851                       96608.514
               1.8584047                      -31509.411
               1.8635243                      -116114.95
               1.8686438                       -151680.5
               1.8737634                      -142065.35
                1.878883                      -98930.756
               1.8840025                          -38666
               1.8891221                       21433.761
               1.8942417                       66866.036
               1.8993613                       88695.857
               1.9044808                        84857.84
               1.9096004                       59801.747
                 1.91472                       22687.864
               1.9198396                      -15339.496
               1.9249591                      -44091.157
               1.9300787                      -56772.232
               1.9351983                      -51375.219
               1.9403178                      -30769.075
               1.9454374                      -1560.3204
                1.950557                        27901.69
               1.9556766                       49815.533
               1.9607961                        58916.41
               1.9659157                       53677.421
               1.9710353                       36466.339
               1.9761548                       12681.332
               1.9812744                      -10851.303
                1.986394                      -27760.431
               1.9915136                      -33789.438
               1.9966331                      -27810.791
               2.0017527                      -11963.603
               2.0068723                       9078.2518
               2.0119918                       29473.139
               2.0171114                       43823.964
                2.022231                       48599.002
               2.0273506                       42993.939
               2.0324701                       29030.639
               2.0375897                       10898.168
               2.0427093                      -6258.1879
               2.0478289                       -17755.99
               2.0529484                      -20616.785
                2.058068                      -14304.923
               2.0631876                      -785.04131
               2.0683071                       16093.019
               2.0734267                       31694.102
               2.0785463                       41871.607
               2.0836659                       44068.235
               2.0887854                       37953.954
                2.093905                       25444.389
               2.0990246                       10113.549
               2.1041441                      -3823.3107
               2.1092637                      -12670.783
               2.1143833                      -14241.955
               2.1195029                      -8413.3072
               2.1246224                       2891.8566
                2.129742                       16272.027
               2.1348616                       27800.892
               2.1399812                       34099.156
               2.1451007                       33233.311
               2.1502203                       25203.626
               2.1553399                       11899.972
               2.1604594                      -3449.8059
                2.165579                      -17178.166
               2.1706986                      -26172.407
               2.1758182                      -28694.762
               2.1809377                      -24810.468
               2.1860573                      -16316.688
               2.1911769                      -6202.1881
               2.1962964                       2206.2528
                2.201416                        6173.232
               2.2065356                       4306.5853
               2.2116552                      -3068.8368
               2.2167747                      -14010.196
               2.2218943                      -25493.768
               2.2270139                      -34237.615
               2.2321335                      -37582.756
                2.237253                      -34193.621
               2.2423726                      -24391.131
               2.2474922                       -10033.71
               2.2526117                       6015.3889
               2.2577313                       20685.235
               2.2628509                       31540.794
               2.2679705                       37445.683
                 2.27309                       38868.975
               2.2782096                       37759.234
               2.2833292                       37026.326
               2.2884487                       39776.119
               2.2935683                       48506.963
               2.2986879                       64483.349
               2.3038075                       87450.441
                2.308927                       115758.08
               2.3140466                       146850.71
               2.3191662                       177980.83
               2.3242857                       206944.81
               2.3294053                       232636.51
               2.3345249                       255266.42
               2.3396445                        276187.6
                2.344764                       297378.42
               2.3498836                       320727.38
               2.3550032                       347320.09
               2.3601228                       376930.02
               2.3652423                        407860.9
               2.3703619                       437195.42
               2.3754815                       461396.51
                2.380601                       477112.89
               2.3857206                        481984.9
               2.3908402                       475243.92
               2.3959598                       457950.54
               2.4010793                       432807.22
               2.4061989                       403589.49
               2.4113185                       374334.48
                2.416438                       348485.55
               2.4215576                       328199.38
               2.4266772                       313978.16
               2.4317968                       304705.46
               2.4369163                       298062.44
               2.4420359                       291208.15
               2.4471555                        281546.8
               2.4522751                        267390.4
               2.4573946                       248359.79
               2.4625142                       225439.46
               2.4676338                       200692.43
               2.4727533                       176725.79
               2.4778729                       156055.04
               2.4829925                        140531.6
               2.4881121                       130970.99
               2.4932316                       127058.48
               2.4983512                       127532.34
               2.5034708                       130572.81
               2.5085903                       134277.57
               2.5137099                       137091.71
               2.5188295                        138084.7
               2.5239491                       137018.85
               2.5290686                       134217.55
               2.5341882                       130298.13
               2.5393078                       125868.38
               2.5444274                       121287.97
               2.5495469                       116567.84
               2.5546665                       111431.34
               2.5597861                       105505.76
               2.5649056                       98569.798
               2.5700252                       90763.246
               2.5751448                       82676.769
               2.5802644                       75277.585
               2.5853839                       69680.309
               2.5905035                        66824.53
               2.5956231                       67155.787
               2.6007426                       70413.102
               2.6058622                       75601.033
               2.6109818                       81173.622
               2.6161014                       85395.707
               2.6212209                       86791.693
               2.6263405                       84559.766
               2.6314601                        78831.15
               2.6365796                       70690.611
               2.6416992                       61937.073
               2.6468188                       54635.276
               2.6519384                       50570.816
               2.6570579                       50753.736
               2.6621775                        55109.59
               2.6672971                       62451.608
               2.6724167                        70754.21
               2.6775362                       77665.902
               2.6826558                       81131.087
               2.6877754                       79954.959
               2.6928949                       74154.627
               2.6980145                       64992.098
               2.7031341                       54668.014
               2.7082537                       45747.267
               2.7133732                        40463.86
               2.7184928                       40091.022
               2.7236124                       44551.716
               2.7287319                       52385.348
               2.7338515                       61093.267
               2.7389711                       67782.727
               2.7440907                       69944.258
               2.7492102                       66154.665
               2.7543298                       56510.404
               2.7594494                        42662.48
                2.764569                       27428.205
               2.7696885                       14070.012
               2.7748081                       5426.1202
               2.7799277                       3125.5796
               2.7850472                       7106.1844
               2.7901668                       15579.386
               2.7952864                       25469.553
                2.800406                       33225.871
               2.8055255                        35798.65
               2.8106451                       31517.731
               2.8157647                       20626.161
               2.8208842                       5306.0631
               2.8260038                      -10834.227
               2.8311234                      -23695.886
                2.836243                      -29810.394
               2.8413625                      -27344.839
               2.8464821                      -16707.558
               2.8516017                      -564.91259
               2.8567213                       16768.391
               2.8618408                       30433.047
               2.8669604                       36347.439
                 2.87208                       32396.939
               2.8771995                       19154.052
               2.8823191                      -99.012863
               2.8874387                      -20097.386
               2.8925583                      -34920.828
               2.8976778                      -39597.871
               2.9027974                      -31565.316
                2.907917                      -11570.125
               2.9130365                       16279.364
               2.9181561                       45399.537
               2.9232757                       68397.193
               2.9283953                       79136.529
               2.9335148                       74691.468
               2.9386344                       56653.627
                2.943754                        31388.26
               2.9488735                         9065.69
               2.9539931                       1591.6795
               2.9591127                       19846.059
               2.9642323                       70842.494
               2.9693518                       155488.31
               2.9744714                       267527.77
                2.979591                       394009.87
               2.9847106                       517284.32
               2.9898301                       618173.89
               2.9949497                       679681.81
               3.0000693                       690442.27
               3.0051888                       647149.11
               3.0103084                       555404.07
                3.015428                       428764.98
               3.0205476                       286172.44
               3.0256671                       148296.25
               3.0307867                       33586.321
               3.0359063                      -45122.092
               3.0410258                      -82727.931
               3.0461454                      -82282.128
                3.051265                      -53666.995
               3.0563846                       -10894.69
               3.0615041                       31312.637
               3.0666237                       60853.474
               3.0717433                       70728.518
               3.0768629                       60139.763
               3.0819824                       34021.478
                3.087102                       1200.7859
               3.0922216                      -28289.301
               3.0973411                      -46032.769
               3.1024607                      -47469.204
               3.1075803                      -32998.152
               3.1126999                      -7702.8249
               3.1178194                       20194.435
                3.122939                       41709.414
               3.1280586                       49663.618
               3.1331781                       40759.954
               3.1382977                       16619.133
               3.1434173                      -16497.072
               3.1485369                      -49208.443
               3.1536564                      -71396.173
                3.158776                       -74831.05
               3.1638956                      -55377.309
               3.1690152                      -14207.045
               3.1741347                       42289.435
               3.1792543                       103883.13
               3.1843739                       158838.13
               3.1894934                       196621.57
                3.194613                       210327.27
               3.1997326                        198224.7
               3.2048522                       164067.77
               3.2099717                       116107.97
               3.2150913                       65075.901
               3.2202109                       21643.132
               3.2253304                      -6008.6441
                 3.23045                      -13927.308
               3.2355696                       -3043.093
               3.2406892                       21379.788
               3.2458087                       51305.077
               3.2509283                       78067.273
               3.2560479                       94534.953
               3.2611674                       96753.214
                3.266287                        84680.02
               3.2714066                       61880.331
               3.2765262                       34316.533
               3.2816457                       8601.6422
               3.2867653                      -9794.9082
               3.2918849                      -17909.626
               3.2970045                      -15873.516
                3.302124                      -6608.7414
               3.3072436                       5236.7389
               3.3123632                         14782.1
               3.3174827                       18392.721
               3.3226023                       14721.672
               3.3277219                       5024.8892
               3.3328415                      -7325.4044
                3.337961                      -17972.905
               3.3430806                      -23013.422
               3.3482002                      -20305.255
               3.3533197                       -10257.48
               3.3584393                       4153.9246
               3.3635589                       18173.465
               3.3686785                       26657.094
                3.373798                       25687.003
               3.3789176                       13952.456
               3.3840372                      -6514.0724
               3.3891568                      -30494.554
               3.3942763                      -50651.175
               3.3993959                      -59268.374
               3.4045155                      -50247.458
                3.409635                      -20844.627
               3.4147546                       27310.853
               3.4198742                       88214.007
               3.4249938                       152544.46
               3.4301133                       209571.14
               3.4352329                       249466.82
               3.4403525                        265487.6
                3.445472                       255496.26
               3.4505916                       222461.53
               3.4557112                       173809.37
               3.4608308                        119776.9
               3.4659503                       71156.044
               3.4710699                       36955.155
               3.4761895                       22517.983
               3.4813091                       28521.349
               3.4864286                       51055.552
               3.4915482                       82731.498
               3.4966678                       114519.56
               3.5017873                       137865.17
               3.5069069                       146581.29
               3.5120265                       138094.11
               3.5171461                       113793.07
               3.5222656                       78460.651
               3.5273852                        38975.79
               3.5325048                         2642.86
               3.5376243                      -24438.705
               3.5427439                      -38590.598
               3.5478635                       -39113.21
               3.5529831                      -28118.464
               3.5581026                      -9751.2515
               3.5632222                        10951.73
               3.5683418                       29256.069
               3.5734614                       41689.719
               3.5785809                       46574.974
               3.5837005                       44070.411
               3.5888201                       35793.581
               3.5939396                        24192.98
               3.5990592                       11877.495
               3.6041788                       1088.2635
               3.6092984                      -6575.1717
               3.6144179                       -10159.14
               3.6195375                      -9164.3397
               3.6246571                      -3287.5252
               3.6297766                       7767.8093
               3.6348962                       24316.163
               3.6400158                       46526.256
               3.6451354                       74123.162
               3.6502549                       106069.88
               3.6553745                       140362.54
               3.6604941                       174049.14
               3.6656136                        203519.4
               3.6707332                       225032.93
               3.6758528                       235378.42
               3.6809724                       232511.03
               3.6860919                       216012.96
               3.6912115                       187263.33
               3.6963311                        149276.4
               3.7014507                       106250.27
               3.7065702                       62936.624
               3.7116898                       23977.391
               3.7168094                      -6653.3852
               3.7219289                       -26009.99
               3.7270485                      -32312.984
               3.7321681                      -24907.373
               3.7372877                      -4128.6429
               3.7424072                       28827.302
               3.7475268                       71964.448
               3.7526464                        122468.5
               3.7577659                       176664.64
               3.7628855                       230050.09
               3.7680051                       277507.39
               3.7731247                        313765.5
               3.7782442                       334099.46
               3.7833638                       335166.59
               3.7884834                       315797.75
                3.793603                       277524.93
               3.7987225                       224650.88
               3.8038421                       163754.12
               3.8089617                       102656.52
               3.8140812                       49027.341
               3.8192008                       8916.0907
               3.8243204                      -14440.717
                 3.82944                      -21228.541
               3.8345595                      -14891.358
               3.8396791                       -1191.638
               3.8447987                       13309.265
               3.8499182                       22988.647
               3.8550378                        24675.73
               3.8601574                       18530.586
                3.865277                       8022.9062
               3.8703965                      -1029.6714
               3.8755161                      -2152.4422
               3.8806357                       9788.8011
               3.8857553                       36817.585
               3.8908748                       76813.024
               3.8959944                       123557.87
                3.901114                       167945.89
               3.9062335                       200119.12
               3.9113531                       212038.48
               3.9164727                       199837.33
               3.9215923                       165315.08
               3.9267118                       116104.47
               3.9318314                       64356.112
                3.936951                       24155.498
               3.9420705                       8226.8049
               3.9471901                       24697.588
               3.9523097                       74734.117
               3.9574293                       151691.08
               3.9625488                       242082.65
               3.9676684                       328251.29
                3.972788                       392188.73
               3.9779075                       419656.91
               3.9830271                       403644.41
               3.9881467                       346312.24
               3.9932663                        258910.4
               3.9983858                       159610.33
               4.0035054                       69688.825
                4.008625                        8899.371
               4.0137446                      -8923.4886
               4.0188641                       20985.544
               4.0239837                       93155.615
               4.0291033                       192982.76
               4.0342228                       299865.97
               4.0393424                       391668.38
                4.044462                       449489.91
               4.0495816                       461669.41
               4.0547011                       426120.48
               4.0598207                       350499.59
               4.0649403                        250212.8
               4.0700598                       144767.06
               4.0751794                       53344.677
                4.080299                      -9362.3303
               4.0854186                      -36109.981
               4.0905381                      -28215.762
               4.0956577                       5355.1518
               4.1007773                       50629.344
               4.1058969                       92290.885
               4.1110164                       117456.09
                4.116136                       118649.76
               4.1212556                       95303.547
               4.1263751                        53482.08
               4.1314947                       3985.2494
               4.1366143                        -40633.6
               4.1417339                      -69348.817
               4.1468534                      -75414.379
                4.151973                      -57920.294
               4.1570926                      -21808.753
               4.1622121                       23597.953
               4.1673317                       67134.353
               4.1724513                       98715.372
               4.1775709                       111890.04
               4.1826904                       105381.66
                 4.18781                       83241.654
               4.1929296                       53602.822
               4.1980492                       26372.417
               4.2031687                       10469.949
               4.2082883                        11324.93
               4.2134079                       29282.225
               4.2185274                        59336.69
                4.223647                       92291.344
               4.2287666                       117084.55
               4.2338862                       123744.58
               4.2390057                       106271.24
               4.2441253                       64748.489
               4.2492449                       6156.9385
               4.2543644                      -56360.899
                4.259484                      -105689.85
               4.2646036                      -123974.98
               4.2697232                      -96258.013
               4.2748427                      -13783.949
               4.2799623                       123696.51
               4.2850819                       307108.75
               4.2902014                        518913.3
                4.295321                       735515.57
               4.3004406                       930810.89
               4.3055602                       1080244.4
               4.3106797                       1164679.3
               4.3157993                       1173410.5
               4.3209189                       1105820.6
               4.3260385                       971416.16
                4.331158                       788264.05
               4.3362776                       580113.38
               4.3413972                       372702.09
               4.3465167                       189869.19
               4.3516363                       50110.357
               4.3567559                      -35875.113
               4.3618755                      -66276.508
                4.366995                      -47770.708
               4.3721146                       6249.0101
               4.3772342                        78460.15
               4.3823537                       150892.43
               4.3874733                       208107.15
               4.3925929                       239710.61
               4.3977125                       241772.45
                4.402832                       216933.66
               4.4079516                       173242.73
               4.4130712                       122003.74
               4.4181908                       75108.844
               4.4233103                       42420.461
               4.4284299                       29745.147
               4.4335495                       37805.012
                4.438669                       62390.545
               4.4437886                        95618.16
               4.4489082                        127973.3
               4.4540278                       150649.68
               4.4591473                       157636.43
               4.4642669                       147071.96
               4.4693865                       121561.54
                4.474506                       87404.395
               4.4796256                       52936.635
               4.4847452                       26407.083
               4.4898648                       13912.429
               4.4949843                       17899.586
               4.5001039                       36600.167
               4.5052235                       64529.318
               4.5103431                       93915.898
               4.5154626                       116698.93
               4.5205822                       126584.49
               4.5257018                       120643.58
               4.5308213                        100048.6
               4.5359409                       69765.228
               4.5410605                        37281.93
               4.5461801                       10703.902
               4.5512996                      -3300.4062
               4.5564192                      -1175.7524
               4.5615388                       16646.957
               4.5666583                       45900.389
               4.5717779                       79608.807
               4.5768975                       109898.47
               4.5820171                        130019.7
               4.5871366                       136057.43
               4.5922562                       127890.05
               4.5973758                       109153.47
               4.6024953                       86226.982
               4.6076149                       66511.756
               4.6127345                        56455.68
               4.6178541                       59841.963
               4.6229736                       76787.147
               4.6280932                       103706.34
               4.6332128                       134249.02
               4.6383324                       160955.01
               4.6434519                       177193.18
               4.6485715                       178874.81
               4.6536911                       165496.06
               4.6588106                       140243.57
               4.6639302                       109144.65
               4.6690498                       79494.207
               4.6741694                       57977.256
               4.6792889                       48981.029
               4.6844085                       53534.279
               4.6895281                        69140.66
               4.6946476                       90533.649
               4.6997672                       111136.91
               4.7048868                       124830.92
               4.7100064                       127552.04
               4.7151259                       118302.66
               4.7202455                       99315.091
               4.7253651                       75342.385
               4.7304847                       52284.021
               4.7356042                       35530.218
               4.7407238                       28479.347
               4.7458434                       31630.649
               4.7509629                       42494.478
               4.7560825                        56338.76
               4.7612021                       67563.814
               4.7663217                       71328.988
               4.7714412                       64988.184
               4.7765608                       48944.194
               4.7816804                       26688.275
               4.7867999                       4008.8451
               4.7919195                      -12427.112
               4.7970391                      -16752.675
               4.8021587                      -5407.2669
               4.8072782                        21912.67
               4.8123978                       62093.649
               4.8175174                       109264.47
                4.822637                       156094.74
               4.8277565                       195396.01
               4.8328761                       221624.41
               4.8379957                       231925.27
               4.8431152                       226493.06
               4.8482348                       208205.48
               4.8533544                       181678.12
                4.858474                       152024.32
               4.8635935                       123660.72
               4.8687131                       99460.078
               4.8738327                       80435.187
               4.8789522                       65977.462
               4.8840718                       54517.134
               4.8891914                       44363.108
                4.894311                       34447.443
               4.8994305                       24748.167
               4.9045501                        16276.96
               4.9096697                       10659.667
               4.9147892                       9464.9939
               4.9199088                       13512.793
               4.9250284                       22396.749
                4.930148                       34387.468
               4.9352675                       46762.777
               4.9403871                        56478.72
               4.9455067                       60987.501
               4.9506263                       58959.474
               4.9557458                       50689.989
               4.9608654                       38061.617
                4.965985                       24061.627
               4.9711045                       11985.499
               4.9762241                       4551.1265
               4.9813437                        3177.126
               4.9864633                       7633.5485
               4.9915828                       16166.638
               4.9967024                       26061.983
                5.001822                       34482.179
               5.0069415                       39333.556
               5.0120611                        39905.88
               5.0171807                       37093.021
               5.0223003                       33123.634
               5.0274198                       30874.238
               5.0325394                       32961.392
                5.037659                       40878.437
               5.0427786                       54434.832
               5.0478981                       71673.408
               5.0530177                       89305.653
               5.0581373                       103555.62
               5.0632568                       111182.19
               5.0683764                       110392.17
                5.073496                       101381.14
               5.0786156                       86338.712
               5.0837351                       68903.432
               5.0888547                       53207.983
               5.0939743                       42773.498
               5.0990938                       39558.975
               5.1042134                       43433.067
                5.109333                       52221.033
               5.1144526                       62320.477
               5.1195721                       69720.052

