                        Mix 1DC_ydriv_budget/imaginary
----------------------------------------------------------------------
                       0                       66184.565
             0.010239144                       64894.694
             0.020478289                       61788.823
             0.030717433                       58465.511
             0.040956577                       55966.065
             0.051195721                       54044.565
             0.061434866                       51761.309
              0.07167401                       48712.667
             0.081913154                       45594.597
             0.092152298                       43528.878
              0.10239144                       42885.445
              0.11263059                       42856.781
              0.12286973                        42248.41
              0.13310888                       40675.419
              0.14334802                       38926.085
              0.15358716                       38114.675
              0.16382631                       38500.858
              0.17406545                       39199.133
               0.1843046                       39079.229
              0.19454374                       37924.012
              0.20478289                       36644.527
              0.21502203                       36328.515
              0.22526117                       37107.112
              0.23550032                       38012.844
              0.24573946                       37975.904
              0.25597861                       36927.567
              0.26621775                       35868.753
               0.2764569                       35832.485
              0.28669604                       36813.148
              0.29693518                       37769.788
              0.30717433                       37700.183
              0.31741347                       36675.636
              0.32765262                       35767.085
              0.33789176                       35938.623
              0.34813091                       37050.975
              0.35837005                       38003.832
              0.36860919                       37870.254
              0.37884834                       36852.755
              0.38908748                       36074.897
              0.39932663                         36423.2
              0.40956577                       37632.995
              0.41980492                       38560.079
              0.43004406                       38358.356
               0.4402832                       37351.092
              0.45052235                        36699.25
              0.46076149                       37208.103
              0.47100064                       38499.016
              0.48123978                       39397.383
              0.49147892                       39138.228
              0.50171807                        38152.07
              0.51195721                       37624.953
              0.52219636                       38283.713
               0.5324355                       39650.833
              0.54267465                       40531.657
              0.55291379                       40235.691
              0.56315293                       39283.812
              0.57339208                       38879.097
              0.58363122                       39680.881
              0.59387037                       41131.405
              0.60410951                       42021.022
              0.61434866                       41717.791
               0.6245878                       40812.618
              0.63482694                       40524.611
              0.64506609                       41467.807
              0.65530523                       43026.685
              0.66554438                       43972.902
              0.67578352                       43703.677
              0.68602267                       42855.569
              0.69626181                       42673.961
              0.70650095                       43766.424
               0.7167401                       45486.789
              0.72697924                       46569.978
              0.73721839                       46392.361
              0.74745753                       45606.722
              0.75769668                       45514.267
              0.76793582                        46782.24
              0.77817496                       48767.888
              0.78841411                       50126.265
              0.79865325                       50126.992
               0.8088924                       49400.964
              0.81913154                       49369.916
              0.82937069                        50877.96
              0.83960983                       53334.221
              0.84984897                        55223.18
              0.86008812                       55549.624
              0.87032726                       54863.526
              0.88056641                       54843.539
              0.89080555                       56742.143
               0.9010447                       60111.218
              0.91128384                        63072.38
              0.92152298                       64028.762
              0.93176213                       63317.703
              0.94200127                       63183.189
              0.95224042                       65852.233
              0.96247956                       71298.725
              0.97271871                       76839.674
              0.98295785                       79324.038
              0.99319699                         78326.9
               1.0034361                        77473.87
               1.0136753                       82171.567
               1.0239144                       94988.914
               1.0341536                       112340.79
               1.0443927                       125702.75
               1.0546319                       127240.69
                1.064871                       115966.79
               1.0751101                       99551.929
               1.0853493                       89907.873
               1.0955884                       95453.042
               1.1058276                       115681.23
               1.1160667                       141886.35
               1.1263059                        163020.1
                1.136545                       171777.45
               1.1467842                       166422.24
               1.1570233                        148091.6
               1.1672624                       117419.27
               1.1775016                       74481.476
               1.1877407                       22187.283
               1.1979799                      -30887.046
                1.208219                      -72399.521
               1.2184582                       -92797.51
               1.2286973                      -91621.406
               1.2389365                      -77998.345
               1.2491756                      -64311.298
               1.2594147                      -57878.463
               1.2696539                      -57282.876
                1.279893                      -55959.195
               1.2901322                      -49350.369
               1.3003713                      -39102.684
               1.3106105                      -30893.081
               1.3208496                      -28536.208
               1.3310888                      -30289.228
               1.3413279                      -30805.628
                1.351567                      -26550.581
               1.3618062                      -19206.676
               1.3720453                      -13773.915
               1.3822845                       -13416.68
               1.3925236                      -16288.938
               1.4027628                      -17476.532
               1.4130019                      -14007.696
               1.4232411                      -7828.1221
               1.4334802                      -3753.0475
               1.4437193                      -4519.1096
               1.4539585                      -7986.2394
               1.4641976                      -9332.3308
               1.4744368                      -5991.2862
               1.4846759                      -284.69314
               1.4949151                       2955.1258
               1.5051542                       1354.3012
               1.5153934                      -2530.7589
               1.5256325                      -3802.5499
               1.5358716                      -255.16058
               1.5461108                       5312.3532
               1.5563499                       7926.8638
               1.5665891                       5566.5303
               1.5768282                       1314.8622
               1.5870674                       258.67438
               1.5973065                       4242.6036
               1.6075457                       9877.5994
               1.6177848                       11945.916
               1.6280239                       8795.5284
               1.6382631                       4164.8636
               1.6485022                       3439.6616
               1.6587414                       8077.5024
               1.6689805                       13954.624
               1.6792197                       15488.053
               1.6894588                       11430.965
               1.6996979                        6350.543
               1.7099371                       6078.3755
               1.7201762                       11645.699
               1.7304154                       17981.854
               1.7406545                       18950.769
               1.7508937                       13752.043
               1.7611328                       8052.3531
                1.771372                       8388.3252
               1.7816111                       15334.704
               1.7918502                       22521.991
               1.8020894                       22887.397
               1.8123285                       16078.711
               1.8225677                         9344.19
               1.8328068                       10515.975
                1.843046                       19816.023
               1.8532851                       28922.171
               1.8635243                       28864.982
               1.8737634                        19364.11
               1.8840025                       10157.425
               1.8942417                       12254.769
               1.9044808                       27012.609
                 1.91472                       43650.641
               1.9249591                        48204.56
               1.9351983                       35950.883
               1.9454374                       15677.761
               1.9556766                         1676.21
               1.9659157                       1025.9819
               1.9761548                       8337.1526
                1.986394                       12903.561
               1.9966331                       10988.705
               2.0068723                       10614.935
               2.0171114                       23300.114
               2.0273506                       50200.947
               2.0375897                       76507.006
               2.0478289                       81058.438
                2.058068                       53982.404
               2.0683071                       6874.9751
               2.0785463                      -34217.824
               2.0887854                      -47863.834
               2.0990246                      -32557.596
               2.1092637                      -5765.1781
               2.1195029                       11641.365
                2.129742                       11647.831
               2.1399812                       2571.2312
               2.1502203                      -1638.6893
               2.1604594                       4739.2268
               2.1706986                       14833.829
               2.1809377                       17203.615
               2.1911769                       7608.5253
                2.201416                      -6797.0927
               2.2116552                      -14269.362
               2.2218943                      -9249.8871
               2.2321335                       3093.1005
               2.2423726                       12281.212
               2.2526117                        12197.24
               2.2628509                       5871.9668
                 2.27309                       1510.3227
               2.2833292                       4274.7278
               2.2935683                       11828.072
               2.3038075                       17386.879
               2.3140466                       16667.281
               2.3242857                       11783.064
               2.3345249                       8659.4063
                2.344764                       10988.439
               2.3550032                       16814.317
               2.3652423                       20848.363
               2.3754815                         19875.3
               2.3857206                       15801.414
               2.3959598                       13513.049
               2.4061989                       15908.576
                2.416438                       21097.111
               2.4266772                        24428.55
               2.4369163                         23209.2
               2.4471555                       19397.672
               2.4573946                       17646.779
               2.4676338                       20635.875
               2.4778729                       26284.794
               2.4881121                       29657.152
               2.4983512                       27868.478
               2.5085903                       23346.065
               2.5188295                       22132.181
               2.5290686                       28404.245
               2.5393078                       39976.673
               2.5495469                       48993.538
               2.5597861                       47701.808
               2.5700252                       34782.318
               2.5802644                       17001.304
               2.5905035                       4615.7935
               2.6007426                       4024.6987
               2.6109818                       13422.315
               2.6212209                       24788.451
               2.6314601                       30417.797
               2.6416992                       28587.782
               2.6519384                       23876.472
               2.6621775                       22281.278
               2.6724167                       25692.672
               2.6826558                        30641.14
               2.6928949                       32232.245
               2.7031341                       29367.157
               2.7133732                       26113.156
               2.7236124                        27711.57
               2.7338515                        34976.54
               2.7440907                       42767.731
               2.7543298                       44659.333
                2.764569                        39851.34
               2.7748081                       35494.688
               2.7850472                       41141.733
               2.7952864                       59328.537
               2.8055255                       80749.146
               2.8157647                       89466.481
               2.8260038                       75076.373
                2.836243                       42043.883
               2.8464821                        7901.538
               2.8567213                      -9011.6589
               2.8669604                      -2632.4571
               2.8771995                       17530.762
               2.8874387                       35335.651
               2.8976778                       41316.871
                2.907917                       39081.359
               2.9181561                       39912.072
               2.9283953                       51140.797
               2.9386344                       68970.781
               2.9488735                       81853.512
               2.9591127                       80728.029
               2.9693518                        66482.98
                2.979591                         48138.1
               2.9898301                       34157.591
               3.0000693                       25480.171
               3.0103084                       16647.745
               3.0205476                       3283.6479
               3.0307867                      -11918.149
               3.0410258                      -20807.559
                3.051265                      -17446.166
               3.0615041                      -4223.7541
               3.0717433                       9751.5583
               3.0819824                       16680.311
               3.0922216                       16929.293
               3.1024607                       18121.807
               3.1126999                       27183.572
                3.122939                       42758.174
               3.1331781                       55156.075
               3.1434173                       54094.721
               3.1536564                       37406.603
               3.1638956                       13121.408
               3.1741347                      -6647.3229
               3.1843739                      -14478.346
                3.194613                      -11749.032
               3.2048522                      -5431.1021
               3.2150913                       -1393.017
               3.2253304                       -366.6074
               3.2355696                       628.89486
               3.2458087                       3933.3785
               3.2560479                        8672.549
                3.266287                       12136.551
               3.2765262                       13055.888
               3.2867653                       13079.947
               3.2970045                       15007.322
               3.3072436                       19811.983
               3.3174827                        25637.58
               3.3277219                       29740.154
                3.337961                        31286.86
               3.3482002                       32119.606
               3.3584393                       34747.306
               3.3686785                       39629.293
               3.3789176                       44442.026
               3.3891568                       45983.623
               3.3993959                        42823.82
                3.409635                       36256.843
               3.4198742                       28927.401
               3.4301133                        22708.31
               3.4403525                       17840.227
               3.4505916                       13785.368
               3.4608308                       10480.179
               3.4710699                       8507.5871
               3.4813091                       8144.1635
               3.4915482                       8595.7471
               3.5017873                       8527.2482
               3.5120265                       7479.4059
               3.5222656                       6625.9353
               3.5325048                       7844.3263
               3.5427439                       11780.415
               3.5529831                       16735.024
               3.5632222                       19570.048
               3.5734614                       17979.035
               3.5837005                       12176.017
               3.5939396                       4565.7414
               3.6041788                       -2232.349
               3.6144179                      -7236.2185
               3.6246571                      -11321.762
               3.6348962                      -15868.638
               3.6451354                      -21234.267
               3.6553745                      -26406.199
               3.6656136                      -29947.116
               3.6758528                      -31191.387
               3.6860919                      -30605.212
               3.6963311                      -29159.106
               3.7065702                      -27473.516
               3.7168094                      -25552.091
               3.7270485                      -23204.215
               3.7372877                      -20574.055
               3.7475268                      -18184.204
               3.7577659                      -16478.262
               3.7680051                      -15372.856
               3.7782442                      -14301.123
               3.7884834                       -12727.54
               3.7987225                      -10652.996
               3.8089617                      -8634.0153
               3.8192008                      -7280.6097
                 3.82944                      -6668.6655
               3.8396791                      -6201.0121
               3.8499182                      -5091.5409
               3.8601574                      -3106.3719
               3.8703965                      -906.36542
               3.8806357                       423.73693
               3.8908748                       405.95353
                3.901114                      -98.125923
               3.9113531                       723.60093
               3.9215923                       4131.7364
               3.9318314                       9314.6171
               3.9420705                       13310.275
               3.9523097                       12904.885
               3.9625488                       7335.4945
                3.972788                      -434.02099
               3.9830271                      -5331.0095
               3.9932663                      -3861.8007
               4.0035054                       2953.2747
               4.0137446                       10016.315
               4.0239837                       11991.315
               4.0342228                       7619.2511
                4.044462                       885.78401
               4.0547011                      -2142.8376
               4.0649403                       1666.0614
               4.0751794                       9834.8867
               4.0854186                       16236.202
               4.0956577                       16035.252
               4.1058969                       9394.0093
                4.116136                       842.30056
               4.1263751                      -4946.3786
               4.1366143                      -7128.0928
               4.1468534                      -8940.1033
               4.1570926                      -14198.648
               4.1673317                      -23337.729
               4.1775709                      -32532.788
                 4.18781                       -36561.66
               4.1980492                      -32791.637
               4.2082883                      -22961.171
               4.2185274                      -11636.543
               4.2287666                      -3080.1917
               4.2390057                        834.7235
               4.2492449                       552.12753
                4.259484                      -2419.8959
               4.2697232                      -6396.0077
               4.2799623                      -9643.3114
               4.2902014                       -10592.83
               4.3004406                      -8749.1336
               4.3106797                      -5570.1714
               4.3209189                      -3913.1048
                4.331158                      -5786.3393
               4.3413972                      -10146.047
               4.3516363                      -13089.625
               4.3618755                      -10935.221
               4.3721146                      -3821.2578
               4.3823537                       3548.8284
               4.3925929                       5202.4723
                4.402832                      -1230.4091
               4.4130712                      -12251.191
               4.4233103                      -20977.334
               4.4335495                      -22403.963
               4.4437886                      -17001.011
               4.4540278                      -9699.2136
               4.4642669                      -5421.4731
                4.474506                      -5250.2243
               4.4847452                      -6446.5878
               4.4949843                      -5819.1356
               4.5052235                      -2955.6216
               4.5154626                      -307.33474
               4.5257018                      -378.95145
               4.5359409                      -3043.2483
               4.5461801                      -5647.7815
               4.5564192                      -5648.3373
               4.5666583                      -3013.5149
               4.5768975                      -26.306223
               4.5871366                       1164.3594
               4.5973758                       648.71725
               4.6076149                       396.75688
               4.6178541                       1916.8987
               4.6280932                       4443.4317
               4.6383324                       5572.7459
               4.6485715                       3719.8157
               4.6588106                      -112.97204
               4.6690498                      -3077.2045
               4.6792889                      -3032.7897
               4.6895281                       -424.9314
               4.6997672                       2296.7686
               4.7100064                       3054.3042
               4.7202455                       1947.0204
               4.7304847                       813.74438
               4.7407238                       1173.6804
               4.7509629                       2713.5874
               4.7612021                       3783.9112
               4.7714412                       3238.1996
               4.7816804                       1621.6779
               4.7919195                       499.47602
               4.8021587                       715.42148
               4.8123978                       1476.7349
                4.822637                       1247.5183
               4.8328761                      -499.41549
               4.8431152                      -2542.4842
               4.8533544                      -3008.6824
               4.8635935                      -1222.8878
               4.8738327                       1570.6542
               4.8840718                       3357.7512
                4.894311                       3226.8058
               4.9045501                       2106.7456
               4.9147892                       1687.2254
               4.9250284                       2672.1558
               4.9352675                       4141.6445
               4.9455067                       4612.4868
               4.9557458                       3645.0024
                4.965985                       2328.0674
               4.9762241                       2172.1488
               4.9864633                       3581.6267
               4.9967024                       5476.6366
               5.0069415                       6420.1903
               5.0171807                       6064.3492
               5.0274198                       5442.4718
                5.037659                       5856.6964
               5.0478981                       7544.8872
               5.0581373                       9486.0835
               5.0683764                       10482.892
               5.0786156                       10344.812
               5.0888547                       9945.3492
               5.0990938                       10150.075
                5.109333                       10803.408
               5.1195721                       10876.837
               5.1298113                       9632.5665
               5.1400504                       7566.8114
               5.1502896                       6105.2392
               5.1605287                       6306.6045
               5.1707679                       7856.3657
                5.181007                        9349.344
               5.1912461                       9574.7569
               5.2014853                       8546.9922
               5.2117244                       7331.5981
               5.2219636                       6936.2146
               5.2322027                       7406.7159
               5.2424419                       7948.7593
                5.252681                       7799.5117
               5.2629202                       6877.2327
               5.2731593                       5612.8811
               5.2833984                       4321.2449
               5.2936376                       2924.2717
               5.3038767                       1327.9912
               5.3141159                      -95.287501
                5.324355                      -651.77955
               5.3345942                      -100.05871
               5.3448333                       780.48934
               5.3550725                       613.52192
               5.3653116                      -1360.9575
               5.3755507                      -4412.2459
               5.3857899                      -6738.0707
                5.396029                       -6925.582
               5.4062682                      -5140.3226
               5.4165073                      -2918.1156
               5.4267465                       -1749.211
               5.4369856                       -1802.467
               5.4472248                       -1980.894
               5.4574639                      -1177.6645
                5.467703                       563.72297
               5.4779422                       2129.7943
               5.4881813                       2512.6056
               5.4984205                       1834.0416
               5.5086596                       1173.2486
               5.5188988                       1417.4003
               5.5291379                       2361.2417
               5.5393771                       2990.3458
               5.5496162                       2620.3677
               5.5598553                       1663.5756
               5.5700945                        1200.116
               5.5803336                       1812.2806
               5.5905728                       2937.9204
               5.6008119                       3458.3066
               5.6110511                        2912.657
               5.6212902                       2027.3073
               5.6315293                       1938.7219
               5.6417685                       2887.6768
               5.6520076                       3797.9461
               5.6622468                       3304.0515
               5.6724859                       1274.5036
               5.6827251                      -748.30476
               5.6929642                      -790.79197
               5.7032034                       1700.1998
               5.7134425                       5171.2032
               5.7236816                       7190.2234
               5.7339208                        6531.934
               5.7441599                       4219.2199
               5.7543991                       2570.8115
               5.7646382                       3147.9744
               5.7748774                         5475.27
               5.7851165                       7628.6168
               5.7953557                       8033.9877
               5.8055948                       6779.3068
               5.8158339                       5332.3269
               5.8260731                       5107.5741
               5.8363122                       6310.3151
               5.8465514                       8040.6607
               5.8567905                       9338.5417
               5.8670297                       10025.554
               5.8772688                       10586.932
                5.887508                       11407.585
               5.8977471                       12281.749
               5.9079862                        12696.48
               5.9182254                       12488.518
               5.9284645                       12087.639
               5.9387037                       12064.469
               5.9489428                       12497.994
                5.959182                       12882.492
               5.9694211                       12693.573
               5.9796603                        11996.84
               5.9898994                       11418.875
               6.0001385                       11483.596
               6.0103777                       12013.823
               6.0206168                       12255.856
                6.030856                        11636.62
               6.0410951                       10391.615
               6.0513343                       9413.0111
               6.0615734                       9448.7378
               6.0718126                       10429.269
               6.0820517                       11554.875
               6.0922908                       12012.296
                 6.10253                       11601.483
               6.1127691                       10719.435
               6.1230083                       9844.2425
               6.1332474                        9131.371
               6.1434866                       8507.6457
               6.1537257                       8029.9291
               6.1639649                       7980.1888
                6.174204                       8525.3599
               6.1844431                       9357.8459
               6.1946823                        9848.256
               6.2049214                       9695.9914
               6.2151606                       9425.8997
               6.2253997                       10089.453
               6.2356389                       12277.175
                6.245878                       15317.333
               6.2561171                       17504.574
               6.2663563                         17312.8
               6.2765954                       14615.277
               6.2868346                       10867.339
               6.2970737                       8093.8159
               6.3073129                       7538.2348
                6.317552                       9039.6659
               6.3277912                       11469.726
               6.3380303                       13643.832
               6.3482694                        14879.94
               6.3585086                       14934.141
               6.3687477                       13719.695
               6.3789869                       11301.309
                6.389226                       8145.3919
               6.3994652                       5158.4042
               6.4097043                       3220.1589
               6.4199435                       2541.9876
               6.4301826                       2522.9052
               6.4404217                       2371.2861
               6.4506609                       1957.4519
                  6.4609                       2016.1125
               6.4711392                       3378.3532
               6.4813783                       5897.5766
               6.4916175                       8154.3914
               6.5018566                       8385.7335
               6.5120958                       5930.1656
               6.5223349                       1915.8482
                6.532574                      -1476.3344
               6.5428132                      -2593.4952
               6.5530523                       -1416.508
               6.5632915                       679.42399
               6.5735306                       2183.9222
               6.5837698                       2575.3678
               6.5940089                       2410.3015
               6.6042481                       2495.7617
               6.6144872                       3046.1146
               6.6247263                       3593.1042
               6.6349655                       3603.4114
               6.6452046                       3102.6786
               6.6554438                       2696.9924
               6.6656829                       3032.1008
               6.6759221                       4247.8676
               6.6861612                       5907.3203
               6.6964004                       7379.9082
               6.7066395                       8280.4308
               6.7168786                       8629.9399
               6.7271178                       8737.1482
               6.7373569                       9002.5223
               6.7475961                       9765.6061
               6.7578352                       11154.328
               6.7680744                       12911.775
               6.7783135                       14344.319
               6.7885527                       14581.544
               6.7987918                       13105.439
               6.8090309                       10192.864
               6.8192701                         6885.86
               6.8295092                       4462.2083
               6.8397484                       3800.6174
               6.8499875                       5090.8374
               6.8602267                       7968.6464
               6.8704658                       11761.586
               6.8807049                       15549.183
               6.8909441                       18138.916
               6.9011832                       18338.024
               6.9114224                       15647.771
               6.9216615                       10910.191
               6.9319007                       6169.2556
               6.9421398                       3516.9828
                6.952379                       3638.2537
               6.9626181                       5242.2371
               6.9728572                       5988.2728
               6.9830964                       4277.6276
               6.9933355                        488.9187
               7.0035747                      -3341.8473
               7.0138138                      -5088.4067
                7.024053                      -4018.9536
               7.0342921                      -1041.9678
               7.0445313                       2290.1936
               7.0547704                        4997.961
               7.0650095                       7101.5314
               7.0752487                       9149.7164
               7.0854878                       11551.334
                7.095727                       14356.082
               7.1059661                       17425.186
               7.1162053                        20464.25
               7.1264444                       22712.903
               7.1366836                       22779.669
               7.1469227                       19253.192
               7.1571618                       11961.467
                7.167401                       2812.8213
               7.1776401                      -4854.5972
               7.1878793                      -8293.5362
               7.1981184                      -7240.7446
               7.2083576                      -4029.5086
               7.2185967                      -1685.6142
               7.2288359                      -1561.7232
                7.239075                      -2537.5437
               7.2493141                      -2430.3671
               7.2595533                      -252.12838
               7.2697924                       2800.6418
               7.2800316                       4501.6618
               7.2902707                       3720.8594
               7.3005099                       1447.8472
                7.310749                      -249.40795
               7.3209882                      -263.82905
               7.3312273                       542.28839
               7.3414664                       347.76625
               7.3517056                      -1619.6855
               7.3619447                      -4095.8384
               7.3721839                      -4829.7696
                7.382423                      -2677.4888
               7.3926622                       1297.0231
               7.4029013                       4798.0377
               7.4131405                       6419.6894
               7.4233796                       6866.1446
               7.4336187                       8089.4016
               7.4438579                       11164.306
                7.454097                       14928.518
               7.4643362                       16695.236
               7.4745753                       14419.076
               7.4848145                        8393.339
               7.4950536                       1049.9995
               7.5052927                      -4834.8383
               7.5155319                      -7915.0502
                7.525771                      -8654.6115
               7.5360102                      -8336.6164
               7.5462493                      -7863.9883
               7.5564885                      -7404.2949
               7.5667276                      -6883.8563
               7.5769668                      -6512.0633
               7.5872059                      -6688.1963
                7.597445                      -7477.5334
               7.6076842                      -8366.7854
               7.6179233                      -8675.4384
               7.6281625                      -8228.5968
               7.6384016                      -7561.5396
               7.6486408                      -7397.0009
               7.6588799                      -7903.8409
               7.6691191                      -8489.3959
               7.6793582                      -8341.4064
               7.6895973                      -7182.4599
               7.6998365                      -5504.0112
               7.7100756                      -4086.7154
               7.7203148                      -3313.8024
               7.7305539                      -2938.9881
               7.7407931                      -2467.9489
               7.7510322                      -1707.5113
               7.7612714                       -937.2276
               7.7715105                      -602.58488
               7.7817496                      -902.60864
               7.7919888                       -1667.388
               7.8022279                      -2546.3455
               7.8124671                      -3223.6157
               7.8227062                      -3464.5095
               7.8329454                      -3100.6952
               7.8431845                      -2153.0994
               7.8534237                      -1031.0599
               7.8636628                      -476.39616
               7.8739019                      -1064.1174
               7.8841411                      -2581.1396
               7.8943802                      -3927.6485
               7.9046194                      -3847.5613
               7.9148585                      -1994.4897
               7.9250977                       637.99718
               7.9353368                       2455.1501
                7.945576                       2635.3503
               7.9558151                       1907.7211
               7.9660542                       1928.0987
               7.9762934                       3709.7518
               7.9865325                       6506.6229
               7.9967717                       8231.1607
               8.0070108                       7135.6267
                 8.01725                       3321.5953
               8.0274891                      -1241.4658
               8.0377283                      -4200.7023
               8.0479674                      -4519.8005
               8.0582065                      -2989.2363
               8.0684457                       -1261.686
               8.0786848                      -406.33945
                8.088924                      -257.37164
               8.0991631                       40.854824
               8.1094023                       1002.0934
               8.1196414                       2302.5327
               8.1298806                       3176.1123
               8.1401197                       3169.1082
               8.1503588                       2484.8898
                8.160598                       1686.8897
               8.1708371                       1190.2248
               8.1810763                        1079.117
               8.1913154                       1320.0986
               8.2015546                       1985.2179
               8.2117937                       3157.9375
               8.2220328                       4648.5564
                8.232272                       5931.5051
               8.2425111                       6484.1629
               8.2527503                       6219.2574
               8.2629894                       5535.2718
               8.2732286                       4889.3061
               8.2834677                       4327.4254
               8.2937069                       3490.0832
                8.303946                       2114.3088
               8.3141851                       493.47876
               8.3244243                      -647.70866
               8.3346634                       -804.0544
               8.3449026                      -217.95312
               8.3551417                       296.07147
               8.3653809                       112.26209
                 8.37562                      -600.80735
               8.3858592                      -1050.3959
               8.3960983                      -610.42399
               8.4063374                        567.5902
               8.4165766                       1756.4432
               8.4268157                       2463.3466
               8.4370549                       2988.3118
                8.447294                          4094.8
               8.4575332                       6067.2769
               8.4677723                       8112.4244
               8.4780115                       8795.5685
               8.4882506                       7213.3544
               8.4984897                       3852.2193
               8.5087289                       321.68054
                8.518968                      -1831.6793
               8.5292072                      -2200.5867
               8.5394463                      -1597.2027
               8.5496855                       -1185.334
               8.5599246                      -1524.9536
               8.5701638                      -2338.8948
               8.5804029                      -3036.5456
                8.590642                      -3343.5246
               8.6008812                      -3428.8011
               8.6111203                       -3543.954
               8.6213595                      -3685.0681
               8.6315986                      -3663.0484
               8.6418378                      -3435.2717
               8.6520769                      -3242.4656
               8.6623161                      -3347.3005
               8.6725552                       -3672.421
               8.6827943                       -3793.318
               8.6930335                      -3357.0942
               8.7032726                      -2495.2403
               8.7135118                      -1754.6447
               8.7237509                      -1568.7777
               8.7339901                      -1804.8421
               8.7442292                      -1880.0553
               8.7544684                      -1354.9436
               8.7647075                      -394.79498
               8.7749466                       393.16761
               8.7851858                       588.89208
               8.7954249                       393.28124
               8.8056641                       395.73275
               8.8159032                       908.51638
               8.8261424                       1579.3511
               8.8363815                       1724.3908
               8.8466206                       1068.5576
               8.8568598                       127.42377
               8.8670989                      -194.83585
               8.8773381                       580.16889
               8.8875772                       2078.5242
               8.8978164                       3444.8182
               8.9080555                       4113.7704
               8.9182947                       4205.3073
               8.9285338                       4199.8928
               8.9387729                       4324.3605
               8.9490121                       4356.0514
               8.9592512                       4039.3372
               8.9694904                       3576.6565
               8.9797295                       3535.4784
               8.9899687                       4175.2908
               9.0002078                       4933.5948
                9.010447                       4764.6238
               9.0206861                       3152.6792
               9.0309252                       807.18583
               9.0411644                      -788.84629
               9.0514035                      -709.53725
               9.0616427                       435.88257
               9.0718818                       907.90907
                9.082121                      -624.47557
               9.0923601                      -3803.9799
               9.1025993                      -6800.7737
               9.1128384                      -7880.1162
               9.1230775                      -6880.6997
               9.1333167                      -5226.4404
               9.1435558                      -4489.7923
                9.153795                      -4907.8967
               9.1640341                      -5274.2613
               9.1742733                      -4268.0124
               9.1845124                      -1877.9463
               9.1947516                       493.94635
               9.2049907                       1348.2407
               9.2152298                       525.03676
                9.225469                      -643.81011
               9.2357081                       -610.3796
               9.2459473                       915.74995
               9.2561864                       2677.9582
               9.2664256                       2981.3782
               9.2766647                       1111.5331
               9.2869039                      -2212.5989
                9.297143                      -5605.6555
               9.3073821                       -8115.354
               9.3176213                       -9616.962
               9.3278604                      -10341.922
               9.3380996                      -10283.661
               9.3483387                      -9218.7392
               9.3585779                      -7259.7004
                9.368817                       -5179.452
               9.3790562                      -3978.0643
               9.3892953                       -4041.559
               9.3995344                      -4780.9844
               9.4097736                      -5205.8567
               9.4200127                      -4904.1774
               9.4302519                       -4421.257
                9.440491                      -4605.9564
               9.4507302                      -5567.8502
               9.4609693                      -6345.8617
               9.4712084                      -5715.5584
               9.4814476                      -3407.9296
               9.4916867                      -545.87956
               9.5019259                       1179.1886
                9.512165                       864.15478
               9.5224042                      -946.46291
               9.5326433                      -2848.8334
               9.5428825                      -3793.7039
               9.5531216                      -3791.3349
               9.5633607                       -3570.969
               9.5735999                      -3700.7028
                9.583839                      -4103.3209
               9.5940782                      -4357.7414
               9.6043173                       -4307.195
               9.6145565                      -4234.9925
               9.6247956                      -4438.9843
               9.6350348                      -4756.1767
               9.6452739                      -4648.6976
                9.655513                      -3805.9389
               9.6657522                       -2591.075
               9.6759913                      -1781.0916
               9.6862305                      -1811.0087
               9.6964696                      -2307.8736
               9.7067088                      -2438.6263
               9.7169479                      -1747.1198
               9.7271871                      -621.28655
               9.7374262                       98.577653
               9.7476653                      -41.602603
               9.7579045                      -709.99175
               9.7681436                      -1239.8005
               9.7783828                      -1415.2484
               9.7886219                      -1698.2609
               9.7988611                       -2607.263
               9.8091002                      -3921.6324
               9.8193394                      -4653.2689
               9.8295785                      -3953.7098
               9.8398176                      -2085.3257
               9.8500568                      -397.62609
               9.8602959                      -190.96574
               9.8705351                      -1505.6241
               9.8807742                      -3041.6091
               9.8910134                      -3354.9293
               9.9012525                      -2212.3242
               9.9114917                      -796.09831
               9.9217308                       -559.0602
               9.9319699                      -1849.1798
               9.9422091                      -3635.9782
               9.9524482                      -4563.4756
               9.9626874                      -4244.7288
               9.9729265                      -3515.5137
               9.9831657                      -3456.7696
               9.9934048                       -4244.556
               10.003644                      -5018.4223
               10.013883                      -4864.3296
               10.024122                      -3840.4031
               10.034361                      -2946.2618
               10.044601                       -3064.936
                10.05484                      -4000.1081
               10.065079                      -4640.7582
               10.075318                      -4102.6051
               10.085557                      -2660.0463
               10.095796                      -1484.8296
               10.106035                      -1447.4541
               10.116275                      -2223.4908
               10.126514                      -2643.0235
               10.136753                        -1931.81
               10.146992                      -555.77964
               10.157231                       221.77685
                10.16747                      -369.53838
               10.177709                      -1795.4119
               10.187949                      -2726.3085
               10.198188                      -2352.2492
               10.208427                      -1157.2609
               10.218666                      -368.15774
               10.228905                      -662.74851
               10.239144                       -1482.248

