0.00000000000000+0.00000000000000i	0.00000000000000+0.00000000000000i	0.00000000000000+4478304.97619393i	0.00000000000000+0.00000000000000i	0.00000000000000+0.00000000000000i
10000000.0000000+0.00000000000000i	0.00000000000000+0.00000000000000i	0.00000000000000+4478304.97619393i	0.00000000000000+0.00000000000000i	0.00000000000000+0.00000000000000i
20000000.0000000+0.00000000000000i	0.00000000000000+0.00000000000000i	0.00000000000000+4478304.97619393i	0.00000000000000+0.00000000000000i	0.00000000000000+0.00000000000000i
30000000.0000000+0.00000000000000i	0.00000000000000+0.00000000000000i	0.00000000000000+4478304.97619393i	0.00000000000000+0.00000000000000i	0.00000000000000+0.00000000000000i
40000000.0000000+0.00000000000000i	0.00000000000000+0.00000000000000i	0.00000000000000+4478304.97619393i	0.00000000000000+0.00000000000000i	0.00000000000000+0.00000000000000i
50000000.0000000+0.00000000000000i	0.00000000000000+0.00000000000000i	0.00000000000000+4478304.97619393i	0.00000000000000+0.00000000000000i	0.00000000000000+0.00000000000000i
60000000.0000000+0.00000000000000i	0.00000000000000+0.00000000000000i	0.00000000000000+4478304.97619393i	0.00000000000000+0.00000000000000i	0.00000000000000+0.00000000000000i
70000000.0000000+0.00000000000000i	0.00000000000000+0.00000000000000i	0.00000000000000+4478304.97619393i	0.00000000000000+0.00000000000000i	0.00000000000000+0.00000000000000i
80000000.0000000+0.00000000000000i	0.00000000000000+0.00000000000000i	0.00000000000000+4478304.97619393i	0.00000000000000+0.00000000000000i	0.00000000000000+0.00000000000000i
90000000.0000000+0.00000000000000i	0.00000000000000+0.00000000000000i	0.00000000000000+4478304.97619393i	0.00000000000000+0.00000000000000i	0.00000000000000+0.00000000000000i
100000000.000000+0.00000000000000i	0.00000000000000+0.00000000000000i	0.00000000000000+4478304.97619393i	0.00000000000000+0.00000000000000i	0.00000000000000+0.00000000000000i
110000000.000000+0.00000000000000i	0.00000000000000+0.00000000000000i	0.00000000000000+4478304.97619393i	0.00000000000000+0.00000000000000i	0.00000000000000+0.00000000000000i
120000000.000000+0.00000000000000i	0.00000000000000+0.00000000000000i	0.00000000000000+4478304.97619393i	0.00000000000000+0.00000000000000i	0.00000000000000+0.00000000000000i
130000000.000000+0.00000000000000i	0.00000000000000+0.00000000000000i	0.00000000000000+4478304.97619393i	0.00000000000000+0.00000000000000i	0.00000000000000+0.00000000000000i
140000000.000000+0.00000000000000i	0.00000000000000+0.00000000000000i	0.00000000000000+4478304.97619393i	0.00000000000000+0.00000000000000i	0.00000000000000+0.00000000000000i
150000000.000000+0.00000000000000i	0.00000000000000+0.00000000000000i	0.00000000000000+4478304.97619393i	0.00000000000000+0.00000000000000i	0.00000000000000+0.00000000000000i
160000000.000000+0.00000000000000i	0.00000000000000+0.00000000000000i	0.00000000000000+4478304.97619393i	0.00000000000000+0.00000000000000i	0.00000000000000+0.00000000000000i
170000000.000000+0.00000000000000i	0.00000000000000+0.00000000000000i	0.00000000000000+4478304.97619393i	0.00000000000000+0.00000000000000i	0.00000000000000+0.00000000000000i
180000000.000000+0.00000000000000i	0.00000000000000+0.00000000000000i	0.00000000000000+4478304.97619393i	0.00000000000000+0.00000000000000i	0.00000000000000+0.00000000000000i
190000000.000000+0.00000000000000i	0.00000000000000+0.00000000000000i	0.00000000000000+4478304.97619393i	0.00000000000000+0.00000000000000i	0.00000000000000+0.00000000000000i
200000000.000000+0.00000000000000i	0.00000000000000+0.00000000000000i	0.00000000000000+4478304.97619393i	0.00000000000000+0.00000000000000i	0.00000000000000+0.00000000000000i
210000000.000000+0.00000000000000i	0.00000000000000+0.00000000000000i	0.00000000000000+4478304.97619393i	0.00000000000000+0.00000000000000i	0.00000000000000+0.00000000000000i
220000000.000000+0.00000000000000i	0.00000000000000+0.00000000000000i	0.00000000000000+4478304.97619393i	0.00000000000000+0.00000000000000i	0.00000000000000+0.00000000000000i
230000000.000000+0.00000000000000i	0.00000000000000+0.00000000000000i	0.00000000000000+4478304.97619393i	0.00000000000000+0.00000000000000i	0.00000000000000+0.00000000000000i
240000000.000000+0.00000000000000i	0.00000000000000+0.00000000000000i	0.00000000000000+4478304.97619393i	0.00000000000000+0.00000000000000i	0.00000000000000+0.00000000000000i
250000000.000000+0.00000000000000i	0.00000000000000+0.00000000000000i	0.00000000000000+4478304.97619393i	0.00000000000000+0.00000000000000i	0.00000000000000+0.00000000000000i
260000000.000000+0.00000000000000i	0.00000000000000+0.00000000000000i	0.00000000000000+4478304.97619393i	0.00000000000000+0.00000000000000i	0.00000000000000+0.00000000000000i
270000000.000000+0.00000000000000i	0.00000000000000+0.00000000000000i	0.00000000000000+4478304.97619393i	0.00000000000000+0.00000000000000i	0.00000000000000+0.00000000000000i
280000000.000000+0.00000000000000i	0.00000000000000+0.00000000000000i	0.00000000000000+4478304.97619393i	0.00000000000000+0.00000000000000i	0.00000000000000+0.00000000000000i
290000000.000000+0.00000000000000i	0.00000000000000+0.00000000000000i	0.00000000000000+4478304.97619393i	0.00000000000000+0.00000000000000i	0.00000000000000+0.00000000000000i
300000000.000000+0.00000000000000i	0.00000000000000+0.00000000000000i	0.00000000000000+4478304.97619393i	0.00000000000000+0.00000000000000i	0.00000000000000+0.00000000000000i
310000000.000000+0.00000000000000i	0.00000000000000+0.00000000000000i	0.00000000000000+4478304.97619393i	0.00000000000000+0.00000000000000i	0.00000000000000+0.00000000000000i
320000000.000000+0.00000000000000i	0.00000000000000+0.00000000000000i	0.00000000000000+4478304.97619393i	0.00000000000000+0.00000000000000i	0.00000000000000+0.00000000000000i
330000000.000000+0.00000000000000i	0.00000000000000+0.00000000000000i	0.00000000000000+4478304.97619393i	0.00000000000000+0.00000000000000i	0.00000000000000+0.00000000000000i
340000000.000000+0.00000000000000i	0.00000000000000+0.00000000000000i	0.00000000000000+4478304.97619393i	0.00000000000000+0.00000000000000i	0.00000000000000+0.00000000000000i
350000000.000000+0.00000000000000i	0.00000000000000+0.00000000000000i	0.00000000000000+4478304.97619393i	0.00000000000000+0.00000000000000i	0.00000000000000+0.00000000000000i
360000000.000000+0.00000000000000i	0.00000000000000+0.00000000000000i	0.00000000000000+4478304.97619393i	0.00000000000000+0.00000000000000i	0.00000000000000+0.00000000000000i
370000000.000000+0.00000000000000i	0.00000000000000+0.00000000000000i	0.00000000000000+4478304.97619393i	0.00000000000000+0.00000000000000i	0.00000000000000+0.00000000000000i
380000000.000000+0.00000000000000i	0.00000000000000+0.00000000000000i	0.00000000000000+4478304.97619393i	0.00000000000000+0.00000000000000i	0.00000000000000+0.00000000000000i
390000000.000000+0.00000000000000i	0.00000000000000+0.00000000000000i	0.00000000000000+4478304.97619393i	0.00000000000000+0.00000000000000i	0.00000000000000+0.00000000000000i
400000000.000000+0.00000000000000i	0.00000000000000+0.00000000000000i	0.00000000000000+4478304.97619393i	0.00000000000000+0.00000000000000i	0.00000000000000+0.00000000000000i
410000000.000000+0.00000000000000i	0.00000000000000+0.00000000000000i	0.00000000000000+4478304.97619393i	0.00000000000000+0.00000000000000i	0.00000000000000+0.00000000000000i
420000000.000000+0.00000000000000i	0.00000000000000+0.00000000000000i	0.00000000000000+4478304.97619393i	0.00000000000000+0.00000000000000i	0.00000000000000+0.00000000000000i
430000000.000000+0.00000000000000i	0.00000000000000+0.00000000000000i	0.00000000000000+4478304.97619393i	0.00000000000000+0.00000000000000i	0.00000000000000+0.00000000000000i
440000000.000000+0.00000000000000i	0.00000000000000+0.00000000000000i	0.00000000000000+4478304.97619393i	0.00000000000000+0.00000000000000i	0.00000000000000+0.00000000000000i
450000000.000000+0.00000000000000i	0.00000000000000+0.00000000000000i	0.00000000000000+4478304.97619393i	0.00000000000000+0.00000000000000i	0.00000000000000+0.00000000000000i
460000000.000000+0.00000000000000i	0.00000000000000+0.00000000000000i	0.00000000000000+4478304.97619393i	0.00000000000000+0.00000000000000i	0.00000000000000+0.00000000000000i
470000000.000000+0.00000000000000i	0.00000000000000+0.00000000000000i	0.00000000000000+4478304.97619393i	0.00000000000000+0.00000000000000i	0.00000000000000+0.00000000000000i
480000000.000000+0.00000000000000i	0.00000000000000+0.00000000000000i	0.00000000000000+4478304.97619393i	0.00000000000000+0.00000000000000i	0.00000000000000+0.00000000000000i
490000000.000000+0.00000000000000i	0.00000000000000+0.00000000000000i	0.00000000000000+4478304.97619393i	0.00000000000000+0.00000000000000i	0.00000000000000+0.00000000000000i
500000000.000000+0.00000000000000i	0.00000000000000+0.00000000000000i	0.00000000000000+4478304.97619393i	0.00000000000000+0.00000000000000i	0.00000000000000+0.00000000000000i
510000000.000000+0.00000000000000i	0.00000000000000+0.00000000000000i	0.00000000000000+4478304.97619393i	0.00000000000000+0.00000000000000i	0.00000000000000+0.00000000000000i
520000000.000000+0.00000000000000i	0.00000000000000+0.00000000000000i	0.00000000000000+4478304.97619393i	0.00000000000000+0.00000000000000i	0.00000000000000+0.00000000000000i
530000000.000000+0.00000000000000i	0.00000000000000+0.00000000000000i	0.00000000000000+4478304.97619393i	0.00000000000000+0.00000000000000i	0.00000000000000+0.00000000000000i
540000000.000000+0.00000000000000i	0.00000000000000+0.00000000000000i	0.00000000000000+4478304.97619393i	0.00000000000000+0.00000000000000i	0.00000000000000+0.00000000000000i
550000000.000000+0.00000000000000i	0.00000000000000+0.00000000000000i	0.00000000000000+4478304.97619393i	0.00000000000000+0.00000000000000i	0.00000000000000+0.00000000000000i
560000000.000000+0.00000000000000i	0.00000000000000+0.00000000000000i	0.00000000000000+4478304.97619393i	0.00000000000000+0.00000000000000i	0.00000000000000+0.00000000000000i
570000000.000000+0.00000000000000i	0.00000000000000+0.00000000000000i	0.00000000000000+4478304.97619393i	0.00000000000000+0.00000000000000i	0.00000000000000+0.00000000000000i
580000000.000000+0.00000000000000i	0.00000000000000+0.00000000000000i	0.00000000000000+4478304.97619393i	0.00000000000000+0.00000000000000i	0.00000000000000+0.00000000000000i
590000000.000000+0.00000000000000i	0.00000000000000+0.00000000000000i	0.00000000000000+4478304.97619393i	0.00000000000000+0.00000000000000i	0.00000000000000+0.00000000000000i
600000000.000000+0.00000000000000i	0.00000000000000+0.00000000000000i	0.00000000000000+4478304.97619393i	0.00000000000000+0.00000000000000i	0.00000000000000+0.00000000000000i
610000000.000000+0.00000000000000i	0.00000000000000+0.00000000000000i	0.00000000000000+4478304.97619393i	0.00000000000000+0.00000000000000i	0.00000000000000+0.00000000000000i
620000000.000000+0.00000000000000i	0.00000000000000+0.00000000000000i	0.00000000000000+4478304.97619393i	0.00000000000000+0.00000000000000i	0.00000000000000+0.00000000000000i
630000000.000000+0.00000000000000i	0.00000000000000+0.00000000000000i	0.00000000000000+4478304.97619393i	0.00000000000000+0.00000000000000i	0.00000000000000+0.00000000000000i
640000000.000000+0.00000000000000i	0.00000000000000+0.00000000000000i	0.00000000000000+4478304.97619393i	0.00000000000000+0.00000000000000i	0.00000000000000+0.00000000000000i
650000000.000000+0.00000000000000i	0.00000000000000+0.00000000000000i	0.00000000000000+4478304.97619393i	0.00000000000000+0.00000000000000i	0.00000000000000+0.00000000000000i
660000000.000000+0.00000000000000i	0.00000000000000+0.00000000000000i	0.00000000000000+4478304.97619393i	0.00000000000000+0.00000000000000i	0.00000000000000+0.00000000000000i
670000000.000000+0.00000000000000i	0.00000000000000+0.00000000000000i	0.00000000000000+4478304.97619393i	0.00000000000000+0.00000000000000i	0.00000000000000+0.00000000000000i
680000000.000000+0.00000000000000i	0.00000000000000+0.00000000000000i	0.00000000000000+4478304.97619393i	0.00000000000000+0.00000000000000i	0.00000000000000+0.00000000000000i
690000000.000000+0.00000000000000i	0.00000000000000+0.00000000000000i	0.00000000000000+4478304.97619393i	0.00000000000000+0.00000000000000i	0.00000000000000+0.00000000000000i
700000000.000000+0.00000000000000i	0.00000000000000+0.00000000000000i	0.00000000000000+4478304.97619393i	0.00000000000000+0.00000000000000i	0.00000000000000+0.00000000000000i
710000000.000000+0.00000000000000i	0.00000000000000+0.00000000000000i	0.00000000000000+4478304.97619393i	0.00000000000000+0.00000000000000i	0.00000000000000+0.00000000000000i
720000000.000000+0.00000000000000i	0.00000000000000+0.00000000000000i	0.00000000000000+4478304.97619393i	0.00000000000000+0.00000000000000i	0.00000000000000+0.00000000000000i
730000000.000000+0.00000000000000i	0.00000000000000+0.00000000000000i	0.00000000000000+4478304.97619393i	0.00000000000000+0.00000000000000i	0.00000000000000+0.00000000000000i
740000000.000000+0.00000000000000i	0.00000000000000+0.00000000000000i	0.00000000000000+4478304.97619393i	0.00000000000000+0.00000000000000i	0.00000000000000+0.00000000000000i
750000000.000000+0.00000000000000i	0.00000000000000+0.00000000000000i	0.00000000000000+4478304.97619393i	0.00000000000000+0.00000000000000i	0.00000000000000+0.00000000000000i
760000000.000000+0.00000000000000i	0.00000000000000+0.00000000000000i	0.00000000000000+4478304.97619393i	0.00000000000000+0.00000000000000i	0.00000000000000+0.00000000000000i
770000000.000000+0.00000000000000i	0.00000000000000+0.00000000000000i	0.00000000000000+4478304.97619393i	0.00000000000000+0.00000000000000i	0.00000000000000+0.00000000000000i
780000000.000000+0.00000000000000i	0.00000000000000+0.00000000000000i	0.00000000000000+4478304.97619393i	0.00000000000000+0.00000000000000i	0.00000000000000+0.00000000000000i
790000000.000000+0.00000000000000i	0.00000000000000+0.00000000000000i	0.00000000000000+4478304.97619393i	0.00000000000000+0.00000000000000i	0.00000000000000+0.00000000000000i
800000000.000000+0.00000000000000i	0.00000000000000+0.00000000000000i	0.00000000000000+4478304.97619393i	0.00000000000000+0.00000000000000i	0.00000000000000+0.00000000000000i
810000000.000000+0.00000000000000i	0.00000000000000+0.00000000000000i	0.00000000000000+4478304.97619393i	0.00000000000000+0.00000000000000i	0.00000000000000+0.00000000000000i
820000000.000000+0.00000000000000i	0.00000000000000+0.00000000000000i	0.00000000000000+4478304.97619393i	0.00000000000000+0.00000000000000i	0.00000000000000+0.00000000000000i
830000000.000000+0.00000000000000i	0.00000000000000+0.00000000000000i	0.00000000000000+4478304.97619393i	0.00000000000000+0.00000000000000i	0.00000000000000+0.00000000000000i
840000000.000000+0.00000000000000i	0.00000000000000+0.00000000000000i	0.00000000000000+4478304.97619393i	0.00000000000000+0.00000000000000i	0.00000000000000+0.00000000000000i
850000000.000000+0.00000000000000i	0.00000000000000+0.00000000000000i	0.00000000000000+4478304.97619393i	0.00000000000000+0.00000000000000i	0.00000000000000+0.00000000000000i
860000000.000000+0.00000000000000i	0.00000000000000+0.00000000000000i	0.00000000000000+4478304.97619393i	0.00000000000000+0.00000000000000i	0.00000000000000+0.00000000000000i
870000000.000000+0.00000000000000i	0.00000000000000+0.00000000000000i	0.00000000000000+4478304.97619393i	0.00000000000000+0.00000000000000i	0.00000000000000+0.00000000000000i
880000000.000000+0.00000000000000i	0.00000000000000+0.00000000000000i	0.00000000000000+4478304.97619393i	0.00000000000000+0.00000000000000i	0.00000000000000+0.00000000000000i
890000000.000000+0.00000000000000i	0.00000000000000+0.00000000000000i	0.00000000000000+4478304.97619393i	0.00000000000000+0.00000000000000i	0.00000000000000+0.00000000000000i
900000000.000000+0.00000000000000i	0.00000000000000+0.00000000000000i	0.00000000000000+4478304.97619393i	0.00000000000000+0.00000000000000i	0.00000000000000+0.00000000000000i
910000000.000000+0.00000000000000i	0.00000000000000+0.00000000000000i	0.00000000000000+4478304.97619393i	0.00000000000000+0.00000000000000i	0.00000000000000+0.00000000000000i
920000000.000000+0.00000000000000i	0.00000000000000+0.00000000000000i	0.00000000000000+4478304.97619393i	0.00000000000000+0.00000000000000i	0.00000000000000+0.00000000000000i
930000000.000000+0.00000000000000i	0.00000000000000+0.00000000000000i	0.00000000000000+4478304.97619393i	0.00000000000000+0.00000000000000i	0.00000000000000+0.00000000000000i
940000000.000000+0.00000000000000i	0.00000000000000+0.00000000000000i	0.00000000000000+4478304.97619393i	0.00000000000000+0.00000000000000i	0.00000000000000+0.00000000000000i
950000000.000000+0.00000000000000i	0.00000000000000+0.00000000000000i	0.00000000000000+4478304.97619393i	0.00000000000000+0.00000000000000i	0.00000000000000+0.00000000000000i
960000000.000000+0.00000000000000i	0.00000000000000+0.00000000000000i	0.00000000000000+4478304.97619393i	0.00000000000000+0.00000000000000i	0.00000000000000+0.00000000000000i
970000000.000000+0.00000000000000i	0.00000000000000+0.00000000000000i	0.00000000000000+4478304.97619393i	0.00000000000000+0.00000000000000i	0.00000000000000+0.00000000000000i
980000000.000000+0.00000000000000i	0.00000000000000+0.00000000000000i	0.00000000000000+4478304.97619393i	0.00000000000000+0.00000000000000i	0.00000000000000+0.00000000000000i
990000000.000000+0.00000000000000i	0.00000000000000+0.00000000000000i	0.00000000000000+4478304.97619393i	0.00000000000000+0.00000000000000i	0.00000000000000+0.00000000000000i
1000000000.00000+0.00000000000000i	0.00000000000000+0.00000000000000i	0.00000000000000+4478304.97619393i	0.00000000000000+0.00000000000000i	0.00000000000000+0.00000000000000i
1010000000.00000+0.00000000000000i	0.00000000000000+0.00000000000000i	0.00000000000000+4478304.97619393i	0.00000000000000+0.00000000000000i	0.00000000000000+0.00000000000000i
1020000000.00000+0.00000000000000i	0.00000000000000+0.00000000000000i	0.00000000000000+4478304.97619393i	0.00000000000000+0.00000000000000i	0.00000000000000+0.00000000000000i
1030000000.00000+0.00000000000000i	0.00000000000000+0.00000000000000i	0.00000000000000+4478304.97619393i	0.00000000000000+0.00000000000000i	0.00000000000000+0.00000000000000i
1040000000.00000+0.00000000000000i	0.00000000000000+0.00000000000000i	0.00000000000000+4478304.97619393i	0.00000000000000+0.00000000000000i	0.00000000000000+0.00000000000000i
1050000000.00000+0.00000000000000i	0.00000000000000+0.00000000000000i	0.00000000000000+4478304.97619393i	0.00000000000000+0.00000000000000i	0.00000000000000+0.00000000000000i
1060000000.00000+0.00000000000000i	0.00000000000000+0.00000000000000i	0.00000000000000+4478304.97619393i	0.00000000000000+0.00000000000000i	0.00000000000000+0.00000000000000i
1070000000.00000+0.00000000000000i	0.00000000000000+0.00000000000000i	0.00000000000000+4478304.97619393i	0.00000000000000+0.00000000000000i	0.00000000000000+0.00000000000000i
1080000000.00000+0.00000000000000i	0.00000000000000+0.00000000000000i	0.00000000000000+4478304.97619393i	0.00000000000000+0.00000000000000i	0.00000000000000+0.00000000000000i
1090000000.00000+0.00000000000000i	0.00000000000000+0.00000000000000i	0.00000000000000+4478304.97619393i	0.00000000000000+0.00000000000000i	0.00000000000000+0.00000000000000i
1100000000.00000+0.00000000000000i	0.00000000000000+0.00000000000000i	0.00000000000000+4478304.97619393i	0.00000000000000+0.00000000000000i	0.00000000000000+0.00000000000000i
1110000000.00000+0.00000000000000i	0.00000000000000+0.00000000000000i	0.00000000000000+4478304.97619393i	0.00000000000000+0.00000000000000i	0.00000000000000+0.00000000000000i
1120000000.00000+0.00000000000000i	0.00000000000000+0.00000000000000i	0.00000000000000+4478304.97619393i	0.00000000000000+0.00000000000000i	0.00000000000000+0.00000000000000i
1130000000.00000+0.00000000000000i	0.00000000000000+0.00000000000000i	0.00000000000000+4478304.97619393i	0.00000000000000+0.00000000000000i	0.00000000000000+0.00000000000000i
1140000000.00000+0.00000000000000i	0.00000000000000+0.00000000000000i	0.00000000000000+4478304.97619393i	0.00000000000000+0.00000000000000i	0.00000000000000+0.00000000000000i
1150000000.00000+0.00000000000000i	0.00000000000000+0.00000000000000i	0.00000000000000+4478304.97619393i	0.00000000000000+0.00000000000000i	0.00000000000000+0.00000000000000i
1160000000.00000+0.00000000000000i	0.00000000000000+0.00000000000000i	0.00000000000000+4478304.97619393i	0.00000000000000+0.00000000000000i	0.00000000000000+0.00000000000000i
1170000000.00000+0.00000000000000i	0.00000000000000+0.00000000000000i	0.00000000000000+4478304.97619393i	0.00000000000000+0.00000000000000i	0.00000000000000+0.00000000000000i
1180000000.00000+0.00000000000000i	0.00000000000000+0.00000000000000i	0.00000000000000+4478304.97619393i	0.00000000000000+0.00000000000000i	0.00000000000000+0.00000000000000i
1190000000.00000+0.00000000000000i	0.00000000000000+0.00000000000000i	0.00000000000000+4478304.97619393i	0.00000000000000+0.00000000000000i	0.00000000000000+0.00000000000000i
1200000000.00000+0.00000000000000i	0.00000000000000+0.00000000000000i	0.00000000000000+4478304.97619393i	0.00000000000000+0.00000000000000i	0.00000000000000+0.00000000000000i
1210000000.00000+0.00000000000000i	0.00000000000000+0.00000000000000i	0.00000000000000+4478304.97619393i	0.00000000000000+0.00000000000000i	0.00000000000000+0.00000000000000i
1220000000.00000+0.00000000000000i	0.00000000000000+0.00000000000000i	0.00000000000000+4478304.97619393i	0.00000000000000+0.00000000000000i	0.00000000000000+0.00000000000000i
1230000000.00000+0.00000000000000i	0.00000000000000+0.00000000000000i	0.00000000000000+4478304.97619393i	0.00000000000000+0.00000000000000i	0.00000000000000+0.00000000000000i
1240000000.00000+0.00000000000000i	0.00000000000000+0.00000000000000i	0.00000000000000+4478304.97619393i	0.00000000000000+0.00000000000000i	0.00000000000000+0.00000000000000i
1250000000.00000+0.00000000000000i	0.00000000000000+0.00000000000000i	0.00000000000000+4478304.97619393i	0.00000000000000+0.00000000000000i	0.00000000000000+0.00000000000000i
1260000000.00000+0.00000000000000i	0.00000000000000+0.00000000000000i	0.00000000000000+4478304.97619393i	0.00000000000000+0.00000000000000i	0.00000000000000+0.00000000000000i
1270000000.00000+0.00000000000000i	0.00000000000000+0.00000000000000i	0.00000000000000+4478304.97619393i	0.00000000000000+0.00000000000000i	0.00000000000000+0.00000000000000i
1280000000.00000+0.00000000000000i	0.00000000000000+0.00000000000000i	0.00000000000000+4478304.97619393i	0.00000000000000+0.00000000000000i	0.00000000000000+0.00000000000000i
1290000000.00000+0.00000000000000i	0.00000000000000+0.00000000000000i	0.00000000000000+4478304.97619393i	0.00000000000000+0.00000000000000i	0.00000000000000+0.00000000000000i
1300000000.00000+0.00000000000000i	0.00000000000000+0.00000000000000i	0.00000000000000+4478304.97619393i	0.00000000000000+0.00000000000000i	0.00000000000000+0.00000000000000i
1310000000.00000+0.00000000000000i	0.00000000000000+0.00000000000000i	0.00000000000000+4478304.97619393i	0.00000000000000+0.00000000000000i	0.00000000000000+0.00000000000000i
1320000000.00000+0.00000000000000i	0.00000000000000+0.00000000000000i	0.00000000000000+4478304.97619393i	0.00000000000000+0.00000000000000i	0.00000000000000+0.00000000000000i
1330000000.00000+0.00000000000000i	0.00000000000000+0.00000000000000i	0.00000000000000+4478304.97619393i	0.00000000000000+0.00000000000000i	0.00000000000000+0.00000000000000i
1340000000.00000+0.00000000000000i	0.00000000000000+0.00000000000000i	0.00000000000000+4478304.97619393i	0.00000000000000+0.00000000000000i	0.00000000000000+0.00000000000000i
1350000000.00000+0.00000000000000i	0.00000000000000+0.00000000000000i	0.00000000000000+4478304.97619393i	0.00000000000000+0.00000000000000i	0.00000000000000+0.00000000000000i
1360000000.00000+0.00000000000000i	0.00000000000000+0.00000000000000i	0.00000000000000+4478304.97619393i	0.00000000000000+0.00000000000000i	0.00000000000000+0.00000000000000i
1370000000.00000+0.00000000000000i	0.00000000000000+0.00000000000000i	0.00000000000000+4478304.97619393i	0.00000000000000+0.00000000000000i	0.00000000000000+0.00000000000000i
1380000000.00000+0.00000000000000i	0.00000000000000+0.00000000000000i	0.00000000000000+4478304.97619393i	0.00000000000000+0.00000000000000i	0.00000000000000+0.00000000000000i
1390000000.00000+0.00000000000000i	0.00000000000000+0.00000000000000i	0.00000000000000+4478304.97619393i	0.00000000000000+0.00000000000000i	0.00000000000000+0.00000000000000i
1400000000.00000+0.00000000000000i	0.00000000000000+0.00000000000000i	0.00000000000000+4478304.97619393i	0.00000000000000+0.00000000000000i	0.00000000000000+0.00000000000000i
1410000000.00000+0.00000000000000i	0.00000000000000+0.00000000000000i	0.00000000000000+4478304.97619393i	0.00000000000000+0.00000000000000i	0.00000000000000+0.00000000000000i
1420000000.00000+0.00000000000000i	0.00000000000000+0.00000000000000i	0.00000000000000+4478304.97619393i	0.00000000000000+0.00000000000000i	0.00000000000000+0.00000000000000i
1430000000.00000+0.00000000000000i	0.00000000000000+0.00000000000000i	0.00000000000000+4478304.97619393i	0.00000000000000+0.00000000000000i	0.00000000000000+0.00000000000000i
1440000000.00000+0.00000000000000i	0.00000000000000+0.00000000000000i	0.00000000000000+4478304.97619393i	0.00000000000000+0.00000000000000i	0.00000000000000+0.00000000000000i
1450000000.00000+0.00000000000000i	0.00000000000000+0.00000000000000i	0.00000000000000+4478304.97619393i	0.00000000000000+0.00000000000000i	0.00000000000000+0.00000000000000i
1460000000.00000+0.00000000000000i	0.00000000000000+0.00000000000000i	0.00000000000000+4478304.97619393i	0.00000000000000+0.00000000000000i	0.00000000000000+0.00000000000000i
1470000000.00000+0.00000000000000i	0.00000000000000+0.00000000000000i	0.00000000000000+4478304.97619393i	0.00000000000000+0.00000000000000i	0.00000000000000+0.00000000000000i
1480000000.00000+0.00000000000000i	0.00000000000000+0.00000000000000i	0.00000000000000+4478304.97619393i	0.00000000000000+0.00000000000000i	0.00000000000000+0.00000000000000i
1490000000.00000+0.00000000000000i	0.00000000000000+0.00000000000000i	0.00000000000000+4478304.97619393i	0.00000000000000+0.00000000000000i	0.00000000000000+0.00000000000000i
1500000000.00000+0.00000000000000i	0.00000000000000+0.00000000000000i	0.00000000000000+4478304.97619393i	0.00000000000000+0.00000000000000i	0.00000000000000+0.00000000000000i
1510000000.00000+0.00000000000000i	0.00000000000000+0.00000000000000i	0.00000000000000+4478304.97619393i	0.00000000000000+0.00000000000000i	0.00000000000000+0.00000000000000i
1520000000.00000+0.00000000000000i	0.00000000000000+0.00000000000000i	0.00000000000000+4478304.97619393i	0.00000000000000+0.00000000000000i	0.00000000000000+0.00000000000000i
1530000000.00000+0.00000000000000i	0.00000000000000+0.00000000000000i	0.00000000000000+4478304.97619393i	0.00000000000000+0.00000000000000i	0.00000000000000+0.00000000000000i
1540000000.00000+0.00000000000000i	0.00000000000000+0.00000000000000i	0.00000000000000+4478304.97619393i	0.00000000000000+0.00000000000000i	0.00000000000000+0.00000000000000i
1550000000.00000+0.00000000000000i	0.00000000000000+0.00000000000000i	0.00000000000000+4478304.97619393i	0.00000000000000+0.00000000000000i	0.00000000000000+0.00000000000000i
1560000000.00000+0.00000000000000i	0.00000000000000+0.00000000000000i	0.00000000000000+4478304.97619393i	0.00000000000000+0.00000000000000i	0.00000000000000+0.00000000000000i
1570000000.00000+0.00000000000000i	0.00000000000000+0.00000000000000i	0.00000000000000+4478304.97619393i	0.00000000000000+0.00000000000000i	0.00000000000000+0.00000000000000i
1580000000.00000+0.00000000000000i	0.00000000000000+0.00000000000000i	0.00000000000000+4478304.97619393i	0.00000000000000+0.00000000000000i	0.00000000000000+0.00000000000000i
1590000000.00000+0.00000000000000i	0.00000000000000+0.00000000000000i	0.00000000000000+4478304.97619393i	0.00000000000000+0.00000000000000i	0.00000000000000+0.00000000000000i
1600000000.00000+0.00000000000000i	0.00000000000000+0.00000000000000i	0.00000000000000+4478304.97619393i	0.00000000000000+0.00000000000000i	0.00000000000000+0.00000000000000i
1610000000.00000+0.00000000000000i	0.00000000000000+0.00000000000000i	0.00000000000000+4478304.97619393i	0.00000000000000+0.00000000000000i	0.00000000000000+0.00000000000000i
1620000000.00000+0.00000000000000i	0.00000000000000+0.00000000000000i	0.00000000000000+4478304.97619393i	0.00000000000000+0.00000000000000i	0.00000000000000+0.00000000000000i
1630000000.00000+0.00000000000000i	0.00000000000000+0.00000000000000i	0.00000000000000+4478304.97619393i	0.00000000000000+0.00000000000000i	0.00000000000000+0.00000000000000i
1640000000.00000+0.00000000000000i	0.00000000000000+0.00000000000000i	0.00000000000000+4478304.97619393i	0.00000000000000+0.00000000000000i	0.00000000000000+0.00000000000000i
1650000000.00000+0.00000000000000i	0.00000000000000+0.00000000000000i	0.00000000000000+4478304.97619393i	0.00000000000000+0.00000000000000i	0.00000000000000+0.00000000000000i
1660000000.00000+0.00000000000000i	0.00000000000000+0.00000000000000i	0.00000000000000+4478304.97619393i	0.00000000000000+0.00000000000000i	0.00000000000000+0.00000000000000i
1670000000.00000+0.00000000000000i	0.00000000000000+0.00000000000000i	0.00000000000000+4478304.97619393i	0.00000000000000+0.00000000000000i	0.00000000000000+0.00000000000000i
1680000000.00000+0.00000000000000i	0.00000000000000+0.00000000000000i	0.00000000000000+4478304.97619393i	0.00000000000000+0.00000000000000i	0.00000000000000+0.00000000000000i
1690000000.00000+0.00000000000000i	0.00000000000000+0.00000000000000i	0.00000000000000+4478304.97619393i	0.00000000000000+0.00000000000000i	0.00000000000000+0.00000000000000i
1700000000.00000+0.00000000000000i	0.00000000000000+0.00000000000000i	0.00000000000000+4478304.97619393i	0.00000000000000+0.00000000000000i	0.00000000000000+0.00000000000000i
1710000000.00000+0.00000000000000i	0.00000000000000+0.00000000000000i	0.00000000000000+4478304.97619393i	0.00000000000000+0.00000000000000i	0.00000000000000+0.00000000000000i
1720000000.00000+0.00000000000000i	0.00000000000000+0.00000000000000i	0.00000000000000+4478304.97619393i	0.00000000000000+0.00000000000000i	0.00000000000000+0.00000000000000i
1730000000.00000+0.00000000000000i	0.00000000000000+0.00000000000000i	0.00000000000000+4478304.97619393i	0.00000000000000+0.00000000000000i	0.00000000000000+0.00000000000000i
1740000000.00000+0.00000000000000i	0.00000000000000+0.00000000000000i	0.00000000000000+4478304.97619393i	0.00000000000000+0.00000000000000i	0.00000000000000+0.00000000000000i
1750000000.00000+0.00000000000000i	0.00000000000000+0.00000000000000i	0.00000000000000+4478304.97619393i	0.00000000000000+0.00000000000000i	0.00000000000000+0.00000000000000i
1760000000.00000+0.00000000000000i	0.00000000000000+0.00000000000000i	0.00000000000000+4478304.97619393i	0.00000000000000+0.00000000000000i	0.00000000000000+0.00000000000000i
1770000000.00000+0.00000000000000i	0.00000000000000+0.00000000000000i	0.00000000000000+4478304.97619393i	0.00000000000000+0.00000000000000i	0.00000000000000+0.00000000000000i
1780000000.00000+0.00000000000000i	0.00000000000000+0.00000000000000i	0.00000000000000+4478304.97619393i	0.00000000000000+0.00000000000000i	0.00000000000000+0.00000000000000i
1790000000.00000+0.00000000000000i	0.00000000000000+0.00000000000000i	0.00000000000000+4478304.97619393i	0.00000000000000+0.00000000000000i	0.00000000000000+0.00000000000000i
1800000000.00000+0.00000000000000i	0.00000000000000+0.00000000000000i	0.00000000000000+4478304.97619393i	0.00000000000000+0.00000000000000i	0.00000000000000+0.00000000000000i
1810000000.00000+0.00000000000000i	0.00000000000000+0.00000000000000i	0.00000000000000+4478304.97619393i	0.00000000000000+0.00000000000000i	0.00000000000000+0.00000000000000i
1820000000.00000+0.00000000000000i	0.00000000000000+0.00000000000000i	0.00000000000000+4478304.97619393i	0.00000000000000+0.00000000000000i	0.00000000000000+0.00000000000000i
1830000000.00000+0.00000000000000i	0.00000000000000+0.00000000000000i	0.00000000000000+4478304.97619393i	0.00000000000000+0.00000000000000i	0.00000000000000+0.00000000000000i
1840000000.00000+0.00000000000000i	0.00000000000000+0.00000000000000i	0.00000000000000+4478304.97619393i	0.00000000000000+0.00000000000000i	0.00000000000000+0.00000000000000i
1850000000.00000+0.00000000000000i	0.00000000000000+0.00000000000000i	0.00000000000000+4478304.97619393i	0.00000000000000+0.00000000000000i	0.00000000000000+0.00000000000000i
1860000000.00000+0.00000000000000i	0.00000000000000+0.00000000000000i	0.00000000000000+4478304.97619393i	0.00000000000000+0.00000000000000i	0.00000000000000+0.00000000000000i
1870000000.00000+0.00000000000000i	0.00000000000000+0.00000000000000i	0.00000000000000+4478304.97619393i	0.00000000000000+0.00000000000000i	0.00000000000000+0.00000000000000i
1880000000.00000+0.00000000000000i	0.00000000000000+0.00000000000000i	0.00000000000000+4478304.97619393i	0.00000000000000+0.00000000000000i	0.00000000000000+0.00000000000000i
1890000000.00000+0.00000000000000i	0.00000000000000+0.00000000000000i	0.00000000000000+4478304.97619393i	0.00000000000000+0.00000000000000i	0.00000000000000+0.00000000000000i
1900000000.00000+0.00000000000000i	0.00000000000000+0.00000000000000i	0.00000000000000+4478304.97619393i	0.00000000000000+0.00000000000000i	0.00000000000000+0.00000000000000i
1910000000.00000+0.00000000000000i	0.00000000000000+0.00000000000000i	0.00000000000000+4478304.97619393i	0.00000000000000+0.00000000000000i	0.00000000000000+0.00000000000000i
1920000000.00000+0.00000000000000i	0.00000000000000+0.00000000000000i	0.00000000000000+4478304.97619393i	0.00000000000000+0.00000000000000i	0.00000000000000+0.00000000000000i
1930000000.00000+0.00000000000000i	0.00000000000000+0.00000000000000i	0.00000000000000+4478304.97619393i	0.00000000000000+0.00000000000000i	0.00000000000000+0.00000000000000i
1940000000.00000+0.00000000000000i	0.00000000000000+0.00000000000000i	0.00000000000000+4478304.97619393i	0.00000000000000+0.00000000000000i	0.00000000000000+0.00000000000000i
1950000000.00000+0.00000000000000i	0.00000000000000+0.00000000000000i	0.00000000000000+4478304.97619393i	0.00000000000000+0.00000000000000i	0.00000000000000+0.00000000000000i
1960000000.00000+0.00000000000000i	0.00000000000000+0.00000000000000i	0.00000000000000+4478304.97619393i	0.00000000000000+0.00000000000000i	0.00000000000000+0.00000000000000i
1970000000.00000+0.00000000000000i	0.00000000000000+0.00000000000000i	0.00000000000000+4478304.97619393i	0.00000000000000+0.00000000000000i	0.00000000000000+0.00000000000000i
1980000000.00000+0.00000000000000i	0.00000000000000+0.00000000000000i	0.00000000000000+4478304.97619393i	0.00000000000000+0.00000000000000i	0.00000000000000+0.00000000000000i
1990000000.00000+0.00000000000000i	0.00000000000000+0.00000000000000i	0.00000000000000+4478304.97619393i	0.00000000000000+0.00000000000000i	0.00000000000000+0.00000000000000i
2000000000.00000+0.00000000000000i	0.00000000000000+0.00000000000000i	0.00000000000000+4478304.97619393i	0.00000000000000+0.00000000000000i	0.00000000000000+0.00000000000000i
