                        Xquad/real
----------------------------------------------------------------------
                       0                              -0
            0.0051195721                      -1134.6046
             0.010239144                      -1967.5934
             0.015358716                      -2277.9208
             0.020478289                      -1984.2195
             0.025597861                      -1166.6855
             0.030717433                      -45.865825
             0.035837005                        1076.059
             0.040956577                       1895.9109
             0.046076149                       2190.6078
             0.051195721                       1877.0729
             0.056315293                       1034.8956
             0.061434866                      -114.44561
             0.066554438                      -1266.4204
              0.07167401                      -2114.7832
             0.076793582                      -2433.7576
             0.081913154                      -2139.0726
             0.087032726                      -1311.3782
             0.092152298                      -175.52783
             0.097271871                       959.01092
              0.10239144                       1780.9069
              0.10751101                       2060.8322
              0.11263059                       1713.9216
              0.11775016                       823.85056
              0.12286973                       -378.2853
               0.1279893                      -1575.0267
              0.13310888                      -2447.4844
              0.13822845                      -2761.5007
              0.14334802                      -2431.8179
              0.14846759                      -1546.6956
              0.15358716                      -345.88984
              0.15870674                       842.59988
              0.16382631                       1690.4054
              0.16894588                       1957.8166
              0.17406545                       1559.8773
              0.17918502                       591.34979
               0.1843046                      -696.75927
              0.18942417                      -1963.4003
              0.19454374                      -2869.0338
              0.19966331                      -3168.0301
              0.20478289                      -2776.8226
              0.20990246                      -1798.9308
              0.21502203                      -499.40283
               0.2201416                       765.12631
              0.22526117                       1642.3938
              0.23038075                       1880.7341
              0.23550032                       1399.3333
              0.24061989                         312.924
              0.24573946                      -1096.5607
              0.25085903                      -2454.5018
              0.25597861                      -3394.6745
              0.26109818                      -3659.6934
              0.26621775                      -3173.3193
              0.27133732                       -2064.345
               0.2764569                      -634.67334
              0.28157647                       720.63662
              0.28669604                       1620.2746
              0.29181561                       1801.6739
              0.29693518                       1195.2307
              0.30205476                      -53.202607
              0.30717433                      -1618.6785
               0.3122939                      -3083.4515
              0.31741347                      -4050.3914
              0.32253304                      -4252.7932
              0.32765262                      -3630.2691
              0.33277219                      -2349.1658
              0.33789176                      -760.82181
              0.34301133                       692.00825
              0.34813091                       1595.7368
              0.35325048                         1680.76
              0.35837005                       898.68105
              0.36348962                      -560.13907
              0.36860919                       -2314.726
              0.37372877                      -3895.3136
              0.37884834                      -4871.7315
              0.38396791                      -4973.3432
              0.38908748                      -4167.1508
              0.39420705                      -2671.5834
              0.39932663                      -900.84876
               0.4044462                       646.12731
              0.40956577                       1522.4945
              0.41468534                       1458.5689
              0.41980492                       440.25551
              0.42492449                      -1281.9386
              0.43004406                      -3257.2368
              0.43516363                      -4955.9145
               0.4402832                      -5915.0669
              0.44540278                      -5868.7929
              0.45052235                      -4826.2539
              0.45564192                      -3074.7851
              0.46076149                       -1105.615
              0.46588106                       518.76183
              0.47100064                       1319.8505
              0.47612021                       1038.2777
              0.48123978                      -289.32524
              0.48635935                       -2334.363
              0.49147892                      -4561.8565
               0.4965985                      -6375.4452
              0.50171807                      -7282.6348
              0.50683764                      -7034.6004
              0.51195721                      -5700.9562
              0.51707679                      -3657.1866
              0.52219636                      -1486.3353
              0.52731593                        179.4612
               0.5324355                       834.63102
              0.53755507                       244.28252
              0.54267465                      -1484.2229
              0.54779422                      -3923.8787
              0.55291379                      -6440.6028
              0.55803336                      -8366.2848
              0.56315293                       -9185.237
              0.56827251                      -8682.1526
              0.57339208                      -7009.2696
              0.57851165                      -4652.0953
              0.58363122                      -2300.9819
               0.5887508                      -662.38215
              0.59387037                      -261.29544
              0.59898994                        -1290.07
              0.60410951                      -3547.0172
              0.60922908                      -6484.1286
              0.61434866                      -9353.0532
              0.61946823                       -11410.69
               0.6245878                      -12128.133
              0.62970737                      -11344.441
              0.63482694                       -9320.812
              0.63994652                      -6677.6183
              0.64506609                      -4229.2064
              0.65018566                      -2760.4002
              0.65530523                      -2806.0322
              0.66042481                      -4495.4379
              0.66554438                      -7507.0981
              0.67066395                      -11148.788
              0.67578352                       -14543.76
              0.68090309                      -16873.286
              0.68602267                      -17608.914
              0.69114224                      -16669.108
              0.69626181                      -14454.587
              0.70138138                      -11749.647
              0.70650095                      -9513.9692
              0.71162053                      -8620.6929
               0.7167401                      -9612.8593
              0.72185967                      -12546.827
              0.72697924                      -16968.498
              0.73209882                      -22032.093
              0.73721839                      -26731.651
              0.74233796                      -30183.415
              0.74745753                      -31881.906
               0.7525771                       -31858.45
              0.75769668                      -30696.864
              0.76281625                      -29399.972
              0.76793582                      -29141.917
              0.77305539                      -30973.086
              0.77817496                      -35557.854
              0.78329454                      -43016.154
              0.78841411                       -52910.37
              0.79353368                      -64377.542
              0.79865325                      -76365.072
              0.80377283                      -87898.297
               0.8088924                       -98299.34
              0.81401197                      -107291.71
              0.81913154                      -114960.29
              0.82425111                      -121581.64
              0.82937069                      -127381.78
              0.83449026                      -132304.71
              0.83960983                      -135876.28
               0.8447294                      -137223.08
              0.84984897                      -135260.28
              0.85496855                      -129009.29
              0.86008812                      -117960.11
              0.86520769                      -102369.67
              0.87032726                      -83394.138
              0.87544684                      -62991.575
              0.88056641                      -43591.215
              0.88568598                      -27593.033
              0.89080555                      -16815.833
              0.89592512                      -12038.227
               0.9010447                      -12764.393
              0.90616427                      -17296.246
              0.91128384                      -23116.721
              0.91640341                      -27504.793
              0.92152298                      -28234.298
              0.92664256                      -24175.641
              0.93176213                      -15633.434
               0.9368817                      -4313.4193
              0.94200127                       7094.7651
              0.94712084                       15629.432
              0.95224042                       18888.253
              0.95735999                       15760.281
              0.96247956                       6851.7609
              0.96759913                      -5532.8289
              0.97271871                      -17883.338
              0.97783828                      -26354.521
              0.98295785                      -27811.844
              0.98807742                      -20789.024
              0.99319699                      -6098.0965
              0.99831657                       13095.445
               1.0034361                       31795.474
               1.0085557                       44211.411
               1.0136753                       45088.638
               1.0187949                       31027.586
               1.0239144                       1471.3993
                1.029034                      -40893.832
               1.0341536                      -90452.704
               1.0392731                       -139649.1
               1.0443927                      -180449.62
               1.0495123                      -205964.18
               1.0546319                      -211861.95
               1.0597514                      -197262.48
                1.064871                      -164899.56
               1.0699906                      -120522.66
               1.0751101                      -71675.597
               1.0802297                       -26134.18
               1.0853493                       9642.0611
               1.0904689                       31700.385
               1.0955884                       39176.614
                1.100708                       34167.471
               1.1058276                       20962.582
               1.1109472                        4852.723
               1.1160667                      -9179.6066
               1.1211863                      -17569.922
               1.1263059                      -18831.598
               1.1314254                      -13641.463
                1.136545                      -4377.3637
               1.1416646                       5729.9312
               1.1467842                       13580.724
               1.1519037                       17058.218
               1.1570233                       15532.669
               1.1621429                       9908.8132
               1.1672624                       2237.3129
                1.172382                      -4971.6063
               1.1775016                      -9520.1929
               1.1826212                      -10156.571
               1.1877407                        -6895.67
               1.1928603                      -950.68953
               1.1979799                       5687.3036
               1.2030995                       10884.312
                1.208219                       13018.383
               1.2133386                        11460.48
               1.2184582                        6743.416
               1.2235777                       375.94197
               1.2286973                       -5635.532
               1.2338169                      -9409.7506
               1.2389365                      -9769.3348
                1.244056                      -6601.8283
               1.2491756                      -895.51794
               1.2542952                        5560.131
               1.2594147                       10719.451
               1.2645343                       12907.486
               1.2696539                       11340.138
               1.2747735                       6379.4557
                1.279893                       -556.2303
               1.2850126                      -7405.2072
               1.2901322                      -12079.121
               1.2952518                      -13101.359
               1.3003713                      -10075.027
               1.3054909                      -3835.5493
               1.3106105                       3765.9032
                 1.31573                       10392.838
               1.3208496                       13917.079
               1.3259692                       13072.063
               1.3310888                       7868.3161
               1.3362083                      -361.41966
               1.3413279                       -9313.753
               1.3464475                      -16371.834
                1.351567                      -19382.841
               1.3566866                      -17327.839
               1.3618062                      -10679.475
               1.3669258                      -1327.7866
               1.3720453                       7922.1079
               1.3771649                       14149.336
               1.3822845                       15188.714
                1.387404                       10318.005
               1.3925236                       547.56084
               1.3976432                      -11593.309
               1.4027628                      -22735.003
               1.4078823                      -29633.565
               1.4130019                      -30152.079
               1.4181215                      -23966.884
               1.4232411                      -12773.594
               1.4283606                       96.849523
               1.4334802                       10572.875
               1.4385998                       15013.182
               1.4437193                       11323.776
               1.4488389                      -313.56798
               1.4539585                      -17343.075
               1.4590781                      -35439.121
               1.4641976                      -49683.346
               1.4693172                       -56008.01
               1.4744368                      -52498.657
               1.4795563                      -40160.177
               1.4846759                      -22877.041
               1.4897955                      -6512.8051
               1.4949151                        2659.058
               1.5000346                      -210.73548
               1.5051542                      -16965.623
               1.5102738                      -45607.158
               1.5153934                      -80531.534
               1.5205129                      -113892.25
               1.5256325                      -137828.96
               1.5307521                      -147031.76
               1.5358716                       -140959.4
               1.5409912                       -125049.9
               1.5461108                      -110460.99
               1.5512304                      -112217.12
               1.5563499                      -146041.99
               1.5614695                      -224519.38
               1.5665891                      -353456.01
               1.5717086                      -529348.68
               1.5768282                      -738664.92
               1.5819478                      -959266.23
               1.5870674                      -1163819.6
               1.5921869                      -1324569.9
               1.5973065                      -1418500.1
               1.6024261                      -1431773.7
               1.6075457                      -1362479.9
               1.6126652                      -1221056.3
               1.6177848                      -1028274.8
               1.6229044                      -811219.87
               1.6280239                      -598134.04
               1.6331435                      -413255.88
               1.6382631                      -272753.48
               1.6433827                      -182586.06
               1.6485022                      -138659.68
               1.6536218                      -129102.96
               1.6587414                      -138003.52
               1.6638609                      -149634.77
               1.6689805                      -152137.21
               1.6741001                      -139810.39
               1.6792197                      -113565.28
               1.6843392                      -79578.614
               1.6894588                      -46651.436
               1.6945784                      -23086.183
               1.6996979                      -13982.583
               1.7048175                      -19694.792
               1.7099371                      -35838.338
               1.7150567                      -54784.132
               1.7201762                      -68152.289
               1.7252958                      -69536.762
               1.7304154                      -56629.708
                1.735535                       -32089.34
               1.7406545                      -2858.8171
               1.7457741                       21903.256
               1.7508937                       33703.899
               1.7560132                       27569.599
               1.7611328                        4003.895
               1.7662524                       -30603.35
                1.771372                      -65355.008
               1.7764915                      -87753.996
               1.7816111                      -87425.188
               1.7867307                      -59657.576
               1.7918502                      -7748.9616
               1.7969698                       56612.531
               1.8020894                       115222.79
                1.807209                       147205.85
               1.8123285                       134004.73
               1.8174481                       64342.489
               1.8225677                      -62093.447
               1.8276873                       -233247.8
               1.8328068                      -426072.92
               1.8379264                      -610528.98
                1.843046                      -755414.89
               1.8481655                      -834767.09
               1.8532851                      -833386.52
               1.8584047                      -750217.81
               1.8635243                       -598776.9
               1.8686438                      -404493.45
               1.8737634                      -199542.52
                1.878883                      -16316.973
               1.8840025                       119002.24
               1.8891221                       191357.87
               1.8942417                       199160.72
               1.8993613                       153628.09
               1.9044808                       75380.797
               1.9096004                      -10812.006
                 1.91472                      -81853.783
               1.9198396                      -121340.05
               1.9249591                      -122657.68
               1.9300787                      -89552.727
               1.9351983                      -34190.335
               1.9403178                       26666.216
               1.9454374                       76306.199
                1.950557                        102353.3
               1.9556766                       99636.248
               1.9607961                       71014.611
               1.9659157                       26075.009
               1.9710353                      -21841.715
               1.9761548                      -59418.807
               1.9812744                      -76919.857
                1.986394                      -70603.309
               1.9915136                      -43416.805
               1.9966331                      -3870.2585
               2.0017527                       36529.314
               2.0068723                       66533.978
               2.0119918                       78201.736
               2.0171114                       68924.636
                2.022231                       41931.346
               2.0273506                       5184.5354
               2.0324701                       -30972.37
               2.0375897                      -56739.319
               2.0427093                      -65542.214
               2.0478289                      -55751.536
               2.0529484                       -30996.89
                2.058068                       969.09368
               2.0631876                       30508.175
               2.0683071                       48794.678
               2.0734267                         50223.6
               2.0785463                       33874.321
               2.0836659                       3648.2486
               2.0887854                      -32930.155
                2.093905                      -66892.827
               2.0990246                      -90369.409
               2.1041441                      -98783.164
               2.1092637                      -92100.798
               2.1143833                      -74804.922
               2.1195029                      -54614.038
               2.1246224                      -40319.221
                2.129742                      -39344.872
               2.1348616                      -55709.255
               2.1399812                      -88942.343
               2.1451007                      -134248.29
               2.1502203                      -183853.62
               2.1553399                      -229155.68
               2.1604594                       -263068.8
                2.165579                      -281916.75
               2.1706986                       -286351.1
               2.1758182                      -281049.72
               2.1809377                      -273289.52
               2.1860573                      -270800.41
               2.1911769                      -279505.23
               2.1962964                      -301780.61
                2.201416                      -335726.63
               2.2065356                      -375651.82
               2.2116552                      -413640.53
               2.2167747                      -441767.33
               2.2218943                      -454340.89
               2.2270139                      -449548.84
               2.2321335                      -430038.32
                2.237253                      -402260.46
               2.2423726                      -374749.94
               2.2474922                      -355807.95
               2.2526117                      -351227.06
               2.2577313                      -362690.33
               2.2628509                      -387295.99
               2.2679705                      -418350.98
                 2.27309                       -447225.9
               2.2782096                      -465766.59
               2.2833292                      -468596.61
               2.2884487                      -454666.23
               2.2935683                      -427603.31
               2.2986879                      -394747.69
               2.3038075                      -365114.61
                2.308927                      -346835.09
               2.3140466                      -344777.81
               2.3191662                      -359021.95
               2.3242857                      -384630.36
               2.3294053                      -412823.15
               2.3345249                      -433267.66
               2.3396445                      -436884.67
                2.344764                       -418411.9
               2.3498836                      -378010.34
               2.3550032                      -321440.07
               2.3601228                      -258709.26
               2.3652423                      -201514.37
               2.3703619                      -160129.83
               2.3754815                      -140578.23
                2.380601                      -142865.02
               2.3857206                      -160802.12
               2.3908402                      -183534.49
               2.3959598                      -198427.99
               2.4010793                      -194595.44
               2.4061989                      -166133.75
               2.4113185                      -114178.77
                2.416438                      -47155.025
               2.4215576                       20957.404
               2.4266772                       74005.825
               2.4317968                       97918.371
               2.4369163                       84782.412
               2.4420359                       35690.767
               2.4471555                      -38447.466
               2.4522751                      -118470.06
               2.4573946                      -180671.15
               2.4625142                       -201898.3
               2.4676338                      -164912.79
               2.4727533                       -62781.63
               2.4778729                       98748.286
               2.4829925                       301510.64
               2.4881121                       517846.75
               2.4932316                       715630.99
               2.4983512                       864349.68
               2.5034708                          940948
               2.5085903                       934208.14
               2.5137099                       846748.36
               2.5188295                       694258.18
               2.5239491                       502187.63
               2.5290686                       300649.14
               2.5341882                       118649.63
               2.5393078                      -21129.302
               2.5444274                      -105956.73
               2.5495469                      -134431.31
               2.5546665                      -115481.21
               2.5597861                       -65373.35
               2.5649056                      -3524.5953
               2.5700252                       51889.003
               2.5751448                       87562.153
               2.5802644                        97213.27
               2.5853839                       81934.778
               2.5905035                       48849.439
               2.5956231                       8556.3027
               2.6007426                      -27917.448
               2.6058622                      -51895.787
               2.6109818                      -58937.113
               2.6161014                       -49466.45
               2.6212209                      -28134.269
               2.6263405                      -2188.6227
               2.6314601                       20639.871
               2.6365796                       34167.646
               2.6416992                       35203.019
               2.6468188                       24096.508
               2.6519384                       4337.0027
               2.6570579                      -18621.721
               2.6621775                       -38941.54
               2.6672971                       -51951.77
               2.6724167                      -55278.306
               2.6775362                       -49293.75
               2.6826558                      -36823.852
               2.6877754                      -22239.207
               2.6928949                      -10208.126
               2.6980145                      -4453.4402
               2.7031341                       -6831.616
               2.7082537                      -16949.559
               2.7133732                      -32384.064
               2.7184928                      -49411.948
               2.7236124                      -64035.081
               2.7287319                       -73022.65
               2.7338515                      -74704.341
               2.7389711                       -69325.47
               2.7440907                      -58895.128
               2.7492102                      -46589.119
               2.7543298                      -35878.023
               2.7594494                      -29611.821
                2.764569                      -29293.847
               2.7696885                      -34720.934
               2.7748081                      -44069.907
               2.7799277                      -54397.865
               2.7850472                      -62422.662
               2.7901668                      -65384.048
               2.7952864                      -61769.569
                2.800406                      -51724.839
               2.8055255                      -37045.822
               2.8106451                      -20752.428
               2.8157647                      -6344.3049
               2.8208842                       3082.1508
               2.8260038                       5639.7133
               2.8311234                       1176.8008
                2.836243                      -8616.4497
               2.8413625                      -20566.722
               2.8464821                      -30773.824
               2.8516017                      -35597.326
               2.8567213                      -32639.748
               2.8618408                      -21477.704
               2.8669604                      -3936.1956
                 2.87208                       16202.258
               2.8771995                       34030.949
               2.8823191                       44734.473
               2.8874387                       44913.859
               2.8925583                       33691.459
               2.8976778                       13282.637
               2.9027974                       -11183.15
                2.907917                      -32649.237
               2.9130365                      -43790.468
               2.9181561                      -39023.283
               2.9232757                      -16417.122
               2.9283953                       20980.084
               2.9335148                       64814.289
               2.9386344                       102324.59
                2.943754                       118438.69
               2.9488735                        98750.38
               2.9539931                       32821.814
               2.9591127                      -82887.473
               2.9642323                       -243158.3
               2.9693518                      -433745.52
               2.9744714                      -632936.54
                2.979591                      -814783.21
               2.9847106                      -953477.28
               2.9898301                      -1028048.4
               2.9949497                      -1026434.6
               3.0000693                      -948049.53
               3.0051888                      -804240.23
               3.0103084                      -616454.81
                3.015428                      -412418.61
               3.0205476                      -221057.24
               3.0256671                       -67194.79
               3.0307867                       32873.251
               3.0359063                       74005.263
               3.0410258                       62493.809
               3.0461454                       13971.216
                3.051265                       -50562.46
               3.0563846                      -109673.61
               3.0615041                      -146265.41
               3.0666237                      -151108.19
               3.0717433                      -124355.45
               3.0768629                      -74754.665
               3.0819824                       -16814.22
                3.087102                       33324.809
               3.0922216                       62259.168
               3.0973411                       62837.418
               3.1024607                       35944.038
               3.1075803                      -9877.5095
               3.1126999                       -60843.37
               3.1178194                      -101748.57
                3.122939                      -120184.51
               3.1280586                      -110044.15
               3.1331781                      -73379.103
               3.1382977                      -20090.468
               3.1434173                       34508.439
               3.1485369                       73663.908
               3.1536564                       83682.062
                3.158776                       57790.268
               3.1638956                      -1671.5508
               3.1690152                      -83356.703
               3.1741347                         -169367
               3.1792543                      -239508.02
               3.1843739                      -276318.61
               3.1894934                      -269622.18
                3.194613                      -219432.58
               3.1997326                       -136430.4
               3.2048522                      -39814.042
               3.2099717                       47018.809
               3.2150913                       101953.58
               3.2202109                       109489.65
               3.2253304                       64616.279
                 3.23045                      -25734.169
               3.2355696                      -144043.69
               3.2406892                      -266083.07
               3.2458087                      -366393.64
               3.2509283                      -424071.11
               3.2560479                      -427469.37
               3.2611674                      -376705.81
                3.266287                      -283387.63
               3.2714066                      -167658.38
               3.2765262                      -53315.952
               3.2816457                       37784.913
               3.2867653                       90675.327
               3.2918849                       100374.13
               3.2970045                       72440.966
                3.302124                       20921.273
               3.3072436                      -35722.032
               3.3123632                      -79600.606
               3.3174827                      -98016.694
               3.3226023                      -86527.434
               3.3277219                      -49705.847
               3.3328415                       541.03455
                3.337961                       48595.586
               3.3430806                       79689.618
               3.3482002                        84159.38
               3.3533197                       60244.322
               3.3584393                       14671.231
               3.3635589                      -39142.766
               3.3686785                      -84798.611
                3.373798                      -107551.31
               3.3789176                      -98632.321
               3.3840372                      -58084.775
               3.3891568                       4685.8342
               3.3942763                       72854.087
               3.3993959                       126169.73
               3.4045155                       146023.27
                3.409635                       120306.39
               3.4147546                       46823.649
               3.4198742                      -65637.398
               3.4249938                      -198889.22
               3.4301133                      -329228.47
               3.4352329                      -432692.14
               3.4403525                      -490413.14
                3.445472                      -492779.33
               3.4505916                      -441402.43
               3.4557112                      -348451.96
               3.4608308                      -233564.74
               3.4659503                      -119134.51
               3.4710699                      -25169.486
               3.4761895                       35017.074
               3.4813091                       57261.829
               3.4864286                       46628.156
               3.4915482                       15200.493
               3.4966678                      -21728.225
               3.5017873                      -50009.807
               3.5069069                      -60365.228
               3.5120265                      -50516.882
               3.5171461                      -25221.749
               3.5222656                       5719.1432
               3.5273852                       30847.729
               3.5325048                       40830.733
               3.5376243                       31536.664
               3.5427439                        5511.641
               3.5478635                       -28592.97
               3.5529831                      -58513.967
               3.5581026                      -72119.138
               3.5632222                      -61360.339
               3.5683418                      -25308.085
               3.5734614                           28645
               3.5785809                       85856.067
               3.5837005                       127623.08
               3.5888201                       135763.57
               3.5939396                       97451.641
               3.5990592                       9070.4465
               3.6041788                      -121956.08
               3.6092984                      -277910.15
               3.6144179                      -434031.92
               3.6195375                      -563576.17
               3.6246571                      -643512.91
               3.6297766                      -659532.53
               3.6348962                      -609168.25
               3.6400158                      -502294.04
               3.6451354                      -358885.29
               3.6502549                      -204584.79
               3.6553745                      -65136.107
               3.6604941                       38998.175
               3.6656136                       96585.656
               3.6707332                       107266.13
               3.6758528                       80592.123
               3.6809724                       32813.101
               3.6860919                      -17712.821
               3.6912115                      -55290.372
               3.6963311                      -70651.444
               3.7014507                      -62818.446
               3.7065702                       -38685.29
               3.7116898                      -10527.966
               3.7168094                       7821.4131
               3.7219289                       5083.8491
               3.7270485                      -24167.661
               3.7321681                      -77871.085
               3.7372877                      -146895.94
               3.7424072                      -217370.23
               3.7475268                      -274267.45
               3.7526464                      -305290.55
               3.7577659                      -304030.25
               3.7628855                      -271581.82
               3.7680051                      -216219.71
               3.7731247                      -151240.35
               3.7782442                      -91557.381
               3.7833638                      -49946.636
               3.7884834                      -33914.165
                3.793603                      -43982.638
               3.7987225                      -73811.558
               3.8038421                      -112085.97
               3.8089617                      -145653.36
               3.8140812                      -163075.88
               3.8192008                      -157672.98
               3.8243204                      -129277.33
                 3.82944                      -84271.329
               3.8345595                      -33920.675
               3.8396791                        8543.022
               3.8447987                       31327.938
               3.8499182                       27104.144
               3.8550378                      -5114.0278
               3.8601574                      -59676.311
                3.865277                      -125634.69
               3.8703965                      -189340.35
               3.8755161                      -237624.18
               3.8806357                      -260762.27
               3.8857553                      -254510.27
               3.8908748                      -220751.17
               3.8959944                       -166666.8
                3.901114                      -102715.87
               3.9062335                      -39986.544
               3.9113531                       12382.403
               3.9164727                       49074.679
               3.9215923                       69344.558
               3.9267118                       76535.609
               3.9318314                       76590.705
                3.936951                       76023.611
               3.9420705                        79934.51
               3.9471901                       90603.239
               3.9523097                       107005.32
               3.9574293                        125324.3
               3.9625488                       140256.13
               3.9676684                        146693.5
                3.972788                       141292.28
               3.9779075                       123478.85
               3.9830271                       95632.376
               3.9881467                       62419.645
               3.9932663                         29499.7
               3.9983858                       1986.7435
               4.0035054                          -16884
                4.008625                      -26513.178
               4.0137446                      -28916.566
               4.0188641                      -27952.297
               4.0239837                      -28035.134
               4.0291033                      -32718.327
               4.0342228                      -43554.821
               4.0393424                      -59564.032
                4.044462                        -77454.2
               4.0495816                      -92534.253
               4.0547011                      -100054.44
               4.0598207                      -96595.749
               4.0649403                      -81116.595
               4.0700598                       -55363.41
               4.0751794                      -23530.424
                4.080299                       8737.1539
               4.0854186                       35722.096
               4.0905381                       53019.644
               4.0956577                       58554.328
               4.1007773                       52962.507
               4.1058969                       39252.828
               4.1110164                       21857.128
                4.116136                       5350.1767
               4.1212556                      -6797.5751
               4.1263751                      -13087.359
               4.1314947                      -14246.669
               4.1366143                       -12815.92
               4.1417339                      -12202.912
               4.1468534                      -15491.132
                4.151973                       -24355.76
               4.1570926                      -38408.156
               4.1622121                       -55165.56
               4.1673317                      -70663.037
               4.1724513                      -80540.255
               4.1775709                      -81298.223
               4.1826904                      -71369.421
                 4.18781                      -51693.169
               4.1929296                      -25623.243
               4.1980492                       1821.0127
               4.2031687                       25166.745
               4.2082883                       39840.195
               4.2134079                       43296.529
               4.2185274                       35622.832
                4.223647                        19453.06
               4.2287666                      -779.37653
               4.2338862                      -20046.136
               4.2390057                      -34057.476
               4.2441253                      -40364.105
               4.2492449                      -38932.817
               4.2543644                      -32047.673
                4.259484                       -23574.22
               4.2646036                      -17798.267
               4.2697232                      -18165.199
               4.2748427                      -26269.809
               4.2799623                      -41374.176
               4.2850819                      -60582.899
               4.2902014                      -79622.502
                4.295321                      -94005.485
               4.3004406                      -100255.15
               4.3055602                      -96853.132
               4.3106797                      -84650.725
               4.3157993                      -66634.998
               4.3209189                       -47119.18
               4.3260385                      -30584.554
                4.331158                      -20494.519
               4.3362776                      -18405.494
               4.3413972                      -23613.637
               4.3465167                      -33425.617
               4.3516363                      -43968.312
               4.3567559                      -51304.626
               4.3618755                      -52541.369
                4.366995                       -46622.14
               4.3721146                      -34590.493
               4.3772342                      -19259.634
               4.3823537                      -4391.6995
               4.3874733                       6374.5455
               4.3925929                       10541.691
               4.3977125                       7431.1855
                4.402832                      -1665.6511
               4.4079516                      -13897.591
               4.4130712                      -25699.281
               4.4181908                      -33825.133
               4.4233103                      -36272.595
               4.4284299                      -32830.634
               4.4335495                      -25098.925
                4.438669                      -15976.552
               4.4437886                      -8771.9022
               4.4489082                      -6194.3321
               4.4540278                      -9521.9964
               4.4591473                       -18189.36
               4.4642669                      -29916.939
               4.4693865                      -41349.317
                4.474506                      -49020.245
               4.4796256                      -50367.903
               4.4847452                      -44506.819
               4.4898648                       -32530.58
               4.4949843                      -17252.441
               4.5001039                      -2451.3924
               4.5052235                       8166.4698
               4.5103431                       11998.305
               4.5154626                       8273.7628
               4.5205822                       -1725.839
               4.5257018                      -15023.095
               4.5308213                      -27775.956
               4.5359409                       -36349.89
               4.5410605                      -38326.089
               4.5461801                      -33158.607
               4.5512996                      -22293.633
               4.5564192                      -8718.8686
               4.5615388                       3924.0823
               4.5666583                       12403.945
               4.5717779                       14827.694
               4.5768975                       11157.802
               4.5820171                       3164.0916
               4.5871366                      -6177.5958
               4.5922562                      -13661.641
               4.5973758                      -16909.201
               4.6024953                      -15179.409
               4.6076149                      -9675.0324
               4.6127345                      -3227.9608
               4.6178541                       564.97945
               4.6229736                      -1485.9955
               4.6280932                      -11032.303
               4.6332128                      -27452.398
               4.6383324                      -47772.094
               4.6434519                      -67318.249
               4.6485715                      -80971.125
               4.6536911                      -84694.038
               4.6588106                      -76914.076
               4.6639302                      -59338.618
               4.6690498                      -36922.407
               4.6741694                      -16918.347
               4.6792889                      -7195.4557
               4.6844085                      -14221.531
               4.6895281                      -41225.116
               4.6946476                      -87034.604
               4.6997672                       -145940.5
               4.7048868                      -208675.25
               4.7100064                      -264317.62
               4.7151259                      -302681.37
               4.7202455                      -316607.79
               4.7253651                      -303589.96
               4.7304847                      -266314.57
               4.7356042                      -211977.22
               4.7407238                      -150539.32
               4.7458434                      -92368.666
               4.7509629                      -45865.827
               4.7560825                       -15682.97
               4.7612021                      -1984.8645
               4.7663217                      -924.98315
               4.7714412                      -6184.4899
               4.7765608                      -11135.455
               4.7816804                      -11019.263
               4.7867999                      -4524.3503
               4.7919195                       5691.9171
               4.7970391                       13705.153
               4.8021587                        12079.78
               4.8072782                       -5788.916
               4.8123978                      -43390.571
               4.8175174                      -99522.335
                4.822637                      -167896.12
               4.8277565                      -238103.56
               4.8328761                      -297752.71
               4.8379957                      -335271.66
               4.8431152                      -342682.05
               4.8482348                      -317632.44
               4.8533544                      -264154.42
                4.858474                      -191920.72
               4.8635935                      -114162.51
               4.8687131                      -44744.951
               4.8738327                        4883.984
               4.8789522                       28123.642
               4.8840718                       24441.028
               4.8891914                      -897.03989
                4.894311                      -38478.154
               4.8994305                      -77332.145
               4.9045501                      -107769.46
               4.9096697                      -123736.87
               4.9147892                      -124098.73
               4.9199088                      -112546.46
               4.9250284                      -96206.276
                4.930148                      -83358.755
               4.9352675                      -80911.596
               4.9403871                      -92320.202
               4.9455067                      -116517.49
               4.9506263                      -148131.98
               4.9557458                      -178919.72
               4.9608654                      -200006.19
                4.965985                       -204318.6
               4.9711045                      -188542.74
               4.9762241                      -154073.84
               4.9813437                      -106708.59
               4.9864633                        -55169.5
               4.9915828                      -8868.5493
               4.9967024                       24480.295
                5.001822                       40755.503
               5.0069415                       40326.236
               5.0120611                       27728.231
               5.0171807                       10227.243
               5.0223003                      -4317.2333
               5.0274198                      -9688.4014
               5.0325394                      -3028.8447
                5.037659                       14431.899
               5.0427786                       37829.199
               5.0478981                        60155.15
               5.0530177                       74361.598
               5.0581373                       75476.723
               5.0632568                       62135.387
               5.0683764                         37088.3
                5.073496                        6540.921
               5.0786156                      -21499.488
               5.0837351                      -39411.994
               5.0888547                      -42076.957
               5.0939743                      -28326.685
               5.0990938                      -1322.2718
               5.1042134                       32256.639
                5.109333                       63993.499
               5.1144526                       86001.674
               5.1195721                       93053.198

