                        dx_beam=0.5_1/real
----------------------------------------------------------------------
                       0                       1599.1255
            0.0088673591                       3276.4404
             0.017734718                       5698.9638
             0.026602077                      -3756.5507
             0.035469436                       249.07202
             0.044336795                       940.15893
             0.053204154                       1118.1209
             0.062071513                       1120.9172
             0.070938872                       1006.2485
             0.079806231                       854.48551
             0.088673591                       739.25219
              0.09754095                       700.69474
              0.10640831                       737.38522
              0.11527567                       814.16481
              0.12414303                       882.10081
              0.13301039                       901.46712
              0.14187774                       857.85878
               0.1507451                       765.53739
              0.15961246                       658.39275
              0.16847982                       573.86592
              0.17734718                       537.10583
              0.18621454                       551.71005
               0.1950819                       600.29188
              0.20394926                       653.85499
              0.21281662                       685.28171
              0.22168398                       680.79658
              0.23055134                       644.59188
              0.23941869                       595.10823
              0.24828605                       555.21176
              0.25715341                       541.11557
              0.26602077                       555.31603
              0.27488813                       586.97474
              0.28375549                       620.09278
              0.29262285                       647.42538
              0.30149021                       686.46127
              0.31035757                       775.78138
              0.31922493                       903.77246
              0.32809228                       874.92437
              0.33695964                       838.44494
                0.345827                       831.97887
              0.35469436                       844.47501
              0.36356172                       858.09756
              0.37242908                       857.39137
              0.38129644                       835.40772
               0.3901638                        795.8248
              0.39903116                       750.27663
              0.40789852                       712.26402
              0.41676588                       690.57304
              0.42563323                       685.25599
              0.43450059                       687.92473
              0.44336795                       686.03455
              0.45223531                       668.99386
              0.46110267                       633.16878
              0.46997003                       583.47941
              0.47883739                       530.96106
              0.48770475                        487.5708
              0.49657211                       460.75934
              0.50543947                       450.34639
              0.51430682                        449.0683
              0.52317418                        446.3983
              0.53204154                       433.71773
               0.5409089                        408.3479
              0.54977626                       374.57088
              0.55864362                        341.2475
              0.56751098                       317.26114
              0.57637834                       307.01353
               0.5852457                       308.12145
              0.59411306                       312.37996
              0.60298042                       309.50079
              0.61184777                       291.83923
              0.62071513                       257.87444
              0.62958249                       212.80197
              0.63844985                       166.03054
              0.64731721                       126.99523
              0.65618457                       101.22147
              0.66505193                        88.07262
              0.67391929                       81.392795
              0.68278665                        72.90791
              0.69165401                       56.476706
              0.70052137                       31.035591
              0.70938872                      0.93252947
              0.71825608                      -26.372765
              0.72712344                      -44.046829
               0.7359908                      -49.225968
              0.74485816                      -44.365963
              0.75372552                      -35.999013
              0.76259288                      -31.601672
              0.77146024                      -36.167071
               0.7803276                      -50.020857
              0.78919496                      -68.766627
              0.79806231                      -85.449763
              0.80692967                      -93.972556
              0.81579703                      -92.061226
              0.82466439                      -82.326104
              0.83353175                      -70.945197
              0.84239911                      -64.656548
              0.85126647                       -67.53104
              0.86013383                      -79.067922
              0.86900119                      -94.496621
              0.87786855                      -107.10417
              0.88673591                      -111.44956
              0.89560326                      -105.92646
              0.90447062                      -93.472843
              0.91333798                      -80.126553
              0.92220534                       -72.15029
               0.9310727                       -73.10885
              0.93994006                      -82.272148
              0.94880742                      -95.065153
              0.95767478                      -105.31702
              0.96654214                      -108.22528
               0.9754095                      -102.62106
              0.98427685                      -91.457905
              0.99314421                      -80.308926
               1.0020116                       -74.62475
               1.0108789                      -77.093263
               1.0197463                      -86.368421
               1.0286136                      -97.755831
                1.037481                      -105.49695
               1.0463484                       -105.5365
               1.0552157                      -97.444388
               1.0640831                      -84.585474
               1.0729504                      -72.478818
               1.0818178                      -66.151172
               1.0906852                      -67.758681
               1.0995525                      -75.606054
               1.1084199                      -85.012664
               1.1172872                      -90.589264
               1.1261546                      -88.822886
                1.135022                      -79.734344
               1.1438893                      -66.830025
               1.1527567                      -55.391915
                1.161624                      -49.941111
               1.1704914                      -52.093885
               1.1793588                      -59.827972
               1.1882261                      -68.492387
               1.1970935                      -73.059347
               1.2059608                      -70.530162
               1.2148282                      -61.346078
               1.2236955                      -49.142046
               1.2325629                      -38.979175
               1.2414303                      -34.915383
               1.2502976                      -38.080478
                1.259165                      -46.168666
               1.2680323                      -54.575935
               1.2768997                      -58.622654
               1.2857671                      -55.789646
               1.2946344                      -46.900404
               1.3035018                      -35.695656
               1.3123691                      -27.019094
               1.3212365                      -24.493743
               1.3301039                      -28.803221
               1.3389712                      -37.392667
               1.3478386                      -45.719005
               1.3567059                      -49.439174
               1.3655733                      -46.482893
               1.3744407                      -38.021046
                1.383308                      -27.876954
               1.3921754                      -20.675373
               1.4010427                      -19.624254
               1.4099101                      -24.992106
               1.4187774                      -34.002585
               1.4276448                      -42.184966
               1.4365122                      -45.523431
               1.4453795                      -42.371759
               1.4542469                      -34.220488
               1.4631142                      -24.958942
               1.4719816                      -18.996568
                1.480849                      -19.150103
               1.4897163                      -25.308252
               1.4985837                      -34.506128
                1.507451                      -42.363496
               1.5163184                       -45.18926
               1.5251858                      -41.741321
               1.5340531                      -33.802844
               1.5429205                      -25.307713
               1.5517878                      -20.443307
               1.5606552                      -21.644811
               1.5695226                      -28.440893
               1.5783899                      -37.697153
               1.5872573                      -45.131817
               1.5961246                       -47.37064
                1.604992                       -43.55471
               1.6138593                      -35.734937
               1.6227267                      -27.872019
               1.6315941                      -23.928734
               1.6404614                      -25.972607
               1.6493288                      -33.196628
               1.6581961                      -42.321219
               1.6670635                      -49.177199
               1.6759309                      -50.705696
               1.6847982                      -46.415676
               1.6936656                      -38.604637
               1.7025329                      -31.243432
               1.7114003                      -28.066044
               1.7202677                      -30.782671
                1.729135                      -38.270749
               1.7380024                      -47.126126
               1.7468697                      -53.303884
               1.7557371                       -54.05795
               1.7646045                      -49.249632
               1.7734718                      -41.401577
               1.7823392                      -34.477191
               1.7912065                      -31.975736
               1.8000739                      -35.258215
               1.8089412                      -42.904608
               1.8178086                      -51.405792
                1.826676                      -56.853071
               1.8355433                        -56.8121
               1.8444107                      -51.483037
                1.853278                      -43.594169
               1.8621454                      -37.085004
               1.8710128                      -35.214263
               1.8798801                      -39.001171
               1.8887475                      -46.745414
               1.8976148                      -54.851733
               1.9064822                      -59.559449
               1.9153496                      -58.745213
               1.9242169                      -52.935082
               1.9330843                       -45.04373
               1.9419516                      -38.969985
                1.950819                      -37.725284
               1.9596864                       -41.99324
               1.9685537                      -49.809209
               1.9774211                       -57.50991
               1.9862884                      -61.494278
               1.9951558                      -59.949334
               2.0040231                      -53.714109
               2.0128905                      -45.869936
               2.0217579                      -40.257016
               2.0306252                      -39.631027
               2.0394926                      -44.344339
               2.0483599                      -52.182607
               2.0572273                      -59.432336
               2.0660947                      -62.664763
                2.074962                      -60.379296
               2.0838294                      -53.718986
               2.0926967                      -45.916958
               2.1015641                      -40.741903
               2.1104315                      -40.689887
               2.1192988                      -45.789942
               2.1281662                       -53.59487
               2.1370335                      -60.359615
               2.1459009                      -62.839893
               2.1547682                       -59.84768
               2.1636356                      -52.817985
                2.172503                      -45.116736
               2.1813703                      -40.423602
               2.1902377                       -40.96675
                2.199105                      -46.456222
               2.2079724                      -54.226674
               2.2168398                      -60.519347
               2.2257071                      -62.286927
               2.2345745                      -58.655037
               2.2434418                      -51.339628
               2.2523092                      -43.821145
               2.2611766                      -39.672904
               2.2700439                      -40.846402
               2.2789113                      -46.736142
               2.2877786                      -54.472124
                2.296646                      -60.298615
               2.3055134                      -61.377072
               2.3143807                      -57.147809
               2.3232481                      -49.597442
               2.3321154                       -42.30427
               2.3409828                      -38.720367
               2.3498501                      -40.514916
               2.3587175                      -46.773861
               2.3675849                      -54.439603
               2.3764522                       -59.77945
               2.3853196                       -60.17782
               2.3941869                      -55.392072
               2.4030543                      -47.669171
               2.4119217                      -40.667272
                2.420789                       -37.69972
               2.4296564                      -40.144316
               2.4385237                      -46.781392
               2.4473911                      -54.378647
               2.4562585                      -59.242338
               2.4651258                       -58.99047
               2.4739932                        -53.6969
               2.4828605                      -45.856878
               2.4917279                      -39.190127
               2.5005953                      -36.855506
               2.5094626                      -39.934165
                 2.51833                      -46.909543
               2.5271973                      -54.394558
               2.5360647                      -58.757649
                2.544932                      -57.867671
               2.5537994                      -52.119725
               2.5626668                       -44.24863
               2.5715341                      -38.018324
               2.5804015                      -36.415314
               2.5892688                      -40.213148
               2.5981362                      -47.597842
               2.6070036                      -55.035452
               2.6158709                      -58.966663
               2.6247383                      -57.515584
               2.6336056                       -51.39205
                2.642473                      -43.553061
               2.6513404                      -37.784372
               2.6602077                       -36.88198
               2.6690751                      -41.306418
               2.6779424                      -48.956932
               2.6868098                      -56.175744
               2.6956772                      -59.501993
               2.7045445                      -57.334057
               2.7134119                      -50.701607
               2.7222792                      -42.774958
               2.7311466                      -37.345127
               2.7400139                      -37.002857
               2.7488813                      -41.890883
               2.7577487                      -49.630152
                2.766616                       -56.45795
               2.7754834                      -59.033554
               2.7843507                      -56.045125
               2.7932181                      -48.845216
               2.8020855                      -40.807282
               2.8109528                      -35.709488
               2.8198202                       -35.92026
               2.8286875                       -41.25708
               2.8375549                      -49.068549
               2.8464223                      -55.503385
               2.8552896                      -57.359323
                2.864157                      -53.624894
               2.8730243                      -45.972126
               2.8818917                      -37.960628
               2.8907591                      -33.331975
               2.8996264                      -34.211882
               2.9084938                      -40.083918
               2.9173611                      -48.030377
               2.9262285                      -54.128236
               2.9350958                      -55.332502
               2.9439632                      -50.943094
               2.9528306                       -42.94882
               2.9616979                      -35.079623
               2.9705653                        -31.0187
               2.9794326                      -32.631389
                  2.9883                      -39.062404
               2.9971674                      -47.138313
               3.0060347                      -52.885993
               3.0149021                      -53.440721
               3.0237694                      -48.427624
               3.0326368                      -40.150337
               3.0415042                      -32.492012
               3.0503715                      -29.052822
               3.0592389                      -31.417035
               3.0681062                      -38.383487
               3.0769736                      -46.532706
               3.0858409                      -51.863015
               3.0947083                      -51.712999
               3.1035757                      -46.047043
                3.112443                      -37.483086
               3.1213104                      -30.044131
               3.1301777                      -27.228759
               3.1390451                       -30.32601
               3.1479125                       -37.78611
               3.1567798                       -45.95408
               3.1656472                      -50.819043
               3.1745145                      -49.942013
               3.1833819                      -43.635562
               3.1922493                      -34.824687
               3.2011166                      -27.650299
                3.209984                      -25.481704
               3.2188513                      -29.291588
               3.2277187                      -37.176877
               3.2365861                       -45.26111
               3.2454534                      -49.550492
               3.2543208                      -47.855051
               3.2631881                      -40.850832
               3.2720555                      -31.768161
               3.2809228                      -24.849408
               3.2897902                      -23.312573
               3.2986576                      -27.798132
               3.3075249                      -36.048796
               3.3163923                      -43.982229
               3.3252596                      -47.647369
                3.334127                      -45.127223
               3.3429944                      -37.472265
               3.3518617                      -28.210243
               3.3607291                      -21.661226
               3.3695964                      -20.862522
               3.3784638                      -26.100249
               3.3873312                      -34.757354
               3.3961985                      -42.558219
               3.4050659                      -45.618129
               3.4139332                      -42.315597
               3.4228006                      -34.085304
                3.431668                      -24.744125
               3.4405353                       -18.66652
               3.4494027                      -18.681253
                 3.45827                      -24.700547
               3.4671374                      -33.746034
               3.4760047                       -41.36666
               3.4848721                      -43.773275
               3.4937395                      -39.666527
               3.5026068                      -30.876756
               3.5114742                      -21.501081
               3.5203415                      -15.944098
               3.5292089                      -16.798964
               3.5380763                       -23.58794
               3.5469436                      -32.973914
                3.555811                      -40.349882
               3.5646783                      -42.049421
               3.5735457                      -37.117617
               3.5824131                      -27.787114
               3.5912804                      -18.422139
               3.6001478                      -13.429585
               3.6090151                      -15.136523
               3.6178825                      -22.656164
               3.6267499                      -32.294449
               3.6356172                      -39.311345
               3.6444846                       -40.19724
               3.6533519                      -34.371518
               3.6622193                      -24.481497
               3.6710866                      -15.148749
                3.679954                      -10.756355
               3.6888214                       -13.33651
               3.6976887                       -21.57656
               3.7065561                      -31.429602
               3.7154234                      -38.046307
               3.7242908                      -38.106424
               3.7331582                      -31.429664
               3.7420255                      -21.085299
               3.7508929                      -11.937607
               3.7597602                      -8.3172351
               3.7686276                      -11.933386
                3.777495                      -21.033053
               3.7863623                      -31.222244
               3.7952297                      -37.566754
                3.804097                      -36.967901
               3.8129644                      -29.669266
               3.8218318                      -19.162803
               3.8306991                      -10.528559
               3.8395665                      -7.9965053
               3.8484338                      -12.899438
               3.8573012                       -23.00606
               3.8661685                      -33.565955
               3.8750359                      -39.575893
               3.8839033                      -38.184788
               3.8927706                       -30.07989
                3.901638                      -19.178854
               3.9105053                      -10.763348
               3.9193727                      -8.9419591
               3.9282401                      -14.659968
               3.9371074                      -25.219142
               3.9459748                      -35.550263
               3.9548421                      -40.638681
               3.9637095                      -37.942817
               3.9725769                      -28.639984
               3.9814442                      -17.089694
               3.9903116                      -8.7590026
               3.9991789                      -7.5974597
               4.0080463                      -14.122418
               4.0169136                      -25.143084
                4.025781                      -35.269777
               4.0346484                      -39.495745
               4.0435157                      -35.615815
               4.0523831                      -25.313505
               4.0612504                      -13.381768
               4.0701178                      -5.4374751
               4.0789852                      -5.2195803
               4.0878525                       -12.77245
               4.0967199                      -24.395272
               4.1055872                      -34.393585
               4.1144546                      -37.806536
                4.123322                      -32.805236
               4.1321893                      -21.602019
               4.1410567                      -9.4190299
                4.149924                       -1.996571
               4.1587914                      -2.8301656
               4.1676588                      -11.466087
               4.1765261                      -23.686332
               4.1853935                       -33.51002
               4.1942608                      -36.061444
               4.2031282                      -29.929472
               4.2119955                      -17.878858
               4.2208629                      -5.5573608
               4.2297303                       1.2019806
               4.2385976                     -0.80454729
                4.247465                      -10.582075
               4.2563323                      -23.380445
               4.2651997                      -32.952051
               4.2740671                      -34.551604
               4.2829344                      -27.238434
               4.2918018                      -14.365031
               4.3006691                      -1.9995641
               4.3095365                        3.975762
               4.3184039                       0.7033532
               4.3272712                      -10.243819
               4.3361386                      -23.580435
               4.3450059                      -32.824896
               4.3538733                      -33.416541
               4.3627407                      -24.935702
                4.371608                      -11.346746
               4.3804754                      0.87125032
               4.3893427                        5.824873
               4.3982101                       1.0560163
               4.4070774                      -11.236816
               4.4159448                      -25.214976
               4.4248122                      -34.188831
               4.4336795                      -33.837046
               4.4425469                      -24.299695
               4.4514142                      -10.150115
               4.4602816                        1.762626
                4.469149                       5.5982539
               4.4780163                     -0.63910288
               4.4868837                        -14.0926
                4.495751                      -28.377898
               4.5046184                      -36.625647
               4.5134858                      -34.790176
               4.5223531                      -23.630302
               4.5312205                      -8.3929458
               4.5400878                       3.6715863
               4.5489552                       6.7858772
               4.5578226                     -0.55364635
               4.5666899                      -14.809465
               4.5755573                      -29.060358
               4.5844246                      -36.308774
                4.593292                      -32.859047
               4.6021593                      -20.137124
               4.6110267                      -4.0571526
               4.6198941                       7.7848739
               4.6287614                       9.7591875
               4.6376288                      0.94005268
               4.6464961                      -14.397483
               4.6553635                      -28.785641
               4.6642309                      -35.134234
               4.6730982                      -30.157059
               4.6819656                      -15.999321
               4.6908329                       0.7377711
               4.6997003                       12.131899
               4.7085677                       12.749543
                4.717435                       2.3052969
               4.7263024                      -14.142865
               4.7351697                      -28.586585
               4.7440371                      -33.899454
               4.7529045                      -27.281967
               4.7617718                      -11.659794
               4.7706392                        5.663811
               4.7795065                       16.483887
               4.7883739                       15.643767
               4.7972412                       3.5579115
               4.8061086                      -13.926461
                4.814976                      -28.292134
               4.8238433                      -32.434882
               4.8327107                      -24.110239
                4.841578                      -7.0727719
               4.8504454                       10.668508
               4.8593128                       20.669236
               4.8681801                       18.122968
               4.8770475                       4.2247184
               4.8859148                      -14.336256
               4.8947822                      -28.542943
               4.9036496                      -31.378446
               4.9125169                      -21.239154
               4.9213843                      -2.7733589
               4.9302516                       15.290466
                4.939119                       24.309878
               4.9479864                       19.902295
               4.9568537                       4.1121801
               4.9657211                      -15.501505
               4.9745884                      -29.450416
               4.9834558                      -30.874859
               4.9923231                      -18.887709
               5.0011905                      0.92615141
               5.0100579                       19.130864
               5.0189252                       26.952285
               5.0277926                       20.525713
               5.0366599                       2.8245003
               5.0455273                      -17.688374
               5.0543947                      -31.078328
                5.063262                      -30.728446
               5.0721294                      -16.578028
               5.0809967                       4.7746346
               5.0898641                       23.176377
               5.0987315                       29.777004
               5.1075988                       21.320248
               5.1164662                        1.786887
               5.1253335                      -19.437683
               5.1342009                       -32.02998
               5.1430682                      -29.704377
               5.1519356                      -13.300952
                5.160803                       9.5302877
               5.1696703                       27.939357
               5.1785377                       33.077953
                5.187405                       22.400145
               5.1962724                      0.97263002
               5.2051398                      -20.876566
               5.2140071                      -32.481789
               5.2228745                      -27.989886
               5.2317418                      -9.2512066
               5.2406092                       14.974554
               5.2494766                       33.161762
               5.2583439                       36.552712
               5.2672113                       23.426084
               5.2760786                     0.020866214
                5.284946                      -22.374611
               5.2938134                      -32.812053
               5.3026807                      -25.979203
               5.3115481                       -4.841931
               5.3204154                       20.679575
               5.3292828                       38.413233
               5.3381501                       39.788536
               5.3470175                       24.027398
               5.3558849                      -1.3753159
               5.3647522                      -24.163462
               5.3736196                      -33.179725
               5.3824869                      -23.773747
               5.3913543                     -0.13799723
               5.4002217                       26.599109
                5.409089                       43.658648
               5.4179564                       42.766315
               5.4268237                       24.214029
               5.4356911                      -3.1635789
               5.4445585                      -26.142306
               5.4534258                      -33.444787
               5.4622932                      -21.221506
               5.4711605                       4.9905444
               5.4800279                       32.812993
               5.4888953                       48.914217
               5.4977626                       45.442816
                 5.50663                       23.901917
               5.5154973                      -5.4455061
               5.5243647                      -28.415002
                5.533232                      -33.702263
               5.5420994                      -18.386985
               5.5509668                       10.530931
               5.5598341                       39.369455
               5.5687015                       54.292005
               5.5775688                       47.989166
               5.5864362                        23.29692
               5.5953036                       -8.035987
               5.6041709                      -30.905691
               5.6130383                      -34.105467
               5.6219056                      -15.803224
                5.630773                        15.43101
               5.6396404                       44.638019
               5.6485077                       57.637838
               5.6573751                       47.873509
               5.6662424                       19.702897
               5.6751098                      -13.525945
               5.6839772                      -35.797773
               5.6928445                      -36.139788
               5.7017119                      -14.005873
               5.7105792                        20.30226
               5.7194466                       50.454549
               5.7283139                       61.900972
               5.7371813                        48.93736
               5.7460487                       17.586545
                5.754916                      -17.145285
               5.7637834                       -38.38623
               5.7726507                       -35.53627
               5.7815181                      -9.4926609
               5.7903855                       27.610709
               5.7992528                       58.104122
               5.8081202                       67.246966
               5.8169875                       50.403456
               5.8258549                       15.438537
               5.8347223                      -20.897236
               5.8435896                      -40.936402
                5.852457                      -34.628032
               5.8613243                      -4.5180739
               5.8701917                       35.286994
               5.8790591                       65.771725
               5.8879264                       72.135731
               5.8967938                       51.017746
               5.9056611                       12.302112
               5.9145285                      -25.461123
               5.9233958                      -43.896763
               5.9322632                      -33.695212
               5.9411306                      0.74309551
               5.9499979                       43.224069
               5.9588653                       73.413205
               5.9677326                       76.611779
                  5.9766                       50.959866
               5.9854674                       8.5394729
               5.9943347                      -30.257555
               6.0032021                      -46.476178
               6.0120694                      -31.789739
               6.0209368                       7.2956413
               6.0298042                       52.344938
               6.0386715                       81.722794
               6.0475389                       81.013323
               6.0564062                       50.114816
               6.0652736                       3.5224443
               6.0741409                      -36.449248
               6.0830083                      -50.337321
               6.0918757                      -30.992752
                6.100743                       12.764691
               6.1096104                       60.159868
               6.1184777                       88.336602
               6.1273451                       83.391182
               6.1362125                       47.234302
               6.1450798                      -3.0736821
               6.1539472                      -43.333645
               6.1628145                      -53.809227
               6.1716819                      -28.860971
               6.1805493                       20.087585
               6.1894166                        69.79616
                6.198284                       96.262581
               6.2071513                       86.330715
               6.2160187                       44.241702
               6.2248861                      -10.128355
               6.2337534                      -50.629587
               6.2426208                       -57.39231
               6.2514881                      -26.549147
               6.2603555                       27.627645
               6.2692228                       79.334964
               6.2780902                       103.54017
               6.2869576                       88.114861
               6.2958249                       39.924407
               6.3046923                       -18.17667
               6.3135596                      -58.142365
                6.322427                      -60.229528
               6.3312944                      -22.699972
               6.3401617                       37.030012
               6.3490291                       90.496751
               6.3578964                       111.78441
               6.3667638                       90.118955
               6.3756312                       35.343685
               6.3844985                      -26.491871
               6.3933659                      -65.464685
               6.4022332                      -62.209665
               6.4111006                      -17.479086
                6.419968                       47.875291
               6.4288353                       102.65286
               6.4377027                       120.23607
                 6.44657                        91.56236
               6.4554374                       29.819826
               6.4643047                      -35.552159
               6.4731721                      -72.838532
               6.4820395                      -63.371866
               6.4909068                      -10.804449
               6.4997742                       60.267473
               6.5086415                       115.84938
               6.5175089                       128.85049
               6.5263763                        92.33017
               6.5352436                       23.218975
                6.544111                      -45.459635
               6.5529783                      -80.308099
               6.5618457                      -63.723928
               6.5707131                      -2.7101354
               6.5795804                       74.069934
               6.5884478                       129.78861
               6.5973151                       137.14941
               6.6061825                       91.784678
               6.6150499                       14.788562
               6.6239172                      -57.040521
               6.6327846                      -88.743226
               6.6416519                      -64.169558
               6.6505193                       5.8585964
               6.6593866                       88.305275
                6.668254                       143.52642
               6.6771214                         144.359
               6.6859887                       89.506653
               6.6948561                       4.6439341
               6.7037234                      -69.532434
               6.7125908                      -96.764652
               6.7214582                      -62.882872
               6.7303255                       16.922379
               6.7391929                       104.91802
               6.7480602                       158.69147
               6.7569276                       151.62975
                6.765795                       86.112569
               6.7746623                      -7.1018237
               6.7835297                      -83.254721
                6.792397                      -105.02307
               6.8012644                      -60.739377
               6.8101318                       29.476896
               6.8189991                       122.85838
               6.8278665                       174.28876
               6.8367338                       158.12094
               6.8456012                       80.973212
               6.8544685                       -20.86518
               6.8633359                      -98.456953
               6.8722033                       -113.6959
               6.8810706                      -57.984115
                6.889938                       43.043628
               6.8988053                       141.30434
               6.9076727                       189.15615
               6.9165401                       162.50507
               6.9254074                       72.933928
               6.9342748                      -37.233304
               6.9431421                      -114.86443
               6.9520095                      -121.57316
               6.9608769                      -52.615413
               6.9697442                       60.160171
               6.9786116                       163.04606
               6.9874789                       206.09194
               6.9963463                       167.39559
               7.0052137                       64.266501
                7.014081                      -54.404446
               7.0229484                      -131.23664
               7.0318157                      -128.02007
               7.0406831                       -44.62283
               7.0495504                       80.214433
               7.0584178                       186.88367
               7.0672852                       223.39921
               7.0761525                       170.76002
               7.0850199                       52.810299
               7.0938872                      -74.475848
               7.1027546                      -149.49577
                7.111622                      -134.77787
               7.1204893                      -35.633205
               7.1293567                       101.57771
                7.138224                       211.11509
               7.1470914                       239.36257
               7.1559588                       171.07496
               7.1648261                       37.539997
               7.1736935                      -97.668412
               7.1825608                      -168.88402
               7.1914282                      -140.14845
               7.2002955                      -23.266351
               7.2091629                       126.96404
               7.2180303                       238.47037
               7.2268976                       256.50743
                7.235765                       170.56301
               7.2446323                       20.355137
               7.2534997                      -122.41218
               7.2623671                      -188.17612
               7.2712344                      -143.30964
               7.2801018                      -7.1723515
               7.2889691                       156.22406
               7.2978365                       268.34192
               7.3067039                       273.91063
               7.3155712                       168.22053
               7.3244386                      0.42657702
               7.3333059                      -149.19287
               7.3421733                      -207.53489
               7.3510407                      -144.30438
                7.359908                       12.398433
               7.3687754                       188.49025
               7.3776427                       298.89418
               7.3865101                       288.61192
               7.3953774                       160.06356
               7.4042448                      -26.896176
               7.4131122                      -182.82307
               7.4219795                      -231.45223
               7.4308469                      -146.97337
               7.4397142                       32.406417
               7.4485816                       221.65723
                7.457449                       329.19951
               7.4663163                       301.20014
               7.4751837                       148.48525
                7.484051                      -57.355537
               7.4929184                      -217.42837
               7.5017858                      -252.94835
               7.5106531                      -143.90076
               7.5195205                       59.995934
               7.5283878                       261.93278
               7.5372552                       363.98927
               7.5461226                        314.6311
               7.5549899                       134.71283
               7.5638573                      -91.091975
               7.5727246                      -254.02925
                7.581592                      -273.54907
               7.5904593                      -136.97375
               7.5993267                       92.865722
               7.6081941                       306.49904
               7.6170614                        399.9508
               7.6259288                       325.33356
               7.6347961                       115.31264
               7.6436635                      -131.00197
               7.6525309                      -294.72282
               7.6613982                      -294.46784
               7.6702656                      -126.68532
               7.6791329                       130.93636
               7.6880003                        355.3962
               7.6968677                       437.08384
                7.705735                       333.26976
               7.7146024                       90.306576
               7.7234697                      -176.90786
               7.7323371                      -339.18221
               7.7412045                      -315.43496
               7.7500718                       -113.1332
               7.7589392                       173.38456
               7.7678065                       406.82063
               7.7766739                       472.65327
               7.7855412                        335.2517
               7.7944086                       56.907412
                7.803276                       -230.2334
               7.8121433                      -386.78508
               7.8210107                      -333.65727
                7.829878                      -91.804812
               7.8387454                       225.70579
               7.8476128                       466.53484
               7.8564801                       512.15167
               7.8653475                       336.13671
               7.8742148                       19.069035
               7.8830822                      -288.19195
               7.8919496                      -436.16438
               7.9008169                      -349.35576
               7.9096843                      -64.611673
               7.9185516                       284.23415
                7.927419                       529.18238
               7.9362864                       548.90798
               7.9451537                       328.75336
               7.9540211                      -29.732221
               7.9628884                      -355.47791
               7.9717558                      -489.39879
               7.9806231                      -361.94023
               7.9894905                      -28.912609
               7.9983579                       352.74166
               8.0072252                       598.85781
               8.0160926                       586.88295
               8.0249599                       316.82161
               8.0338273                      -85.944305
               8.0426947                      -428.66893
                8.051562                      -543.32605
               8.0604294                      -368.81328
               8.0692967                       16.903241
               8.0781641                       431.42803
               8.0870315                       674.12014
               8.0958988                       623.14862
               8.1047662                       296.52316
               8.1136335                      -153.38951
               8.1225009                      -510.76254
               8.1313682                      -599.68426
               8.1402356                      -370.54985
                8.149103                       72.888622
               8.1579703                       520.33309
               8.1668377                       754.61001
                8.175705                       657.02075
               8.1845724                       267.33191
               8.1934398                      -231.81307
               8.2023071                      -600.26623
               8.2111745                      -655.70482
               8.2200418                      -363.58909
               8.2289092                       142.56093
               8.2377766                       622.04128
               8.2466439                       841.38526
               8.2555113                       688.01128
               8.2643786                       227.77427
                8.273246                      -322.78791
               8.2821134                      -698.09134
               8.2909807                      -711.41265
               8.2998481                      -347.51794
               8.3087154                       225.78062
               8.3175828                        734.8681
               8.3264501                       930.74658
               8.3353175                       710.61629
               8.3441849                       171.35968
               8.3530522                       -432.7172
               8.3619196                      -809.63423
               8.3707869                      -770.72737
               8.3796543                      -324.87264
               8.3885217                       321.01504
                8.397389                       857.76295
               8.4062564                       1021.7649
               8.4151237                       724.22307
               8.4239911                       98.562428
               8.4328585                      -559.00043
               8.4417258                      -929.46816
               8.4505932                       -825.5803
               8.4594605                      -286.08038
               8.4683279                       437.56714
               8.4771953                       998.19206
               8.4860626                         1119.34
                 8.49493                       731.40946
               8.5037973                       10.588862
               8.5126647                      -700.73056
                8.521532                      -1056.3079
               8.5303994                      -874.29399
               8.5392668                      -229.71204
               8.5481341                       575.64423
               8.5570015                       1154.3089
               8.5658688                       1219.4016
               8.5747362                       726.62075
               8.5836036                      -98.168963
               8.5924709                      -862.02888
               8.6013383                      -1191.8418
               8.6102056                      -916.23237
                8.619073                      -153.95033
               8.6279404                       736.60204
               8.6368077                        1325.638
               8.6456751                       1319.1922
               8.6545424                       705.49211
               8.6634098                      -232.20407
               8.6722772                      -1045.9055
               8.6811445                      -1336.5984
               8.6900119                      -949.52371
               8.6988792                      -55.627196
               8.7077466                       923.33252
               8.7166139                       1513.5185
               8.7254813                       1418.1497
               8.7343487                       666.36496
                8.743216                      -392.68323
               8.7520834                      -1251.4717
               8.7609507                      -1486.9135
               8.7698181                      -968.31273
               8.7786855                       71.586943
               8.7875528                       1140.4924
               8.7964202                       1719.3531
               8.8052875                       1514.1587
               8.8141549                       604.72801
               8.8230223                       -584.4675
               8.8318896                      -1481.9144
                8.840757                      -1643.2725
               8.8496243                       -970.8155
               8.8584917                       230.06832
               8.8673591                       1388.9905

