                        dx_beam=-0.5/real
----------------------------------------------------------------------
                       0                              -0
            0.0088673591                       464.11035
             0.017734718                        2698.682
             0.026602077                       1637.7212
             0.035469436                       1163.3563
             0.044336795                       1037.5164
             0.053204154                       688.25777
             0.062071513                       298.77192
             0.070938872                       86.469561
             0.079806231                        52.71323
             0.088673591                       160.60094
              0.09754095                       337.06573
              0.10640831                       499.99402
              0.11527567                       588.06655
              0.12414303                       579.83245
              0.13301039                       495.58557
              0.14187774                       382.92847
               0.1507451                       293.07877
              0.15961246                       258.36566
              0.16847982                       280.42742
              0.17734718                       333.29718
              0.18621454                        378.4935
               0.1950819                       384.14085
              0.20394926                       339.19585
              0.21281662                       256.89217
              0.22168398                       166.79877
              0.23055134                         99.9898
              0.23941869                       74.540296
              0.24828605                       87.828681
              0.25715341                       118.55967
              0.26602077                       136.89367
              0.27488813                       117.72773
              0.28375549                       51.273242
              0.29262285                       -52.95704
              0.30149021                      -163.14131
              0.31035757                      -213.11019
              0.31922493                      -82.293808
              0.32809228                        72.62809
              0.33695964                       159.26906
                0.345827                       213.12581
              0.35469436                       233.53851
              0.36356172                       221.13725
              0.37242908                       186.98595
              0.38129644                       149.76559
               0.3901638                       127.76221
              0.39903116                       130.79501
              0.40789852                       156.20801
              0.41676588                       190.74916
              0.42563323                       217.26955
              0.43450059                       222.94797
              0.44336795                       205.15761
              0.45223531                       172.33836
              0.46110267                       139.66684
              0.46997003                       121.74916
              0.47883739                       125.86669
              0.48770475                       148.91645
              0.49657211                       179.34549
              0.50543947                       202.99425
              0.51430682                       209.96975
              0.52317418                       199.28183
              0.53204154                       179.13134
               0.5409089                       162.84443
              0.54977626                       162.48928
              0.55864362                       183.23422
              0.56751098                       221.06437
              0.57637834                       264.81841
               0.5852457                       301.45437
              0.59411306                       321.97675
              0.60298042                       325.23705
              0.61184777                       317.91877
              0.62071513                        310.8714
              0.62958249                       313.64308
              0.63844985                       329.80308
              0.64731721                       355.28149
              0.65618457                       380.59981
              0.66505193                       395.69441
              0.67391929                       394.79205
              0.68278665                       379.20192
              0.69165401                       356.78894
              0.70052137                        338.3377
              0.70938872                       332.54414
              0.71825608                       342.03907
              0.72712344                       362.31417
               0.7359908                       384.00117
              0.74485816                       397.36182
              0.75372552                       396.85731
              0.76259288                       383.70337
              0.77146024                       365.22286
               0.7803276                       351.21473
              0.78919496                       349.13625
              0.79806231                       360.58897
              0.80692967                       380.73621
              0.81579703                       400.75715
              0.82466439                       412.09309
              0.83353175                       410.46768
              0.84239911                       397.80134
              0.85126647                       381.15886
              0.86013383                       369.28554
              0.86900119                       368.41889
              0.87786855                       379.37562
              0.88673591                       397.27296
              0.89560326                       413.96776
              0.90447062                       422.00474
              0.91333798                       418.16701
              0.92220534                       404.94164
               0.9310727                       389.23265
              0.93994006                       378.97849
              0.94880742                       379.32506
              0.95767478                       390.19286
              0.96654214                       406.37476
               0.9754095                       420.07091
              0.98427685                       424.61585
              0.99314421                       417.61686
               1.0020116                       402.02858
               1.0108789                       384.68282
               1.0197463                       373.00273
               1.0286136                       371.48355
                1.037481                       379.61394
               1.0463484                       392.20553
               1.0552157                       401.94061
               1.0640831                       402.89553
               1.0729504                       393.35009
               1.0818178                       376.55573
               1.0906852                       359.12445
               1.0995525                       347.83768
               1.1084199                       346.41565
               1.1172872                       353.78679
               1.1261546                       364.66282
                1.135022                       372.11639
               1.1438893                       370.90832
               1.1527567                       359.96971
                1.161624                       342.86612
               1.1704914                        326.0465
               1.1793588                       315.73781
               1.1882261                       314.98133
               1.1970935                       322.22193
               1.2059608                       332.10534
               1.2148282                        338.0785
               1.2236955                       335.53284
               1.2325629                       323.98558
               1.2414303                         307.269
               1.2502976                       291.65863
                1.259165                       282.85509
               1.2680323                       283.27122
               1.2768997                       290.91591
               1.2857671                       300.39071
               1.2946344                       305.50267
               1.3035018                        302.2304
               1.3123691                       290.62439
               1.3212365                       274.74496
               1.3301039                       260.68605
               1.3389712                       253.64645
               1.3478386                       255.45541
               1.3567059                       263.72978
               1.3655733                        273.0503
               1.3744407                        277.5775
                1.383308                       273.84512
               1.3921754                       262.39571
               1.4010427                        247.4873
               1.4099101                       235.02754
               1.4187774                       229.73708
               1.4276448                       232.90339
               1.4365122                       241.79321
               1.4453795                       250.99078
               1.4542469                       255.00716
               1.4631142                       250.90388
               1.4719816                       239.67717
                1.480849                       225.75084
               1.4897163                       214.83455
               1.4985837                       211.18322
                1.507451                       215.57184
               1.5163184                       224.94857
               1.5251858                       233.91978
               1.5340531                       237.34435
               1.5429205                       232.78932
               1.5517878                       221.67375
               1.5606552                       208.56313
               1.5695226                       198.96379
               1.5783899                       196.68201
               1.5872573                       202.01332
               1.5961246                       211.62253
                1.604992                       220.16129
               1.6138593                       222.83843
               1.6227267                       217.70826
               1.6315941                       206.58389
               1.6404614                       194.14693
               1.6493288                       185.69016
               1.6581961                       184.58078
               1.6670635                       190.65946
               1.6759309                        200.3358
               1.6847982                       208.32505
               1.6936656                       210.18625
               1.7025329                       204.44301
               1.7114003                       193.27439
               1.7202677                        181.4527
                1.729135                       174.04552
               1.7380024                       173.98799
               1.7468697                       180.68774
               1.7557371                       190.32525
               1.7646045                       197.69759
               1.7734718                       198.71587
               1.7823392                       192.35779
               1.7912065                        181.1432
               1.8000739                       169.91162
               1.8089412                       163.49449
               1.8178086                       164.40129
                1.826676                        171.6274
               1.8355433                       181.14965
               1.8444107                        187.8655
                1.853278                       188.04126
               1.8621454                       181.09518
               1.8710128                       169.86398
               1.8798801                       159.23111
               1.8887475                       153.77963
               1.8976148                       155.59755
               1.9064822                       163.28614
               1.9153496                       172.64198
               1.9242169                       178.68018
               1.9330843                       178.02527
               1.9419516                       170.52304
                1.950819                       159.30385
               1.9596864                       149.27189
               1.9685537                       144.74918
               1.9774211                       147.40547
               1.9862884                       155.46516
               1.9951558                       164.56756
               2.0040231                       169.86359
               2.0128905                       168.34096
               2.0217579                       160.26298
               2.0306252                       149.03384
               2.0394926                         139.559
               2.0483599                       135.89018
               2.0572273                       139.28525
               2.0660947                         147.612
                2.074962                       156.37829
               2.0838294                       160.89118
               2.0926967                       158.50767
               2.1015641                       149.89798
               2.1104315                       138.71778
               2.1192988                       129.84972
               2.1281662                       127.06001
               2.1370335                       131.19467
               2.1459009                       139.77907
               2.1547682                       148.21063
               2.1636356                       151.96993
                2.172503                       148.78841
               2.1813703                       139.73356
               2.1902377                       128.69251
                2.199105                        120.5041
               2.2079724                       118.63692
               2.2168398                       123.52744
               2.2257071                        132.3743
               2.2345745                       140.48587
               2.2434418                       143.53285
               2.2523092                       139.62481
               2.2611766                       130.21471
               2.2700439                       119.39873
               2.2789113                       111.94878
               2.2877786                       111.02231
                2.296646                       116.64844
               2.3055134                       125.71599
               2.3143807                       133.46826
               2.3232481                       135.78641
               2.3321154                       131.16579
               2.3409828                       121.43693
               2.3498501                       110.88601
               2.3587175                       104.19717
               2.3675849                       104.20442
               2.3764522                       110.53191
               2.3853196                       119.77467
               2.3941869                       127.13307
               2.4030543                       128.71645
               2.4119217                        123.4104
                2.420789                       113.41177
               2.4296564                       103.17437
               2.4385237                       97.271197
               2.4473911                       98.199087
               2.4562585                       105.17938
               2.4651258                       114.53054
               2.4739932                       121.43458
               2.4828605                       122.24985
               2.4917279                       116.26035
               2.5005953                        106.0214
               2.5094626                       96.134936
                 2.51833                       91.041329
               2.5271973                       92.887111
               2.5360647                       100.49232
                2.544932                       109.91405
               2.5537994                       116.33698
               2.5626668                       116.38439
               2.5715341                       109.74056
               2.5804015                       99.304981
               2.5892688                       89.802835
               2.5981362                        85.51728
               2.6070036                       88.231422
               2.6158709                       96.368447
               2.6247383                       105.74436
               2.6336056                       111.57395
                2.642473                        110.7684
               2.6513404                       103.42129
               2.6602077                       92.768441
               2.6690751                       83.638305
               2.6779424                       80.134948
               2.6868098                       83.665296
               2.6956772                       92.258763
               2.7045445                       101.50825
               2.7134119                       106.68342
               2.7222792                       105.00323
               2.7311466                       96.976275
               2.7400139                         86.1633
               2.7488813                       77.472862
               2.7577487                       74.806078
                2.766616                       79.180451
               2.7754834                       88.235257
               2.7843507                       97.358912
               2.7932181                       101.90036
               2.8020855                       99.404363
               2.8109528                       90.796829
               2.8198202                       79.948203
               2.8286875                       71.820785
               2.8375549                        70.08676
               2.8464223                       75.360207
               2.8552896                       84.894203
                2.864157                       93.892357
               2.8730243                       97.808681
               2.8818917                       94.533314
               2.8907591                       85.413242
               2.8996264                       74.614419
               2.9084938                       67.127026
               2.9173611                       66.368886
               2.9262285                       72.537608
               2.9350958                       82.505816
               2.9439632                       91.314326
               2.9528306                       94.550543
               2.9616979                       90.471483
               2.9705653                       80.850109
               2.9794326                       70.134101
                  2.9883                        63.31591
               2.9971674                       63.533794
               3.0060347                       70.556133
               3.0149021                       80.880697
               3.0237694                       89.406648
               3.0326368                       91.881168
               3.0415042                       86.947312
               3.0503715                       76.807233
               3.0592389                       66.176527
               3.0681062                       60.025953
               3.0769736                       61.191948
               3.0858409                       69.004757
               3.0947083                       79.597677
               3.1035757                       87.754674
                3.112443                       89.413602
               3.1213104                       83.623851
               3.1301777                       73.015087
               3.1390451                       62.545866
               3.1479125                       57.127133
               3.1567798                       59.258924
               3.1656472                       67.816858
               3.1745145                       78.576744
               3.1833819                       86.232436
               3.1922493                       86.942919
               3.2011166                       80.185941
                3.209984                       69.023316
               3.2188513                       58.643177
               3.2277187                       53.873086
               3.2365861                       56.855696
               3.2454534                        66.00584
               3.2543208                       76.756452
               3.2631881                       83.742702
               3.2720555                       83.380235
               3.2809228                       75.599087
               3.2897902                       63.895036
               3.2986576                       53.665627
               3.3075249                       49.623237
               3.3163923                       53.525098
               3.3252596                       63.314112
                3.334127                       74.090696
               3.3429944                       80.457157
               3.3518617                       79.113496
               3.3607291                       70.456844
               3.3695964                       58.409809
               3.3784638                       48.551289
               3.3873312                       45.440333
               3.3961985                       50.416658
               3.4050659                       60.938831
               3.4139332                       71.786735
               3.4228006                       77.559672
                3.431668                       75.274842
               3.4405353                       65.816184
               3.4494027                       53.529982
                 3.45827                       44.151855
               3.4671374                       42.053506
               3.4760047                       48.130462
               3.4848721                       59.351062
               3.4937395                        70.19329
               3.5026068                       75.288743
               3.5114742                       72.008116
               3.5203415                       61.743109
               3.5292089                       49.260053
               3.5380763                       40.425112
               3.5469436                        39.38633
                3.555811                       46.566081
               3.5646783                       58.435002
               3.5735457                       69.187269
               3.5824131                       73.522127
               3.5912804                       69.199494
               3.6001478                       58.137678
               3.6090151                       45.515804
               3.6178825                       37.300538
               3.6267499                       37.377999
               3.6356172                       45.669391
               3.6444846                       58.143806
               3.6533519                       68.734363
               3.6622193                       72.247136
               3.6710866                       66.868718
                3.679954                       55.062215
               3.6888214                       42.409668
               3.6976887                       34.944646
               3.7065561                       36.249664
               3.7154234                       45.714464
               3.7242908                       58.801994
               3.7331582                       69.207395
               3.7420255                       71.883274
               3.7508929                       65.479928
               3.7597602                       53.020936
               3.7686276                       40.476101
                3.777495                       33.904938
               3.7863623                       36.537388
               3.7952297                       47.196281
                3.804097                       60.830075
               3.8129644                       70.915206
               3.8218318                       72.584883
               3.8306991                       64.982328
               3.8395665                       51.699287
               3.8484338                       39.074952
               3.8573012                       33.159231
               3.8661685                       36.793879
               3.8750359                        48.21854
               3.8839033                       61.884829
               3.8927706                       71.102453
                3.901638                       71.256281
               3.9105053                       62.048299
               3.9193727                       47.677218
               3.9282401                       34.852819
               3.9371074                       29.584751
               3.9459748                       34.283297
               3.9548421                       46.571778
               3.9637095                       60.396149
               3.9725769                       68.915031
               3.9814442                       67.791453
               3.9903116                       57.303362
               3.9991789                       42.246677
               4.0080463                       29.660034
               4.0169136                       25.450603
                4.025781                       31.538472
               4.0346484                       44.899371
               4.0435157                       58.981339
               4.0523831                       66.833216
               4.0612504                       64.452904
               4.0701178                       52.743087
               4.0789852                       37.117998
               4.0878525                       24.929302
               4.0967199                        21.93672
               4.1055872                        29.51951
               4.1144546                       43.975673
                4.123322                        58.26303
               4.1321893                       65.364906
               4.1410567                       61.672626
                4.149924                       48.754323
               4.1587914                       32.643335
               4.1676588                       20.967659
               4.1765261                       19.285513
               4.1853935                        28.38677
               4.1942608                       43.870323
               4.2031282                       58.222039
               4.2119955                         64.4112
               4.2208629                       59.281942
               4.2297303                       45.107449
               4.2385976                       28.544845
                4.247465                       17.465342
               4.2563323                       17.167956
               4.2651997                       27.799013
               4.2740671                       44.233628
               4.2829344                       58.498474
               4.2918018                       63.590801
               4.3006691                       56.864701
               4.3095365                       41.347906
               4.3184039                       24.334737
               4.3272712                       13.908463
               4.3361386                       15.050623
               4.3450059                       27.209838
               4.3538733                       44.516469
               4.3627407                        58.56467
                4.371608                       62.443539
               4.3804754                       54.085417
               4.3893427                       37.311192
               4.3982101                       20.045976
               4.4070774                       10.538832
               4.4159448                       13.389299
               4.4248122                        27.28923
               4.4336795                       45.589192
               4.4425469                        59.45755
               4.4514142                       62.123412
               4.4602816                         52.1572
                4.469149                       34.206779
               4.4780163                       16.813191
               4.4868837                       8.3277955
                4.495751                       12.880456
               4.5046184                       28.343844
               4.5134858                       47.296573
               4.5223531                       60.550603
               4.5312205                       61.567483
               4.5400878                       49.641514
               4.5489552                       30.301573
               4.5578226                       12.708746
               4.5666899                       5.2744966
               4.5755573                       11.594961
               4.5844246                       28.666291
                4.593292                       48.265894
               4.6021593                       60.866179
               4.6110267                       60.218903
               4.6198941                       46.405147
               4.6287614                       25.863123
               4.6376288                       8.3484708
               4.6464961                       2.2613386
               4.6553635                       10.577889
               4.6642309                       29.356011
               4.6730982                       49.564016
               4.6819656                        61.38536
               4.6908329                       58.948262
               4.6997003                       43.200589
               4.7085677                       21.522754
                4.717435                       4.2380262
               4.7263024                     -0.33215307
               4.7351697                       10.088567
               4.7440371                       30.562014
               4.7529045                       51.241634
               4.7617718                       62.073485
               4.7706392                       57.648223
               4.7795065                       39.864355
               4.7883739                       17.093496
               4.7972412                      0.21143682
               4.8061086                      -2.6243205
                4.814976                       10.056296
               4.8238433                       32.250315
               4.8327107                       53.294796
                4.841578                       62.961841
               4.8504454                       56.401759
               4.8593128                       36.546396
               4.8681801                       12.783311
               4.8770475                      -3.5021406
               4.8859148                       -4.400814
               4.8947822                       10.661067
               4.9036496                       34.559756
               4.9125169                       55.825068
               4.9213843                       64.130668
               4.9302516                       55.294435
                4.939119                       33.369693
               4.9479864                       8.7875578
               4.9568537                      -6.5998568
               4.9657211                       -5.225034
               4.9745884                       12.486665
               4.9834558                       38.228079
               4.9923231                       59.727928
               5.0011905                       66.626659
               5.0100579                       55.498287
               5.0189252                       31.583324
               5.0277926                       6.3567342
               5.0366599                      -7.9442556
               5.0455273                      -4.2240704
               5.0543947                       15.980496
                5.063262                       43.129624
               5.0721294                       64.185806
               5.0809967                       68.874745
               5.0898641                         54.6855
               5.0987315                       28.180828
               5.1075988                       1.9421807
               5.1164662                      -11.430036
               5.1253335                      -5.4002878
               5.1342009                       17.271097
               5.1430682                       45.746587
               5.1519356                       66.246728
                5.160803                       68.671443
               5.1696703                       51.527321
               5.1785377                       22.759542
                5.187405                      -3.9656515
               5.1962724                      -15.790115
               5.2051398                      -6.8862924
               5.2140071                        18.63678
               5.2228745                       48.590857
               5.2317418                       68.492925
               5.2406092                       68.533344
               5.2494766                       48.376147
               5.2583439                       17.444471
               5.2672113                      -9.5058109
               5.2760786                      -19.446866
                5.284946                      -7.3973422
               5.2938134                       21.064349
               5.3026807                       52.356373
               5.3115481                       71.350933
               5.3204154                       68.664325
               5.3292828                       45.268063
               5.3381501                       12.157371
               5.3470175                      -14.828889
               5.3558849                      -22.598097
               5.3647522                      -7.1682824
               5.3736196                       24.284953
               5.3824869                       56.746346
               5.3913543                       74.512722
               5.4002217                       68.774032
                5.409089                       41.965914
               5.4179564                       6.7462228
               5.4268237                      -19.983061
               5.4356911                      -25.186845
               5.4445585                      -6.0474377
               5.4534258                       28.538011
               5.4622932                        62.08736
               5.4711605                        78.39591
               5.4800279                       69.380576
               5.4888953                       39.096326
               5.4977626                       1.9395948
                 5.50663                      -24.171156
               5.5154973                      -26.412088
               5.5243647                      -3.3279785
                5.533232                       34.302723
               5.5420994                       68.506897
               5.5509668                       82.704876
               5.5598341                       69.744749
               5.5687015                        35.49879
               5.5775688                      -3.7868147
               5.5864362                      -29.198155
               5.5953036                      -28.260669
               5.6041709                      -1.0656636
               5.6130383                       39.593763
               5.6219056                       74.227314
                5.630773                       85.965115
               5.6396404                       68.748142
               5.6485077                       30.426709
               5.6573751                       -10.83551
               5.6662424                      -35.205815
               5.6751098                      -30.741563
               5.6839772                       0.7247905
               5.6928445                       44.273303
               5.7017119                       78.922041
               5.7105792                       87.687147
               5.7194466                       65.855946
               5.7283139                       23.448003
               5.7371813                      -19.406335
               5.7460487                      -42.050614
                5.754916                      -33.298122
               5.7637834                        3.023289
               5.7726507                        49.70144
               5.7815181                       84.261203
               5.7903855                       89.754663
               5.7992528                       63.041097
               5.8081202                       16.513757
               5.8169875                      -27.660689
               5.8258549                      -48.117268
               5.8347223                      -34.640378
               5.8435896                       6.7246366
                5.852457                       56.347803
               5.8613243                       90.303443
               5.8701917                       91.879864
               5.8790591                       59.774304
               5.8879264                       8.9589199
               5.8967938                      -36.314349
               5.9056611                      -54.096385
               5.9145285                       -35.39418
               5.9233958                       11.269084
               5.9322632                       63.708734
               5.9411306                       96.602312
               5.9499979                       93.692926
               5.9588653                        55.79735
               5.9677326                      0.67854022
                  5.9766                      -45.283206
               5.9854674                      -59.719028
               5.9943347                      -35.156067
               6.0032021                       17.130568
               6.0120694                       72.274266
               6.0209368                       103.63659
               6.0298042                       95.668943
               6.0386715                       51.610963
               6.0475389                      -7.7810572
               6.0564062                      -54.001645
               6.0652736                       -64.46924
               6.0741409                      -33.550932
               6.0830083                       24.438125
               6.0918757                       81.841011
                6.100743                       110.82903
               6.1096104                       96.865163
               6.1184777                       45.957468
               6.1273451                       -17.89978
               6.1362125                      -64.054195
               6.1450798                       -69.92351
               6.1539472                      -32.051539
               6.1628145                       31.904414
               6.1716819                       91.373926
               6.1805493                       117.45844
               6.1894166                       96.946551
                6.198284                       38.967372
               6.2071513                      -29.059793
               6.2160187                       -74.39599
               6.2248861                      -74.743284
               6.2337534                        -29.2131
               6.2426208                       40.886731
               6.2514881                       101.99687
               6.2603555                       124.34882
               6.2692228                       96.441171
               6.2780902                        30.91575
               6.2869576                      -41.155776
               6.2958249                      -85.003583
               6.3046923                      -78.929722
               6.3135596                      -25.029889
                6.322427                       51.412359
               6.3312944                       113.76967
               6.3401617                       131.62526
               6.3490291                       95.601768
               6.3578964                       22.256251
               6.3667638                      -53.495982
               6.3756312                      -94.979231
               6.3844985                       -81.49257
               6.3933659                      -18.606235
               6.4022332                       64.079023
               6.4111006                       126.84683
                6.419968                       138.92297
               6.4288353                       93.534552
               6.4377027                        11.61056
                 6.44657                      -67.867066
               6.4554374                       -106.4233
               6.4643047                      -84.729681
               6.4731721                      -12.299099
               6.4820395                       76.616217
               6.4909068                       139.18005
               6.4997742                       144.56862
               6.5086415                       89.111897
               6.5175089                      -1.4487185
               6.5263763                      -83.907998
               6.5352436                      -118.21457
                6.544111                      -86.927241
               6.5529783                       -4.065993
               6.5618457                       91.119325
               6.5707131                       152.71024
               6.5795804                       150.24326
               6.5884478                       83.743892
               6.5973151                      -15.738909
               6.6061825                      -100.61657
               6.6150499                      -129.51741
               6.6239172                      -87.441587
               6.6327846                       6.4948248
               6.6416519                       107.70285
               6.6505193                       167.26067
               6.6593866                       155.53761
                6.668254                        76.90322
               6.6771214                      -31.765778
               6.6859887                      -118.35811
               6.6948561                      -140.50992
               6.7037234                      -86.282771
               6.7125908                       19.488713
               6.7214582                       126.53919
               6.7303255                       183.06559
               6.7391929                       160.80473
               6.7480602                       69.153752
               6.7569276                      -48.686297
                6.765795                      -136.01566
               6.7746623                      -149.86621
               6.7835297                      -82.088556
                6.792397                       36.039717
               6.8012644                       148.23385
               6.8101318                       200.01719
               6.8189991                       165.15658
               6.8278665                       58.903891
               6.8367338                      -68.618797
               6.8456012                      -156.05393
               6.8544685                      -160.32984
               6.8633359                      -77.875329
               6.8722033                       52.907058
               6.8810706                       169.45922
                6.889938                       214.92791
               6.8988053                       165.82944
               6.9076727                       44.072329
               6.9165401                      -92.791469
               6.9254074                      -178.77752
               6.9342748                      -171.29055
               6.9431421                      -72.220427
               6.9520095                       72.117538
               6.9608769                        192.5775
               6.9697442                       230.26027
               6.9786116                       165.26228
               6.9874789                       27.078387
               6.9963463                      -118.74034
               7.0052137                      -201.66488
                7.014081                      -180.28423
               7.0229484                      -62.949084
               7.0318157                       95.306549
               7.0406831                       218.53736
               7.0495504                       246.29048
               7.0584178                       163.22244
               7.0672852                       7.4280321
               7.0761525                      -146.98177
               7.0850199                      -225.10203
               7.0938872                      -187.53475
               7.1027546                      -50.183109
                7.111622                       122.36254
               7.1204893                       247.16623
               7.1293567                       262.81372
                7.138224                       159.61539
               7.1470914                      -14.674228
               7.1559588                      -176.87705
               7.1648261                      -248.02591
               7.1736935                      -191.74448
               7.1825608                      -32.746565
               7.1914282                       153.93195
               7.2002955                       278.28978
               7.2091629                       278.71294
               7.2180303                       152.44571
               7.2268976                      -41.889174
                7.235765                      -211.47427
               7.2446323                      -273.61517
               7.2534997                      -196.05025
               7.2623671                      -13.618007
               7.2712344                       187.27505
               7.2801018                       309.49605
               7.2889691                       292.10383
               7.2978365                       140.63661
               7.3067039                      -74.213728
               7.3155712                      -249.55198
               7.3244386                      -299.52917
               7.3333059                      -197.33082
               7.3421733                       10.593651
               7.3510407                       225.55369
                7.359908                       343.41359
               7.3687754                        304.9949
               7.3776427                       125.71504
               7.3865101                      -110.34433
               7.3953774                      -289.79581
               7.4042448                      -324.34578
               7.4131122                      -194.16052
               7.4219795                       41.090494
               7.4308469                       269.51983
               7.4397142                       380.20713
               7.4485816                        317.0314
                7.457449                       107.04596
               7.4663163                      -150.90352
               7.4751837                      -332.63476
                7.484051                      -348.35385
               7.4929184                      -186.94941
               7.5017858                        76.95554
               7.5106531                       317.39496
               7.5195205                         417.093
               7.5283878                       324.56232
               7.5372552                       80.500358
               7.5461226                      -199.98561
               7.5549899                      -381.64323
               7.5638573                      -374.27645
               7.5727246                      -177.46746
                7.581592                       117.26376
               7.5904593                       368.91444
               7.5993267                       454.37081
               7.6081941                       328.53175
               7.6170614                       47.877615
               7.6259288                      -254.74654
               7.6347961                      -432.95528
               7.6436635                      -397.57487
               7.6525309                       -161.1663
               7.6613982                       165.86077
               7.6702656                       426.70911
               7.6791329                       493.29035
               7.6880003                       329.02213
               7.6968677                        8.586713
                7.705735                      -315.88618
               7.7146024                      -486.96912
               7.7234697                        -418.241
               7.7323371                       -137.7978
               7.7412045                       222.86788
               7.7500718                       490.42125
               7.7589392                       532.90541
               7.7678065                       324.71376
               7.7766739                      -38.621431
               7.7855412                      -384.11619
               7.7944086                      -543.58888
                7.803276                      -435.41693
               7.8121433                      -106.07967
               7.8210107                        289.5482
                7.829878                       560.96203
               7.8387454                       573.70721
               7.8476128                       315.90337
               7.8564801                      -93.236074
               7.8653475                      -458.33673
               7.8742148                      -601.03013
               7.8830822                      -446.97205
               7.8919496                       -64.29073
               7.9008169                       366.30514
               7.9096843                       636.75836
               7.9185516                       612.06807
                7.927419                       297.49336
               7.9362864                      -160.79619
               7.9451537                      -543.50362
               7.9540211                      -663.02732
               7.9628884                      -455.29656
               7.9717558                      -13.714595
               7.9806231                       452.59956
               7.9894905                        717.7295
               7.9983579                       648.28922
               8.0072252                       270.31461
               8.0160926                      -239.72845
               8.0249599                      -637.18372
               8.0338273                      -726.45002
               8.0426947                      -457.10323
                8.051562                        48.27384
               8.0604294                       549.62236
               8.0692967                       803.29208
               8.0781641                       680.30314
               8.0870315                       231.64253
               8.0958988                      -332.33007
               8.1047662                      -740.36062
               8.1136335                      -790.63349
               8.1225009                      -450.41979
               8.1313682                        124.0654
               8.1402356                       659.12183
                8.149103                        893.7796
               8.1579703                        706.8886
               8.1668377                       179.26579
                8.175705                      -440.81537
               8.1845724                        -854.297
               8.1934398                      -855.43062
               8.2023071                       -433.9389
               8.2111745                       215.36852
               8.2200418                       782.38911
               8.2289092                       989.65872
               8.2377766                       727.92603
               8.2466439                       113.25357
               8.2555113                      -564.03303
               8.2643786                      -976.24951
                8.273246                      -916.67583
               8.2821134                      -402.93618
               8.2909807                       326.21128
               8.2998481                       921.59724
               8.3087154                       1090.6657
               8.3175828                        741.0099
               8.3264501                       30.059668
               8.3353175                      -705.41134
               8.3441849                      -1108.6036
               8.3530522                      -975.58639
               8.3619196                      -358.08742
               8.3707869                       455.45897
               8.3796543                       1074.3549
               8.3885217                       1193.0335
                8.397389                       741.62588
               8.4062564                      -74.359087
               8.4151237                      -867.21003
               8.4239911                      -1251.0042
               8.4328585                      -1029.2197
               8.4417258                      -294.87976
               8.4505932                       607.57763
               8.4594605                       1243.5541
               8.4683279                       1297.3212
               8.4771953                       728.40665
               8.4860626                      -201.96515
                 8.49493                      -1050.4218
               8.5037973                      -1402.4738
               8.5126647                      -1074.7069
                8.521532                      -209.64599
               8.5303994                       785.46371
               8.5392668                       1430.0743
               8.5481341                       1402.1243
               8.5570015                       698.52603
               8.5658688                      -355.42611
               8.5747362                      -1256.0209
               8.5836036                      -1561.5425
               8.5924709                      -1108.5689
               8.6013383                      -98.399723
               8.6102056                       991.68658
                8.619073                       1633.5811
               8.6279404                       1503.8492
               8.6368077                       646.13239
               8.6456751                       -540.8359
               8.6545424                      -1488.1644
               8.6634098                      -1729.1283
               8.6722772                      -1128.6705
               8.6811445                       42.545364
               8.6900119                       1229.4833
               8.6988792                       1855.4237
               8.7077466                       1601.8328
               8.7166139                       569.81915
               8.7254813                      -758.38891
               8.7343487                      -1744.1999
                8.743216                      -1899.2389
               8.7520834                      -1126.7789
               8.7609507                       221.25411
               8.7698181                       1503.9216
               8.7786855                       2095.6695
               8.7875528                       1690.9638
               8.7964202                       461.03254
               8.8052875                      -1017.1859
               8.8141549                       -2031.156
               8.8230223                      -2075.7708
               8.8318896                      -1104.3387
                8.840757                       436.87125
               8.8496243                        1812.956
               8.8584917                        2350.328
               8.8673591                       1765.9134

