                        dy_beam=0.5/real
----------------------------------------------------------------------
                       0                               0
            0.0088673591                       15.419375
             0.017734718                       6.1154877
             0.026602077                     -0.64066394
             0.035469436                      -7.5949297
             0.044336795                      -10.339209
             0.053204154                      -9.7529549
             0.062071513                      -8.2589533
             0.070938872                      -7.1486805
             0.079806231                      -6.8909211
             0.088673591                        -7.44934
              0.09754095                      -8.5219074
              0.10640831                      -9.7203801
              0.11527567                      -10.740831
              0.12414303                      -11.493862
              0.13301039                      -12.131897
              0.14187774                      -12.975959
               0.1507451                      -14.411995
              0.15961246                      -16.774498
              0.16847982                      -20.244068
              0.17734718                      -24.819324
              0.18621454                      -30.415907
               0.1950819                      -37.173698
              0.20394926                      -46.084378
              0.21281662                      -60.331503
              0.22168398                      -87.911845
              0.23055134                      -134.34501
              0.23941869                      -186.14902
              0.24828605                      -219.46468
              0.25715341                      -105.35391
              0.26602077                      -74.174055
              0.27488813                      -63.828686
              0.28375549                      -60.271291
              0.29262285                       -59.82393
              0.30149021                      -61.221827
              0.31035757                      -63.979714
              0.31922493                      -67.920592
              0.32809228                      -73.003884
              0.33695964                      -79.217306
                0.345827                      -86.639076
              0.35469436                      -95.432476
              0.36356172                      -105.82399
              0.37242908                      -118.06047
              0.38129644                      -132.35697
               0.3901638                      -148.85897
              0.39903116                      -167.61818
              0.40789852                       -188.5483
              0.41676588                       -211.3276
              0.42563323                      -235.25033
              0.43450059                      -259.07617
              0.44336795                       -280.9059
              0.45223531                      -297.95465
              0.46110267                      -306.29375
              0.46997003                      -301.93228
              0.47883739                      -283.95605
              0.48770475                      -256.02361
              0.49657211                      -227.41347
              0.50543947                      -206.86617
              0.51430682                      -195.16463
              0.52317418                      -190.59993
              0.53204154                      -192.74444
               0.5409089                      -203.95185
              0.54977626                      -225.18526
              0.55864362                      -235.56756
              0.56751098                      -234.21467
              0.57637834                      -236.37916
               0.5852457                      -242.78926
              0.59411306                      -251.80525
              0.60298042                      -262.37931
              0.61184777                      -273.89346
              0.62071513                      -285.92518
              0.62958249                      -298.12003
              0.63844985                      -310.13222
              0.64731721                      -321.61092
              0.65618457                      -332.21912
              0.66505193                      -341.67006
              0.67391929                        -349.765
              0.68278665                      -356.41776
              0.69165401                       -361.6582
              0.70052137                      -365.61505
              0.70938872                      -368.48567
              0.71825608                      -370.50313
              0.72712344                      -371.90859
               0.7359908                      -372.93102
              0.74485816                      -373.77115
              0.75372552                      -374.58702
              0.76259288                      -375.48447
              0.77146024                       -376.5224
               0.7803276                      -377.73068
              0.78919496                      -379.11472
              0.79806231                      -380.62862
              0.80692967                        -382.149
              0.81579703                      -383.49049
              0.82466439                      -384.45543
              0.83353175                      -384.88203
              0.84239911                      -384.66905
              0.85126647                      -383.77469
              0.86013383                      -382.19829
              0.86900119                      -379.95693
              0.87786855                       -377.0684
              0.88673591                      -373.54684
              0.89560326                       -369.4107
              0.90447062                      -364.69668
              0.91333798                       -359.4705
              0.92220534                      -353.82707
               0.9310727                      -347.87835
              0.93994006                      -341.73309
              0.94880742                      -335.47716
              0.95767478                      -329.16305
              0.96654214                      -322.81284
               0.9754095                      -316.43323
              0.98427685                      -310.03513
              0.99314421                       -303.6488
               1.0020116                      -297.32737
               1.0108789                      -291.13741
               1.0197463                      -285.14122
               1.0286136                       -279.3794
                1.037481                      -273.86197
               1.0463484                      -268.57206
               1.0552157                      -263.48006
               1.0640831                      -258.56144
               1.0729504                      -253.80995
               1.0818178                         -249.24
               1.0906852                       -244.8777
               1.0995525                      -240.74511
               1.1084199                      -236.84563
               1.1172872                       -233.1579
               1.1261546                      -229.64134
                1.135022                      -226.25108
               1.1438893                      -222.95545
               1.1527567                      -219.74777
                1.161624                      -216.64715
               1.1704914                      -213.68759
               1.1793588                       -210.9008
               1.1882261                      -208.30032
               1.1970935                      -205.87455
               1.2059608                       -203.5915
               1.2148282                      -201.41265
               1.2236955                      -199.30899
               1.2325629                      -197.27165
               1.2414303                      -195.31214
               1.2502976                      -193.45249
                1.259165                      -191.71033
               1.2680323                      -190.08624
               1.2768997                      -188.55962
               1.2857671                       -187.0949
               1.2946344                      -185.65527
               1.3035018                      -184.21702
               1.3123691                      -182.77797
               1.3212365                      -181.35576
               1.3301039                      -179.97696
               1.3389712                      -178.66228
               1.3478386                      -177.41492
               1.3567059                      -176.21759
               1.3655733                      -175.03946
               1.3744407                      -173.84968
                1.383308                      -172.63101
               1.3921754                      -171.38685
               1.4010427                      -170.13854
               1.4099101                      -168.91425
               1.4187774                      -167.73473
               1.4276448                      -166.60288
               1.4365122                      -165.50193
               1.4453795                      -164.40315
               1.4542469                      -163.27927
               1.4631142                      -162.11714
               1.4719816                      -160.92357
                1.480849                      -159.72173
               1.4897163                      -158.53972
               1.4985837                      -157.39693
                1.507451                      -156.29471
               1.5163184                      -155.21575
               1.5251858                      -154.13243
               1.5340531                      -153.02004
               1.5429205                      -151.86856
               1.5517878                      -150.68735
               1.5606552                      -149.50061
               1.5695226                       -148.3357
               1.5783899                       -147.2101
               1.5872573                      -146.12314
               1.5961246                      -145.05646
                1.604992                      -143.98294
               1.6138593                      -142.87974
               1.6227267                      -141.73921
               1.6315941                      -140.57256
               1.6404614                      -139.40443
               1.6493288                      -138.26124
               1.6581961                      -137.15876
               1.6670635                      -136.09501
               1.6759309                       -135.0518
               1.6847982                      -134.00414
               1.6936656                      -132.93294
               1.7025329                      -131.83488
               1.7114003                      -130.72464
               1.7202677                      -129.62841
                1.729135                      -128.57185
               1.7380024                      -127.56815
               1.7468697                      -126.61197
               1.7557371                       -125.6821
               1.7646045                       -124.7515
               1.7734718                      -123.80006
               1.7823392                       -122.8238
               1.7912065                      -121.83641
               1.8000739                       -120.8623
               1.8089412                       -119.9246
               1.8178086                      -119.03392
                1.826676                      -118.18311
               1.8355433                      -117.35068
               1.8444107                      -116.51098
                1.853278                      -115.64645
               1.8621454                      -114.75582
               1.8710128                      -113.85459
               1.8798801                      -112.96741
               1.8887475                       -112.1161
               1.8976148                      -111.30911
               1.9064822                      -110.53739
               1.9153496                       -109.7787
               1.9242169                      -109.00816
               1.9330843                      -108.21021
               1.9419516                       -107.3859
                1.950819                      -106.55239
               1.9596864                      -105.73471
               1.9685537                      -104.95387
               1.9774211                        -104.217
               1.9862884                      -103.51428
               1.9951558                      -102.82404
               2.0040231                      -102.12358
               2.0128905                      -101.40045
               2.0217579                      -100.65861
               2.0306252                      -99.916651
               2.0394926                      -99.198821
               2.0483599                      -98.523194
               2.0572273                      -97.892723
               2.0660947                      -97.293396
                2.074962                      -96.700468
               2.0838294                      -96.089771
               2.0926967                       -95.44877
               2.1015641                      -94.782106
               2.1104315                      -94.109046
               2.1192988                      -93.453991
               2.1281662                      -92.834681
               2.1370335                      -92.253686
               2.1459009                      -91.697199
               2.1547682                       -91.14173
               2.1636356                      -90.565454
                2.172503                      -89.958731
               2.1813703                      -89.328752
               2.1902377                      -88.696143
                2.199105                      -88.085062
               2.2079724                      -87.511669
               2.2168398                      -86.976377
               2.2257071                      -86.463704
               2.2345745                      -85.949698
               2.2434418                      -85.413456
               2.2523092                      -84.847099
               2.2611766                      -84.259553
               2.2700439                      -83.672217
               2.2789113                      -83.108647
               2.2877786                      -82.583234
                2.296646                      -82.094273
               2.3055134                      -81.624744
               2.3143807                      -81.150452
               2.3232481                      -80.651617
               2.3321154                      -80.122305
               2.3409828                      -79.573249
               2.3498501                      -79.026657
               2.3587175                      -78.505514
               2.3675849                      -78.022531
               2.3764522                      -77.574033
               2.3853196                      -77.141718
               2.3941869                      -76.701475
               2.4030543                      -76.235002
               2.4119217                      -75.738689
                2.420789                      -75.225486
               2.4296564                      -74.718843
               2.4385237                      -74.241604
               2.4473911                      -73.805132
               2.4562585                      -73.403868
               2.4651258                      -73.017889
               2.4739932                      -72.622325
               2.4828605                      -72.199113
               2.4917279                      -71.745437
               2.5005953                      -71.274832
               2.5094626                      -70.810416
                 2.51833                      -70.373566
               2.5271973                      -69.973469
               2.5360647                      -69.602642
                2.544932                      -69.240498
               2.5537994                      -68.863291
               2.5626668                      -68.455568
               2.5715341                      -68.017703
               2.5804015                      -67.565794
               2.5892688                      -67.124032
               2.5981362                      -66.713127
               2.6070036                      -66.340422
               2.6158709                      -65.996368
               2.6247383                      -65.659126
               2.6336056                      -65.305047
                2.642473                      -64.920044
               2.6513404                      -64.506387
               2.6602077                       -64.08162
               2.6690751                      -63.670174
               2.6779424                      -63.291616
               2.6868098                      -62.951252
               2.6956772                      -62.637526
               2.7045445                      -62.327559
               2.7134119                      -61.998092
               2.7222792                      -61.636681
               2.7311466                      -61.247676
               2.7400139                       -60.85019
               2.7488813                      -60.468924
               2.7577487                      -60.122343
                2.766616                       -59.81377
               2.7754834                      -59.529788
               2.7843507                      -59.246652
               2.7932181                       -58.94167
               2.8020855                      -58.604119
               2.8109528                      -58.240421
               2.8198202                      -57.871062
               2.8286875                      -57.520744
               2.8375549                      -57.206487
               2.8464223                       -56.92933
               2.8552896                      -56.673699
                2.864157                      -56.414737
               2.8730243                      -56.130069
               2.8818917                      -55.810427
               2.8907591                      -55.464006
               2.8996264                      -55.112517
               2.9084938                      -54.780895
               2.9173611                      -54.485642
               2.9262285                      -54.227411
               2.9350958                       -53.99118
               2.9439632                      -53.753626
               2.9528306                      -53.494047
               2.9616979                      -53.204053
               2.9705653                      -52.891565
               2.9794326                      -52.576958
                  2.9883                      -52.282738
               2.9971674                      -52.021882
               3.0060347                      -51.790751
               3.0149021                      -51.570259
               3.0237694                      -51.334736
               3.0326368                      -51.064197
               3.0415042                      -50.754032
               3.0503715                      -50.417411
               3.0592389                      -50.079209
               3.0681062                      -49.764304
               3.0769736                      -49.485843
               3.0858409                      -49.239128
               3.0947083                      -49.004052
               3.1035757                      -48.754983
                3.112443                      -48.473362
               3.1213104                      -48.156932
               3.1301777                      -47.821144
               3.1390451                      -47.492053
               3.1479125                      -47.194032
               3.1567798                      -46.938263
               3.1656472                      -46.717481
               3.1745145                      -46.509558
               3.1833819                      -46.288199
               3.1922493                      -46.035677
               3.2011166                       -45.75146
                3.209984                      -45.452574
               3.2188513                        -45.1655
               3.2277187                      -44.913473
               3.2365861                      -44.705269
               3.2454534                      -44.530868
               3.2543208                       -44.36615
               3.2631881                      -44.184412
               3.2720555                      -43.969138
               3.2809228                      -43.721894
               3.2897902                      -43.461555
               3.2986576                      -43.215167
               3.3075249                      -43.004885
               3.3163923                      -42.837157
               3.3252596                      -42.699337
                3.334127                      -42.565461
               3.3429944                      -42.408421
               3.3518617                      -42.212781
               3.3607291                      -41.982021
               3.3695964                      -41.736725
               3.3784638                      -41.504525
               3.3873312                      -41.306664
               3.3961985                      -41.147614
               3.4050659                      -41.012781
               3.4139332                      -40.875456
               3.4228006                       -40.70966
                3.431668                      -40.502665
               3.4405353                      -40.261057
               3.4494027                       -40.00742
                 3.45827                      -39.769491
               3.4671374                      -39.567256
               3.4760047                      -39.403655
               3.4848721                      -39.262725
               3.4937395                      -39.116653
               3.5026068                      -38.939157
               3.5114742                      -38.718454
               3.5203415                      -38.463065
               3.5292089                      -38.197625
               3.5380763                      -37.950835
               3.5469436                      -37.741438
                3.555811                      -37.568939
               3.5646783                      -37.413628
               3.5735457                      -37.245902
               3.5824131                      -37.040511
               3.5912804                      -36.788831
               3.6001478                      -36.503315
               3.6090151                      -36.211858
               3.6178825                      -35.944751
               3.6267499                      -35.720418
               3.6356172                      -35.536827
               3.6444846                      -35.372636
               3.6533519                      -35.197669
               3.6622193                      -34.987662
               3.6710866                      -34.736278
                3.679954                      -34.458562
               3.6888214                      -34.184176
               3.6976887                      -33.943271
               3.7065561                      -33.751963
               3.7154234                      -33.604489
               3.7242908                      -33.475905
               3.7331582                       -33.33393
               3.7420255                      -33.154343
               3.7508929                      -32.932511
               3.7597602                      -32.685536
               3.7686276                      -32.443955
                3.777495                      -32.236954
               3.7863623                      -32.078178
               3.7952297                      -31.958891
                3.804097                      -31.851951
               3.8129644                       -31.72469
               3.8218318                       -31.55457
               3.8306991                      -31.340133
               3.8395665                      -31.101927
               3.8484338                      -30.872825
               3.8573012                      -30.682397
               3.8661685                      -30.542776
               3.8750359                      -30.442813
               3.8839033                      -30.353404
               3.8927706                      -30.241522
                3.901638                       -30.08622
               3.9105053                      -29.888888
               3.9193727                      -29.672845
               3.9282401                      -29.472315
               3.9371074                       -29.31606
               3.9459748                      -29.213487
               3.9548421                      -29.150004
               3.9637095                      -29.093873
               3.9725769                      -29.011439
               3.9814442                      -28.883452
               3.9903116                      -28.714758
               3.9991789                      -28.532704
               4.0080463                      -28.374706
               4.0169136                      -28.270207
                4.025781                      -28.225913
               4.0346484                      -28.222711
               4.0435157                      -28.225213
               4.0523831                      -28.197747
               4.0612504                      -28.120099
               4.0701178                      -27.997017
               4.0789852                      -27.855907
               4.0878525                      -27.732437
               4.0967199                      -27.651942
               4.1055872                      -27.616122
               4.1144546                      -27.601228
                4.123322                      -27.568468
               4.1321893                      -27.481783
               4.1410567                      -27.324617
                4.149924                      -27.107665
               4.1587914                       -26.86386
               4.1676588                      -26.632948
               4.1765261                      -26.442969
               4.1853935                      -26.297459
               4.1942608                      -26.174598
               4.2031282                      -26.038659
               4.2119955                      -25.858273
               4.2208629                      -25.622658
               4.2297303                      -25.347972
               4.2385976                      -25.070494
                4.247465                      -24.829894
               4.2563323                      -24.650531
               4.2651997                      -24.529791
               4.2740671                      -24.439185
               4.2829344                      -24.337817
               4.2918018                      -24.191998
               4.3006691                      -23.991534
               4.3095365                      -23.754753
               4.3184039                      -23.519698
               4.3272712                      -23.325844
               4.3361386                      -23.195031
               4.3450059                      -23.120712
               4.3538733                      -23.070718
               4.3627407                      -23.002502
                4.371608                      -22.883522
               4.3804754                      -22.706985
               4.3893427                      -22.495364
               4.3982101                      -22.289837
               4.4070774                      -22.130584
               4.4159448                      -22.037413
               4.4248122                      -21.999995
               4.4336795                      -21.982538
               4.4425469                      -21.940618
               4.4514142                      -21.842329
               4.4602816                      -21.683819
                4.469149                      -21.491462
               4.4780163                      -21.309071
               4.4868837                      -21.176616
                4.495751                      -21.110713
               4.5046184                      -21.096179
               4.5134858                      -21.092873
               4.5223531                      -21.054627
               4.5312205                      -20.951353
               4.5400878                      -20.783637
               4.5489552                      -20.582864
               4.5578226                       -20.39657
               4.5666899                      -20.266137
               4.5755573                      -20.207026
               4.5844246                      -20.200774
                4.593292                      -20.203583
               4.6021593                      -20.167795
               4.6110267                      -20.064869
               4.6198941                      -19.898815
               4.6287614                       -19.70414
               4.6376288                      -19.529071
               4.6464961                      -19.411965
               4.6553635                      -19.362256
               4.6642309                      -19.355296
               4.6730982                      -19.343634
               4.6819656                      -19.279657
               4.6908329                      -19.138673
               4.6997003                      -18.931392
               4.7085677                      -18.699538
                4.717435                      -18.496591
               4.7263024                      -18.362672
               4.7351697                      -18.305562
               4.7440371                      -18.297153
               4.7529045                      -18.287015
               4.7617718                      -18.226914
               4.7706392                      -18.094392
               4.7795065                      -17.904164
               4.7883739                      -17.701596
               4.7972412                      -17.541359
               4.8061086                      -17.461304
                4.814976                      -17.464297
               4.8238433                      -17.516555
               4.8327107                      -17.563456
                4.841578                      -17.555889
               4.8504454                      -17.474788
               4.8593128                      -17.341714
               4.8681801                      -17.208923
               4.8770475                      -17.133745
               4.8859148                      -17.151719
               4.8947822                      -17.259695
               4.9036496                      -17.416022
               4.9125169                      -17.558645
               4.9213843                      -17.633083
               4.9302516                      -17.616494
                4.939119                      -17.526556
               4.9479864                      -17.411127
               4.9568537                      -17.323699
               4.9657211                      -17.296544
               4.9745884                      -17.324686
               4.9834558                      -17.367972
               4.9923231                      -17.370843
               5.0011905                       -17.29095
               5.0100579                      -17.121703
               5.0189252                      -16.897394
               5.0277926                      -16.677906
               5.0366599                      -16.520175
               5.0455273                      -16.450096
               5.0543947                      -16.448854
                5.063262                      -16.460754
               5.0721294                      -16.419075
               5.0809967                      -16.277914
               5.0898641                      -16.034562
               5.0987315                      -15.732059
               5.1075988                      -15.440024
               5.1164662                      -15.222916
               5.1253335                      -15.110272
               5.1342009                      -15.083307
               5.1430682                      -15.084176
               5.1519356                      -15.044007
                5.160803                      -14.916474
               5.1696703                      -14.701012
               5.1785377                      -14.443093
                5.187405                      -14.212551
               5.1962724                      -14.070203
               5.2051398                      -14.038072
               5.2140071                      -14.087723
               5.2228745                      -14.152865
               5.2317418                      -14.160274
               5.2406092                      -14.064601
               5.2494766                      -13.870314
               5.2583439                      -13.629918
               5.2672113                      -13.419071
               5.2760786                      -13.300274
                5.284946                      -13.292715
               5.2938134                      -13.362708
               5.3026807                      -13.439801
               5.3115481                      -13.450781
               5.3204154                      -13.355546
               5.3292828                      -13.167301
               5.3381501                      -12.947474
               5.3470175                      -12.777584
               5.3558849                      -12.720957
               5.3647522                      -12.791027
               5.3736196                      -12.945321
               5.3824869                       -13.10697
               5.3913543                      -13.201925
               5.4002217                       -13.19399
                5.409089                      -13.102057
               5.4179564                       -12.99398
               5.4268237                      -12.954642
               5.4356911                      -13.042985
               5.4445585                      -13.261754
               5.4534258                      -13.552951
               5.4622932                      -13.821119
               5.4711605                      -13.974336
               5.4800279                       -13.96426
               5.4888953                      -13.806965
               5.4977626                      -13.575287
                 5.50663                      -13.362834
               5.5154973                      -13.237005
               5.5243647                      -13.207808
                5.533232                      -13.225171
               5.5420994                      -13.206177
               5.5509668                      -13.078669
               5.5598341                      -12.819783
               5.5687015                       -12.47033
               5.5775688                      -12.117735
               5.5864362                      -11.855416
               5.5953036                        -11.7382
               5.6041709                       -11.75539
               5.6130383                      -11.834981
               5.6219056                      -11.877408
                5.630773                      -11.803152
               5.6396404                      -11.591251
               5.6485077                      -11.290137
               5.6573751                      -10.995031
               5.6662424                      -10.802496
               5.6751098                      -10.763605
               5.6839772                      -10.858643
               5.6928445                      -11.005771
               5.7017119                      -11.100074
               5.7105792                      -11.063996
               5.7194466                      -10.884871
               5.7283139                      -10.621494
               5.7371813                      -10.377517
               5.7460487                      -10.251387
                5.754916                      -10.286903
               5.7637834                      -10.450101
               5.7726507                      -10.643392
               5.7815181                      -10.751045
               5.7903855                      -10.694137
               5.7992528                      -10.468845
               5.8081202                       -10.14898
               5.8169875                      -9.8515024
               5.8258549                      -9.6811001
               5.8347223                       -9.680149
               5.8435896                      -9.8083044
                5.852457                      -9.9614978
               5.8613243                      -10.021908
               5.8701917                      -9.9153946
               5.8790591                      -9.6482821
               5.8879264                      -9.3055955
               5.8967938                      -9.0110901
               5.9056611                      -8.8679153
               5.9145285                      -8.9082083
               5.9233958                      -9.0763795
               5.9322632                      -9.2544811
               5.9411306                      -9.3183394
               5.9499979                      -9.1974217
               5.9588653                      -8.9099128
               5.9677326                      -8.5553083
                  5.9766                      -8.2676882
               5.9854674                      -8.1515034
               5.9943347                      -8.2306991
               6.0032021                      -8.4360387
               6.0120694                      -8.6373416
               6.0209368                      -8.7057745
               6.0298042                      -8.5763889
               6.0386715                      -8.2810577
               6.0475389                      -7.9348598
               6.0564062                      -7.6818052
               6.0652736                      -7.6257406
               6.0741409                      -7.7799777
               6.0830083                      -8.0588749
               6.0918757                      -8.3174171
                6.100743                      -8.4187263
               6.1096104                      -8.2982855
               6.1184777                      -7.9953526
               6.1273451                      -7.6349633
               6.1362125                      -7.3681421
               6.1450798                      -7.2986904
               6.1539472                      -7.4315682
               6.1628145                      -7.6690898
               6.1716819                      -7.8576844
               6.1805493                      -7.8628279
               6.1894166                      -7.6360507
                6.198284                      -7.2407619
               6.2071513                      -6.8241721
               6.2160187                      -6.5476487
               6.2248861                      -6.5089837
               6.2337534                      -6.6938958
               6.2426208                      -6.9810205
               6.2514881                       -7.198785
               6.2603555                      -7.2074798
               6.2692228                      -6.9673924
               6.2780902                      -6.5596465
               6.2869576                      -6.1492219
               6.2958249                      -5.9066265
               6.3046923                      -5.9248648
               6.3135596                      -6.1738912
                6.322427                      -6.5136296
               6.3312944                      -6.7601134
               6.3401617                      -6.7741429
               6.3490291                      -6.5299659
               6.3578964                      -6.1306468
               6.3667638                      -5.7606522
               6.3756312                      -5.5982533
               6.3844985                      -5.7302616
               6.3933659                      -6.1092793
               6.4022332                      -6.5742948
               6.4111006                      -6.9266259
                6.419968                      -7.0253979
               6.4288353                      -6.8576822
               6.4377027                      -6.5449095
                 6.44657                       -6.288317
               6.4554374                      -6.2717984
               6.4643047                      -6.5678958
               6.4731721                       -7.096928
               6.4820395                      -7.6587258
               6.4909068                      -8.0239811
               6.4997742                       -8.042026
               6.5086415                       -7.709051
               6.5175089                      -7.1789775
               6.5263763                      -6.6918751
               6.5352436                      -6.4549177
                6.544111                      -6.5440392
               6.5529783                       -6.868754
               6.5618457                      -7.2168978
               6.5707131                      -7.3577658
               6.5795804                      -7.1555087
               6.5884478                      -6.6371711
               6.5973151                       -5.982539
               6.6061825                      -5.4391738
               6.6150499                      -5.2043507
               6.6239172                      -5.3295402
               6.6327846                      -5.6946278
               6.6416519                      -6.0648158
               6.6505193                      -6.2033732
               6.6593866                      -5.9848331
                6.668254                      -5.4592103
               6.6771214                      -4.8308019
               6.6859887                      -4.3610226
               6.6948561                      -4.2420281
               6.7037234                      -4.5013931
               6.7125908                      -4.9854939
               6.7214582                      -5.4302649
               6.7303255                      -5.5868502
               6.7391929                      -5.3421391
               6.7480602                      -4.7761635
               6.7569276                      -4.1268455
                6.765795                      -3.6778703
               6.7746623                      -3.6224548
               6.7835297                      -3.9684769
                6.792397                      -4.5314242
               6.8012644                      -5.0208142
               6.8101318                      -5.1793582
               6.8189991                      -4.9089134
               6.8278665                      -4.3211541
               6.8367338                      -3.6873757
               6.8456012                      -3.3137229
               6.8544685                       -3.391659
               6.8633359                      -3.9017454
               6.8722033                      -4.6194518
               6.8810706                      -5.2130402
                6.889938                      -5.3989737
               6.8988053                      -5.0832228
               6.9076727                       -4.403696
               6.9165401                      -3.6680107
               6.9254074                      -3.2072559
               6.9342748                      -3.2144852
               6.9431421                      -3.6485638
               6.9520095                      -4.2523001
               6.9608769                      -4.6768901
               6.9697442                      -4.6527011
               6.9786116                       -4.122956
               6.9874789                      -3.2762028
               6.9963463                      -2.4596635
               7.0052137                      -2.0150506
                7.014081                      -2.1126475
               7.0229484                      -2.6664314
               7.0318157                      -3.3702379
               7.0406831                      -3.8426818
               7.0495504                      -3.8101985
               7.0584178                      -3.2422937
               7.0672852                      -2.3706724
               7.0761525                       -1.580834
               7.0850199                      -1.2305281
               7.0938872                      -1.4757208
               7.1027546                       -2.188242
                7.111622                      -3.0130282
               7.1204893                      -3.5350861
               7.1293567                      -3.4779184
                7.138224                      -2.8391995
               7.1470914                      -1.8968501
               7.1559588                      -1.0797536
               7.1648261                     -0.76183642
               7.1736935                      -1.0792864
               7.1825608                      -1.8596037
               7.1914282                       -2.700113
               7.2002955                      -3.1596287
               7.2091629                      -2.9729146
               7.2180303                       -2.183475
               7.2268976                      -1.1293482
                7.235765                     -0.28527628
               7.2446323                    -0.035415505
               7.2534997                     -0.48562936
               7.2623671                      -1.4066156
               7.2712344                       -2.338952
               7.2801018                      -2.8103711
               7.2889691                      -2.5660076
               7.2978365                      -1.7000097
               7.3067039                     -0.61351939
               7.3155712                      0.17128866
               7.3244386                      0.26247826
               7.3333059                     -0.40550691
               7.3421733                      -1.5280684
               7.3510407                      -2.5679407
                7.359908                      -3.0145693
               7.3687754                      -2.6361533
               7.3776427                      -1.5912708
               7.3865101                     -0.35882957
               7.3953774                      0.48853934
               7.4042448                      0.55809742
               7.4131122                     -0.16932166
               7.4219795                      -1.3225094
               7.4308469                      -2.3151617
               7.4397142                      -2.6262255
               7.4485816                      -2.0514783
                7.457449                      -0.8081382
               7.4663163                      0.55868797
               7.4751837                       1.4323771
                7.484051                       1.4207266
               7.4929184                      0.54975377
               7.5017858                     -0.73974069
               7.5106531                      -1.7965986
               7.5195205                      -2.0697472
               7.5283878                      -1.3774187
               7.5372552                   -0.0027685727
               7.5461226                       1.4337941
               7.5549899                       2.2685297
               7.5638573                       2.1159917
               7.5727246                       1.0611958
                7.581592                      -0.3723204
               7.5904593                      -1.4679565
               7.5993267                      -1.6605906
               7.6081941                     -0.81461302
               7.6170614                      0.70016648
               7.6259288                       2.1773133
               7.6347961                        2.909033
               7.6436635                       2.5299603
               7.6525309                       1.2013652
               7.6613982                     -0.45514083
               7.6702656                      -1.6508196
               7.6791329                      -1.8105169
               7.6880003                     -0.85337625
               7.6968677                      0.75352512
                7.705735                       2.2113816
               7.7146024                       2.7759007
               7.7234697                        2.127508
               7.7323371                      0.54171603
               7.7412045                       -1.234024
               7.7500718                      -2.3322494
               7.7589392                      -2.1873264
               7.7678065                     -0.82206947
               7.7766739                       1.1618331
               7.7855412                       2.8536955
               7.7944086                       3.4627582
                7.803276                       2.7048905
               7.8121433                      0.95121586
               7.8210107                      -0.9413242
                7.829878                      -2.0358076
               7.8387454                      -1.7613687
               7.8476128                     -0.19430319
               7.8564801                       1.9641585
               7.8653475                       3.7112127
               7.8742148                       4.2203293
               7.8830822                       3.2475986
               7.8919496                       1.2628974
               7.9008169                     -0.76392393
               7.9096843                      -1.8218987
               7.9185516                      -1.3501104
                7.927419                       0.4782818
               7.9362864                       2.8222377
               7.9451537                       4.5635628
               7.9540211                       4.8426801
               7.9628884                       3.4781466
               7.9717558                       1.0681566
               7.9806231                      -1.2850484
               7.9894905                      -2.4995388
               7.9983579                      -2.0402459
               8.0072252                     -0.18546348
               8.0160926                       2.0981697
               8.0249599                       3.6200033
               8.0338273                        3.549761
               8.0426947                        1.827826
                8.051562                     -0.79918013
               8.0604294                       -3.103615
               8.0692967                      -3.9642763
               8.0781641                      -2.9132464
               8.0870315                     -0.37900543
               8.0958988                       2.4974813
               8.1047662                       4.3960888
               8.1136335                       4.4453587
               8.1225009                       2.6521092
               8.1313682                    -0.077560477
               8.1402356                      -2.3541214
                8.149103                      -2.9743021
               8.1579703                      -1.5180124
               8.1668377                       1.4208852
                8.175705                       4.4967629
               8.1845724                       6.2507751
               8.1934398                       5.8184305
               8.2023071                       3.3695143
               8.2111745                     0.055283746
               8.2200418                      -2.5247115
               8.2289092                      -3.0895376
               8.2377766                      -1.3035729
               8.2466439                       2.0398886
               8.2555113                        5.377292
               8.2643786                       7.1165561
                8.273246                       6.4051263
               8.2821134                       3.5594957
               8.2909807                    -0.064893813
               8.2998481                      -2.7122275
               8.3087154                       -3.072068
               8.3175828                     -0.93059685
               8.3264501                       2.6876717
               8.3353175                       5.9960121
               8.3441849                       7.2947547
               8.3530522                       5.8105992
               8.3619196                       2.1158623
               8.3707869                      -2.1014458
               8.3796543                      -4.8333642
               8.3885217                      -4.7302883
                8.397389                      -1.7682727
               8.4062564                       2.7200406
               8.4151237                       6.6622663
               8.4239911                        8.222981
               8.4328585                       6.6735961
               8.4417258                       2.7724994
               8.4505932                      -1.5622069
               8.4594605                      -4.1494455
               8.4683279                      -3.6037041
               8.4771953                    -0.035487388
               8.4860626                       4.9648325
                 8.49493                       9.0769177
               8.5037973                       10.357973
               8.5126647                       8.1890724
                8.521532                       3.5984564
               8.5303994                      -1.2034077
               8.5392668                      -3.8666059
               8.5481341                      -3.0357649
               8.5570015                      0.97359987
               8.5658688                        6.296053
               8.5747362                        10.38915
               8.5836036                       11.249821
               8.5924709                       8.4057822
               8.6013383                       3.1900686
               8.6102056                      -1.8592487
                8.619073                      -4.2089837
               8.6279404                      -2.5695566
               8.6368077                        2.442375
               8.6456751                       8.5521532
               8.6545424                       12.889662
               8.6634098                       13.368988
               8.6722772                       9.7208635
               8.6811445                        3.667364
               8.6900119                      -1.8652867
               8.6988792                      -4.1415009
               8.7077466                      -1.9528652
               8.7166139                       3.7567054
               8.7254813                       10.289701
               8.7343487                       14.467938
                8.743216                       14.159465
               8.7520834                        9.351072
               8.7609507                       2.2119731
               8.7698181                      -3.8883062
               8.7786855                      -5.9879634
               8.7875528                      -2.9995883
               8.7964202                       3.7289538
               8.8052875                       11.030276
               8.8141549                       15.401971
               8.8230223                       14.680714
               8.8318896                       9.1251815
                8.840757                        1.364636
               8.8496243                      -4.8205307
               8.8584917                      -6.3083784
               8.8673591                      -2.1806151

